0.245103864066183
0.258749015649229
0.25046435316787
0.254095773969869
0.253663394536009
0.24424434660537
0.250796747158801
0.248112275464922
0.243744493727579
0.258889660484264
0.255792844284608
0.24738701645844
0.249108017304994
0.256433302999022
0.24867468763139
0.245567650981287
0.256770163053067
0.250104746809995
0.248320574219294
0.249388489920973
0.251829234233507
0.247033730464512
0.240443931864864
0.249205711850534
0.245404042116311
0.250579098235066
0.250983062631621
0.243224198453973
0.2498689809835
0.248264661317739
0.252714415608408
0.255483601951499
0.244935422573968
0.247424893222821
0.24937446668316
0.25415098013736
0.247030100753952
0.250924257819845
0.248046551945552
0.241652467659752
0.246889879979784
0.25548197799868
0.243316732107025
0.247391948868061
0.255730476350179
0.242387915162619
0.240036467878279
0.257110226777965
0.249192389985832
0.248177973238454
0.248297398502058
0.248482845183858
0.249963393763155
0.247225217078184
0.251172896780055
0.25523901207407
0.248142048200947
0.248161286698122
0.253188962114557
0.245776253584778
0.254251790089283
0.250372437257089
0.242366222731256
0.251548330893616
0.24702464007681
0.250726852855378
0.244245802479766
0.250559117713394
0.239499397321514
0.249940926957111
0.249447910506371
0.248310613718759
0.255780616333497
0.245110062734551
0.242982746657222
0.255599561709227
0.259529508953677
0.251172204626845
0.256650352371891
0.256274235404829
0.247844332559702
0.251640090995241
0.246465404229861
0.246880258044091
0.25103788507829
0.244701329128756
0.257930736332828
0.250493013894399
0.251814787991953
0.233989811340475
0.248498338583483
0.253142316403798
0.252616245179659
0.255278393935872
0.243714132366858
0.257029868151311
0.253591432202376
0.24764399461964
0.247266593775177
0.251913721183524
0.245063230171035
0.246731065332461
0.253202023467592
0.250267112648727
0.253203543394269
0.24664777879051
0.25168588471702
0.242310158822195
0.255715252772263
0.250850719408793
0.259170903713203
0.248656093665409
0.254796762032744
0.252066172481682
0.251990818321543
0.252834609126706
0.243996848467348
0.25063766817392
0.246378540127853
0.246571177358545
0.246278059969205
0.246466328518206
0.251204405362716
0.24597125546258
0.240899712966735
0.247304067418039
0.247358153188121
0.243522010626846
0.260014891771466
0.251154790743326
0.24889002104915
0.241526127727957
0.252847339398297
0.248687075916122
0.256509954794883
0.252298462192878
0.252756362366426
0.257460188409518
0.252023919391849
0.251349517837796
0.259185770645492
0.253042769292871
0.255481943035071
0.244133272471492
0.245819489781388
0.245150196579219
0.24790283472612
0.231698466698445
0.24622361236377
0.247489623227336
0.260638411829794
0.246090226970975
0.257845929609466
0.248391766157168
0.252299725479298
0.262904795632429
0.251446539361167
0.251806931966716
0.243570001292898
0.250047545069844
0.249851059559858
0.248146959057067
0.251686511385489
0.25270895452769
0.24115445258063
0.251632962876133
0.243939272134647
0.246324160754522
0.25372337275564
0.242932450394574
0.252909538054737
0.24843115859028
0.255774501367123
0.249740382211312
0.24788996217599
0.244904499124423
0.243371609924264
0.248738854747329
0.254795978864634
0.247041373868576
0.250733481039034
0.255833826721967
0.259008685632052
0.248147031700246
0.252542668024708
0.245632895163585
0.262649859142274
0.254238496292876
0.242493264422923
0.246248291457344
0.25340919868703
0.248913050743726
0.252981525434775
0.247895077437533
0.251645239569515
0.245438603494997
0.245969454187175
0.243195324004974
0.254563396873331
0.248726847240381
0.251470151626254
0.248169322660782
0.24570228915532
0.251867126264343
0.25639644740746
0.252951578078898
0.249251241521195
0.253613233244251
0.247189005323701
0.240307451579588
0.250027400574252
0.249875489517327
0.246676623740893
0.248657541455732
0.255107550303755
0.24613334493543
0.242242523606626
0.246910237615585
0.257353249170697
0.251425532778791
0.252912079540593
0.246055608875818
0.241585656912812
0.239174472021667
0.246494474257593
0.250774161268768
0.250352405838715
0.247624983505094
0.249212199200645
0.243852764261106
0.245887421784734
0.250893123090358
0.252890632209125
0.252477545947703
0.247226939121315
0.251546071942465
0.256024196520627
0.256296550643027
0.24894323571068
0.247081587808317
0.244528671529885
0.253981228702962
0.251391939750083
0.252164116504967
0.239130309961262
0.251141528805974
0.24867184501405
0.250830324309052
0.245997443610471
0.245708463687671
0.0454073841276586
0.0469653642860993
0.0734630811695954
0.0447504470896897
0.0511515454464851
0.0487943847914281
0.0610752128597176
0.0772565084975861
0.080925420047491
0.0795380961167955
0.0587373217085753
0.0694565393581339
0.0284822805835035
0.0481881532681767
0.0781151883875375
0.0506110434375161
0.0791263877652439
0.0766208709613036
0.0514877701225264
0.0569951984972912
0.05096569941561
0.0794053140856527
0.0721405473555703
0.0724078884725178
0.0737610007695021
0.0747574031785774
0.0730653946194732
0.0458149752784206
0.0652663593094095
0.0819123072997223
0.0752243208420969
0.0426451000214452
0.0515058313545406
0.057400757514546
0.0715955176404011
0.0647627288552341
0.0648068703008522
0.0805327392493271
0.0698172770739868
0.0827118430451936
0.0703732587159652
0.0541307179883074
0.0750863214366095
0.0652366181670269
0.0800143177002645
0.0720044927364838
0.0669464428342196
0.0549483516873151
0.0750268283608163
0.0410862377416239
0.0764901547890106
0.0718476680521711
0.0770064186431846
0.0802028494464383
0.0783631809271106
0.077040163610818
0.0798592461333876
0.0791650448343527
0.0776933513000978
0.0514199354433836
0.074950138392704
0.0861945307362707
0.0251216594206629
0.075373274410623
0.0792110584380534
0.0721661681556579
0.038972710107718
0.0752271410738479
0.0530737028893845
0.0801707946437935
0.0707241607898908
0.0752967348437209
0.0775413735870062
0.0498639183274512
0.0535520204751269
0.0803502509433721
0.0684235190654723
0.0702455988536024
0.0651024970826031
0.0778923460541857
0.0831450330213176
0.0510368784070078
0.0757849298800507
0.0763909066281141
0.0751548832597128
0.0772156547093036
0.0776757936993899
0.0691674766487174
0.0534560915511893
0.043762418585332
0.0743098932889823
0.0743740419340664
0.0574380832055679
0.0525997104625634
0.0710306617219358
0.0662024949466645
0.0768986403362894
0.0799209801991048
0.0811245067099223
0.0842445180236305
0.0738388642120147
0.0800898167493364
0.0829053153735856
0.0743079392139871
0.0707792837499655
0.0823605859601475
0.026788740160796
0.0524247487382523
0.0818578807919146
0.0702626079090236
0.0514099543870687
0.0804357342393821
0.0503917647220466
0.0756217767319677
0.0752494752421489
0.0262446721662829
0.0747624480846208
0.0748019796373722
0.078358990197408
0.0473806950256265
0.0831309028538455
0.0652627199258618
0.0775859899833889
0.0721932589212838
0.0719631776981623
0.08015883238314
0.0796933655390513
0.0799177198044908
0.0753667476132004
0.0775951431154878
0.071551548156036
0.044012350683369
0.0815839967719359
0.0812402296428652
0.0678105302951076
0.0676268892773959
0.074904511651928
0.0755291421949911
0.0472690565628273
0.0775728292290478
0.0725718081211486
0.051636946463535
0.0512446788640879
0.0781225619106563
0.0499041074020296
0.0390772541475652
0.0749524535658844
0.0798538282444157
0.0466496521935228
0.0500752131966452
0.0508425845267035
0.0776053074171695
0.0682963579737761
0.0785161216876737
0.0730379405838609
0.0781949955850087
0.0832927358473908
0.0257230238961093
0.056146187640822
0.0807241692243105
0.0731256138914448
0.0766651904151684
0.0269275475745038
0.0719625025093002
0.0779173959536801
0.0256577102630669
0.0792641898372676
0.0736432433498438
0.0772422583884576
0.050405536604366
0.0809794211939053
0.0831032449215338
0.0495427669657999
0.0760453825164443
0.0746188933420423
0.0714063054109677
0.0727123401578797
0.0763503063448658
0.0431102009093416
0.0731043462650413
0.0692562850854447
0.0783514945944615
0.0646412146978699
0.0838573224721881
0.0199626698767552
0.0701468686566818
0.0758329241745575
0.0486892286147495
0.0765147597006792
0.0736755315321367
0.0727195511592759
0.0733489038227358
0.0789852334069497
0.0510251017244698
0.020973269327558
0.0549371504651643
0.056270314828552
0.0768963525217807
0.083346452722362
0.0449587248358005
0.0773295500413936
0.0791300953504573
0.0536397341556427
0.0491483747065621
0.0531369800988519
0.081072498559054
0.0748216437083473
0.0760006622216939
0.0697686557064504
0.0809216268915085
0.0443783344048823
0.05102364607737
0.0704285834726262
0.07641156077516
0.0512145274275273
0.0566178531337198
0.0797100398397988
0.0452961838704055
0.0464505463577814
0.0434800777644902
0.0662690770353253
0.0577106992148433
0.0492954722256665
0.0771610077659849
0.0801234128344009
0.0603591783567683
0.0565048851888612
0.0717121411125168
0.0486860500370331
0.0804834668466283
0.0784204412648992
0.0237053052457811
0.0685925966394196
0.0755612765180084
0.0791216175458973
0.0505860564515263
0.0810444377216411
0.0759272210371378
0.0703311305455822
0.0168467147717428
0.0475485278977543
0.0806195001639344
0.0556077211131603
0.0280871404180149
0.050383307986994
0.0824588274040549
0.0750412202392863
0.0488314825879263
0.081326965092306
0.0504581528455946
0.0267800385788268
0.0227434782993982
0.0729999794551026
0.0201401876359747
0.0780800456967998
0.0265034791500159
0.0453234844505968
0.0536951378809473
0.0781338696928665
0.102999458563332
0.0931510436894244
0.0349549038882021
0.0260825561010325
0.0471359404739008
0.111576761987862
0.102338510849823
0.0786998413532911
0.0508404699361078
0.0289495544069501
0.0287228231174187
0.0577371787473452
0.095254254128273
0.0884408283230036
0.0245335692306433
0.0814225168572716
0.0230318262385322
0.0440075894432484
0.0492314778992518
0.0267921079504035
0.0550812463827495
0.073941131818606
0.0618709532125613
0.0109838898109171
0.0490517717373261
0.0188301330374381
0.0484856823334786
0.0459920148698586
0.0290280337672186
0.0560892295648886
0.0753253175712719
0.0238389898701454
0.0765500129526617
0.022357271665764
0.0758439636622552
0.0267029836970354
0.0231642286675115
0.024441205939372
0.0248699060174269
0.0385485198636484
0.0676183902978944
0.0708648467631198
0.0258080305798325
0.0560697017279886
0.0302287814006513
0.0260159260956182
0.0186835057531236
0.0151083122575195
0.0945195182103969
0.0163959882824611
0.0795825266976509
0.0306834391990117
0.0297745568369742
0.0211673187858267
0.0248722588379922
0.0521113555506079
0.0221352182818788
0.0577712070246569
0.0437294079702353
0.100687320322318
0.0985403085993475
0.0728356369545433
0.0955666581741021
0.0279349574266017
0.0245850085718967
0.108786405783308
0.0425908915077897
0.0232763219071592
0.0278272852189919
0.0204860243010197
0.108370721784623
0.0678646858859188
0.0219373519330012
0.0466155783511215
0.0242708068012208
0.0443670495029068
0.0937044727652133
0.0948798336990166
0.0711204840716108
0.0419212842220035
0.0241965372206655
0.0215111166288133
0.0223445089280417
0.0701087065590712
0.0709958551694668
0.0275957327865725
0.0256029417529132
0.0489406885570138
0.0871411288605967
0.0529061119827473
0.0419236149208975
0.0546095233722394
0.102340748690959
0.0216072654246463
0.0301793979422148
0.0759892931150815
0.0480688802639878
0.0481317146188405
0.0629420498736823
0.0328138422083382
0.0725203868127244
0.0409546590443113
0.0198456956466115
0.072784728531237
0.0215105864567523
0.0490003904441704
0.0508752321473208
0.0774411242116312
0.10722977249772
0.0438376229708765
0.0250423345833557
0.0304462785624977
0.0401007371888537
0.0178090991648254
0.0238820146231014
0.0269361461292604
0.0250299228663461
0.0216921791501862
0.0266531579532012
0.018770113987836
0.0555421692278333
0.0244891742486903
0.0744712033234047
0.0710893936738131
0.0473426665528649
0.0484521608266187
0.0242342843390737
0.0252121867280913
0.0844956021413377
0.0706686749797064
0.0250293621377416
0.0912308014239198
0.019805967723238
0.020198289687773
0.0134881924620555
0.0800823716071476
0.0491535692261915
0.0218055640398833
0.0530678571172635
0.0902757455844256
0.0207259670842888
0.0170230030532612
0.0276149966092429
0.0156662346148263
0.0811642622973074
0.0240877868864996
0.0283207526032839
0.0167825964667264
0.0784290064681756
0.0452397487904536
0.0567955224719934
0.0944565510707528
0.018009506640457
0.0247161224544198
0.0531880856015979
0.0742764832680831
0.0350719626067625
0.0203571356212982
0.0551555000274132
0.0254135468876919
0.0267986828777912
0.0528153090798179
0.0832824081796799
0.0414523921774321
0.0766599801828566
0.0262800915112612
0.0509185011751285
0.0145489115008106
0.0797146477401207
0.0271393891938726
0.0706014775411792
0.0422670587713039
0.0226559435393521
0.025939814565548
0.0262355540823424
0.104098250416628
0.0187480111909109
0.0236945694524775
0.0244686403190955
0.075728678870934
0.0754187624501975
0.0208167008237432
0.031355618558694
0.0844351495077574
0.0788446011261484
0.072341054069463
0.0241628443304912
0.0257441978628947
0.0241050854584625
0.0572200170049521
0.0165055566995652
0.0988768915536236
0.0335092227596598
0.0270117962682288
0.013997502029965
0.0478884748327947
0.0845552838912307
0.030976438601727
0.0311379843736266
0.0720341383880258
0.0769365972898198
0.0972666487134311
0.0539401010601145
0.0704896141936414
0.0834389386838983
0.0218867169137525
0.0194055756135381
0.0425731174261698
0.103499152692122
0.0463856782220513
0.050753301240892
0.052399061218678
0.0539661192962396
0.0768830831704539
0.0533823102460621
0.0355188166591975
0.0143229429675419
0.0187823580947041
0.0769335984620319
0.0474519702568216
0.0307441563196286
0.0299380218725489
0.0222846703308913
0.0909255211541694
0.0628504199279668
0.042282017410222
0.0464274244886069
0.0452230476810238
0.0493200091082652
0.0748705487208174
0.0335525558531028
0.0196526524997916
0.0477315194317508
0.0223835593602961
0.0515940645396693
0.0494057938454037
0.0286364639901038
0.0755447881452379
0.0795745920505559
0.0233784243905928
0.0286410608600692
0.0536770295716925
0.0283587621074513
0.0226048376791063
0.0260621826754598
0.0233895045848409
0.0193346531017193
0.0184493512599935
0.0732897185942046
0.0313525333989185
0.0778576905596693
0.0211061632391701
0.043940749376626
0.0773467338477065
0.0502293284721322
0.027056518717533
0.0770889416636769
0.0457101187043501
0.0189205137568366
0.0223717155932927
0.0486172873431084
0.049986921503573
0.0739624946874086
0.0280972874370348
0.047247623628603
0.077001956995702
0.0512098788730331
0.0752226619242819
0.0200550760338475
0.053298502886181
0.0287558592261503
0.0225799298987703
0.016623202078133
0.0173442989509771
0.0294953345040978
0.072800333041229
0.0829658886635771
0.0347969195094876
0.103908059261126
0.0530207318813561
0.0711468087325065
0.0437298013753119
0.0457838978737308
0.0245023483186115
0.0218948846645399
0.0648178151299027
0.079657728791787
0.0482054359110167
0.0749929456814865
0.040829225835827
0.019815290041232
0.0428229517022371
0.0444583002094724
0.053403062768511
0.0526975683413501
0.028513201485661
0.055960889036645
0.0896092388884459
0.0303912692994885
0.0189581136545352
0.0201473883060233
0.0412965355311708
0.101210102747461
0.0503892775097784
0.017470658400292
0.0265265413025252
0.027403620508145
0.050816370257165
0.0500294292182064
0.0174983948496967
0.0768245138903606
0.0509685110131374
0.0250227769155846
0.026261491854016
0.0511796017763587
0.0533659870901592
0.0171162187377721
0.0227670076334399
0.0249507706229645
0.0286666173887259
0.0355968298931947
0.0500820872581298
0.0698036231451373
0.0546748873846299
0.0236013263217616
0.0824297351381224
0.0765071774001159
0.0464581423080429
0.0376629500762678
0.0232297575216454
0.0699818156027211
0.070737105073565
0.0813478649800048
0.0224979154928362
0.0734506361602126
0.0766344583754746
0.0220763763047812
0.0314164362443651
0.0220697035369816
0.0252876736317291
0.0210986407003462
0.0569408223135702
0.0737401887319803
0.0547978206943989
0.0246722146186248
0.0539299559125337
0.026394905120152
0.0742910691074385
0.0785667515747995
0.0999778282619732
0.0751864405871758
0.074424279442881
0.0755424475278378
0.0146972463915471
0.0688891703404516
0.0515887461604158
0.0526314283334775
0.0534044335370657
0.0209986708610973
0.0197007770129558
0.0554216691246054
0.0323561499078179
0.0687698891770182
0.0253025302844736
0.073754258443474
0.0798423309668956
0.0549555614942769
0.105637910104165
0.0475628035183525
0.0432685876268112
0.0477010649561101
0.0528650857567314
0.0638935989989738
0.0229420945847843
0.0289597948590615
0.0690297463595131
0.0275947477058864
0.0223445850336214
0.0719093915478964
0.0546361738941799
0.110021219136913
0.0483835498584222
0.0455091160239226
0.0558309235213533
0.103964744603318
0.0798883956848217
0.0582763269161453
0.0174014481013216
0.0710691786477707
0.0521804802003865
0.0480886824325017
0.0723848047917518
0.0496858627719991
0.0794499068960745
0.0554511777358834
0.079608708820137
0.044385054736123
0.022031211219367
0.0177491675227137
0.0783774698632968
0.0467460493730799
0.0999921942794445
0.0199532898775125
0.0447756495876947
0.0142147171014944
0.032506475501698
0.0339048128296826
0.0628088899223545
0.0822348572620813
0.0240578678189444
0.0262387627945019
0.0744377001964927
0.0255967322308662
0.020754472605692
0.0492173520527485
0.0563141444909705
0.0176662974022625
0.0271593555238406
0.081447854848242
0.023570264162852
0.0302398583665366
0.0520686552554592
0.07148634161015
0.0330151399394909
0.0210907195114981
0.0181972189883896
0.0490702322705919
0.0472221843766386
0.0278918970923971
0.0167576669388614
0.0305166572386838
0.0264636017445404
0.0551978420825657
0.0837943872209572
0.0169393732374789
0.0188745538867868
0.0165162109563545
0.0755413164142422
0.0204396796253625
0.0237296289225157
0.023749191951446
0.0826372568522861
0.0516139610437478
0.0306345505947359
0.0592037185253182
0.0683671566411363
0.0505501481721736
0.0315715786547895
0.0270135110014122
0.0739807090696185
0.0425040033049421
0.0300318857943022
0.0989794622890885
0.0518058188461065
0.0712093357959109
0.0256815862375972
0.0284097308735562
0.0487704676267742
0.0462056714861063
0.0251393815859493
0.0371386641621727
0.0261764577298513
0.0193418858262599
0.0795016918753792
0.0752424236592579
0.012808763907111
0.0315931386094878
0.0537316425782196
0.0270945431697383
0.0769255196726519
0.0264338303605443
0.0227198262444391
0.0142951135371578
0.0279836930770522
0.0269133488606571
0.0627955721126195
0.0958225676407752
0.0684129021720208
0.0569107227141653
0.0457996805331772
0.0515423949760311
0.049969812646596
0.0789515215096969
0.0521432080174263
0.0500031141015524
0.0251035818365435
0.0494894585434524
0.0251826829268878
0.0772505409342716
0.058458571509887
0.0624508678590079
