0.171307894190466
0.122567378176043
0.123974773332945
0.174158069422234
0.275766533313608
0.192591496589696
0.198403795057432
0.201280483874727
0.0493930055503079
0.249036653961062
0.0317616781931019
0.129262271373102
0.274875241827672
0.249006775087815
0.269088485583752
0.204926286603011
0.127491110748157
0.266601765573856
0.264870746526985
0.271498111851915
0.195639786946123
0.0524577888240884
0.0225167122646641
0.274772106468273
0.176504529161528
0.207052766917602
0.173266778995045
0.165596339926355
0.27162813400542
0.203627381970212
0.197446790179559
0.177619017728597
0.27269897666646
0.272324181967059
0.12403236700937
0.129649752516828
0.20060219932786
0.0515745654744174
0.17655145703228
0.174807612657338
0.277711225340679
0.282912974402305
0.197656638921249
0.122584347506455
0.127516579745954
0.201923209829183
0.1817415228862
0.0155106574810806
0.122979409706554
0.195593377416986
0.280070599049832
0.027459043090685
0.268643100450539
0.0588763106436448
0.272109662605906
0.117208170460496
0.162255113279711
0.129073965415001
0.281178061992996
0.277782992397322
0.130713029716946
0.0502092510320852
0.278723205844117
0.195602483154972
0.263245166450507
0.265515586068844
0.273953726714164
0.174553270460198
0.282760488308083
0.280430739225183
0.275604381806869
0.200797322952958
0.180282090031271
0.28123325660744
0.196621493531956
0.272359634442151
0.248933260985503
0.172476225560343
0.262166048856778
0.247427343765575
0.270037655221925
0.124910355301914
0.188152841330694
0.0544370800334609
0.199542152408393
0.17814068507856
0.27609015866665
0.249412130456832
0.276865479663759
0.132006879568905
0.2775921238847
0.0223176308743239
0.279838204830492
0.274784326572946
0.125893392146436
0.20168466527776
0.17300977203094
0.203918941034247
0.270953054633875
0.275017631292485
0.209740541184623
0.0448840970002436
0.201708719844437
0.277460556739236
0.166370821501911
0.168247817868183
0.267538388246059
0.27683616043098
0.28260263266235
0.273348121956655
0.188590828464429
0.20108099134467
0.169390860129366
0.0431148989357307
0.173368813063337
0.281324225875839
0.17478156611788
0.248916876703405
0.00612855577135957
0.17811651943256
0.130508347662143
0.120564556057929
0.0273868219318538
0.174406864368925
0.267425091676329
0.0246251646520023
0.200263908205893
0.0489913853206622
0.026647926528863
0.200203972890924
0.27836671990953
0.195125110851255
0.275358363036927
0.28060615384944
0.189965692514606
0.281463640927368
0.173163721652083
0.119212168186419
0.0473280386043003
0.27052405478509
0.276244983813602
0.120946853361443
0.26929372253117
0.0280757483649639
0.272396179628618
0.285499439638071
0.270945650193729
0.283014381898926
0.169680719562106
0.270996515494235
0.172156363945592
0.126753977978564
0.275972899829878
0.274977741999728
0.279097629575819
0.174813027154208
0.284298559932323
0.278092982613888
0.178978452297975
0.135764233920341
0.278012638746553
0.171201296611588
0.200748621736417
0.127317830013976
0.207537318758739
0.274467386152274
0.268464767394413
0.271880633520865
0.198450773516185
0.170308679164086
0.12740124710126
0.20112895483134
0.171370307001221
0.184219934934233
0.204486594471549
0.203604420373016
0.206072207346973
0.254452901185611
0.0380648995746876
0.0491106564688114
0.207071572475905
0.121200623955644
0.203665880671731
0.26279246577402
0.200480692050246
0.260035800150901
0.190860139292531
0.180879850588235
0.120697548579563
0.0285197873047971
0.170389478274932
0.0486554259563515
0.284002978115711
0.265239409208522
0.2748655533063
0.263504995784492
0.209674071469229
0.266558014193588
0.180883787189789
0.203746770857551
0.271527746049989
0.280480017477546
0.180239586838481
0.174943909330438
0.215689949144595
0.175369245760458
0.0269136658920571
0.200757477320319
0.173315481525392
0.273638749397821
0.274488613510283
0.195436790629741
0.0438597268255062
0.186436100793562
0.27061921455657
0.274088733417313
0.179176258002853
0.280793181092684
0.272602122445316
0.172162727007841
0.0438933738907229
0.274059905003643
0.193099946825701
0.2010059700815
0.129116911642045
0.204312566442102
0.0487278644170675
0.198555628522777
0.17543707823464
0.194729282298043
0.173752836931631
0.200322063316809
0.119743196030049
0.168039929395669
0.200898760371605
0.268228938702489
0.204751692688899
0.170568391342409
0.278661431511674
0.0231089739244138
0.285777179326522
0.123910772000592
0.17736909245332
0.126217513090509
0.273315135952924
0.0593317975359724
0.0244661188738302
0.278432748876636
0.245582956814697
0.279645634794433
0.124311382664579
0.128266280759395
0.128549929162326
0.126968275848552
0.128044104950256
0.124943779521507
0.0927686184996047
0.128533974121435
0.116242523313746
0.123917289697521
0.0951595674040729
0.12533742611529
0.0957381336633476
0.127946911696975
0.109251878671885
0.131649499994056
0.0962450222133892
0.127656689787761
0.125434480795516
0.102786689029098
0.132098392656533
0.127843148281382
0.118879181755554
0.125941843866074
0.123090171541201
0.121153147197433
0.101482370907124
0.1232715915899
0.12945611698377
0.128502081540817
0.116962779496977
0.0939324721076002
0.127044886740389
0.120719607547355
0.0904097630936997
0.128839311513406
0.10569135774737
0.0989334599877095
0.108360804282469
0.0986927813292891
0.102676406006787
0.124287511699674
0.0982479321795351
0.108881461272661
0.0923469147221498
0.121949416820447
0.10947506427962
0.105009846964524
0.0963465365624818
0.102312025796914
0.0998952787655735
0.126084836356884
0.129889170716216
0.123025522983837
0.129057820412094
0.10037460847512
0.0910910391069107
0.122906482473927
0.113501148203099
0.114308386042028
0.126181906610358
0.128720326116436
0.12202623029549
0.123983383512549
0.132095448009346
0.102581606270919
0.116748130977195
0.0993564473657777
0.12502055431711
0.122533373060307
0.104247482645218
0.102171087008837
0.0957320889272213
0.124070345498046
0.131261224870959
0.13348573413908
0.1301121157441
0.129317075740541
0.102404924745251
0.131819098907277
0.12132073126071
0.12045559083044
0.125022100168729
0.0940040799024661
0.099331451386536
0.12954504055065
0.0989781747211199
0.123725827428143
0.131969716192927
0.115185302063757
0.126981290442359
0.0983655740150571
0.101718272693594
0.0960130916653017
0.128062432024314
0.128925603503459
0.0889294094907659
0.128169003417835
0.120402989418775
0.131539551584187
0.122100155161348
0.115911156340038
0.126106675952448
0.0930689522033152
0.0974745176782862
0.129599461859825
0.121795197387143
0.0901735474695378
0.124007376290784
0.122778387692972
0.127353943793294
0.122521571116594
0.101130159892464
0.119277803887666
0.0907024733674925
0.0992743802457728
0.127943835371783
0.129411083162193
0.0956312989583317
0.124538190471267
0.0973879388352004
0.0962219409477938
0.125535045645007
0.107254559814696
0.129941702686843
0.125197684573594
0.117041234680775
0.089958937479263
0.121076013445698
0.103043520736448
0.124828983809644
0.0996831690496568
0.139653813428883
0.126463163283816
0.120699040178352
0.120846169112143
0.122865927933706
0.099781540272494
0.098983072297272
0.101028378874853
0.125090114662802
0.124108980893212
0.117336020026347
0.133046513726082
0.119904612942667
0.123646253357741
0.107510660753633
0.123452519941055
0.122008280267363
0.105547356774689
0.128016141304657
0.0970080444846467
0.0921677436001423
0.0990168143635037
0.128064146584377
0.132215957516102
0.12580962628318
0.117442191275667
0.124830928162554
0.126028662995939
0.10097195510951
0.102589608325913
0.106551913383295
0.100275689853
0.12771246981287
0.128440158752413
0.120746779521396
0.0999938738608711
0.104034247598265
0.10449522059938
0.130776743177138
0.132675805200351
0.100707422796354
0.132459415671785
0.127349004507187
0.123210259866982
0.120681365726448
0.106214493241022
0.123811330769121
0.0995878239433993
0.119958099637605
0.121878671352335
0.10968922218506
0.116464736589105
0.126734785740737
0.119078936686506
0.126066719590103
0.0941069806163353
0.117315020711032
0.0921905526903544
0.115290199022023
0.123494336535701
0.128831767526658
0.12755290698835
0.100354171592572
0.12696179556975
0.130047719809401
0.0987461621227725
0.112488331413666
0.123637696190871
0.0971481536458796
0.122226395523185
0.097124627900555
0.0991206731008068
0.133790843931105
0.119939423012186
0.127290224814349
0.120284649971201
0.12997042616279
0.120996841506038
0.130615091840794
0.131975183904525
0.128720127842949
0.0937887937273285
0.127758961741886
0.0982978859205033
0.123048629248252
0.132767852526973
0.13188406141001
0.096448937355833
0.119203455528656
0.131876767121295
0.128148069885991
0.121024682356542
0.0970104709509767
0.11038422493013
0.103127836368151
0.102763708924602
0.128891680587375
0.131924498070429
0.0997837605519909
0.127929893523047
0.103307777975354
0.105125248970644
0.125598045186282
0.130912828137229
0.102462555719594
0.129301007272945
0.0993403784700063
0.095901695252034
0.13111396122799
0.10217235064802
0.128909419596443
0.106305134445142
0.123822860192596
0.125090946426571
0.122013202673806
0.133124831179725
0.0917463504025838
0.120158138897776
0.0507900135128264
-0.000994278153184786
-0.00663195026728562
0.0283046284491717
0.0677199668973766
0.0326047583657774
0.0308712430780981
0.0528928401035756
-0.000332084073053268
-0.00379876058814762
0.0619625038556441
0.0209462643047386
0.0696027570523858
0.0202354810575623
0.0735243647336506
0.0537946908221535
0.0246773141741931
-0.00402492447033186
0.0228171073997637
0.0559285629844651
0.0268990124141948
-0.000451410534521001
0.00310453649478065
0.0284039203338521
0.00151871932618235
-0.00951447104463684
0.0830566833443708
0.00872584518347333
0.069978109515067
0.0802105957044479
0.00230502240077174
0.0218960617864607
0.000776225049168545
0.056454393524817
0.0149489024565727
0.0781048126067578
0.0289106032861372
-0.000511046022567581
0.00336626200916391
0.022520707506849
0.0019556585943755
0.082279501163478
0.0143824784901281
0.0483198486693854
0.0588044836476642
0.0404277650848455
0.0267163145100405
-0.00597376852359633
-0.00152036269386387
0.0488846438545074
0.0251964318547127
0.0224513885541061
0.0219113083503194
0.0312483541095371
0.00185162448790296
0.019440462452518
0.0466231547429605
0.0201613141761
0.0540359640516235
0.0433573087905993
0.0229703517027224
0.0520907174614735
0.031563857758085
0.00217671889870457
0.00164466285992515
0.0245225844634197
0.0288677606113177
0.0707469283427367
0.0609526394377572
-0.00626483088012424
0.00443138496627547
0.0288826071710856
0.022694315884179
0.0395961299607488
0.0234498485280989
0.0478718164694672
0.0458166138644667
0.0233861952158174
0.0286740186593092
0.0521081496999088
0.0236048987615918
0.0311691649871722
0.0809955119944157
0.0514048092330853
-0.0044503844965049
0.0235522732720221
0.0151773814800678
0.000502503927705446
0.0466234810346162
0.060791871209991
0.0604637854564326
-0.00227962626094052
0.0547270042382992
0.0549901721019604
0.0436394411665403
0.0344155606116342
0.030632156734038
0.0437875214128835
0.00641892435769098
0.0429989034394299
-0.001845648165994
0.0255016748734525
0.0467091319912751
0.0550197493971485
0.0513617771357519
-0.00173943179461643
0.0526102805651667
-0.00314498176786651
-0.00996788419529615
-0.00244442713246603
0.0549405514045967
0.0505099613503234
0.0568326069459898
0.0536494017369004
0.0727713671635338
0.0490295329227788
0.0590626568289436
0.0339097045623585
0.0268316041633956
0.0601345983909184
0.0449008648711484
0.0281668972552087
0.0257268944813739
0.0547294588533587
0.0467511496661051
0.0730745530929483
-0.00928594225154107
0.0644307800357651
0.0773284393947872
-0.00709273802939109
0.0319291785822577
0.00912452829151879
0.0732629541568662
0.0491365077135428
0.0193292541592123
0.0787432377791246
0.019062544560076
-0.000547362192717128
0.00332778304091578
0.0163606969840984
-0.0034121952870183
0.0179349842140567
0.0493140577534951
0.00657012358290648
0.021048667629673
0.0314697650819689
0.0522090557140557
0.0516210022705061
0.0185155896302849
0.0577873629880265
0.0527004337563848
-0.00445987289841037
0.045761139331189
0.0499185166221215
0.0576963947083552
0.0316533035093135
-0.00282165448241761
0.0459891294874965
0.0521617125187192
-0.00643083135097606
0.0534111085058403
0.0536031968377003
0.0506427028309274
0.0577182236789213
0.0265776057449366
0.00792997206409125
-0.00253323350102557
0.0328742861615257
-0.00129919741318088
-0.00243569265269966
0.02095828038859
0.0523759649766682
0.0196252504680683
0.0429731249180573
-0.00480818035426847
0.0489424721642644
0.0485404794992211
0.000517315228148217
0.0196707351500271
0.0488081961991959
0.0558569454149043
0.0467112650411602
0.042845778087042
0.00670712023470499
0.049705637873094
0.0356617927534371
0.0256360762757436
0.0491705193798246
0.0279704922166432
0.0767388330807082
0.0350153071366883
0.0493027950813257
4.65867699742692e-06
0.0565838903527237
0.0424800116042201
-0.000405084348988739
0.0696241580109562
0.0507677480141045
0.0217817445673146
0.0012145854172194
0.0274329170145785
0.0193119844922789
0.0794002972902062
0.0215615479841582
0.0524790642611599
0.0548483397541236
-0.000338492617490833
0.0495999596344615
0.0505177011393825
0.0554931820888764
0.0435756753794146
0.042409653779461
0.0255354542863146
0.052429181319915
0.0225189871637347
0.053027455784992
0.0270662268527878
0.0522303966463065
0.0450766679209811
0.0174231334970893
0.0502614776427893
0.0208861183748385
0.0702690575399825
0.0661393708607191
0.0265968370934438
0.0196386851011775
0.00415685855210263
0.0435312350249411
0.025773028614321
0.0490822625959564
0.080765950776151
0.00233105181100854
0.0252411970343588
-0.00859994803974485
-0.0127859092698437
0.0759708074921548
0.000165247589717004
0.0559848616261478
1.26770288713732e-05
0.00693287556959013
0.00791736634022151
0.0809876278818748
-0.00278467703168179
0.0464108823679526
0.0225210147714474
0.0466732143540622
0.0267880595313649
0.0568406284935799
0.0495440659504724
0.00738420043598487
0.047405098153852
0.0283164980288658
0.0542538987285624
0.0761094559678939
0.0542436961802892
0.0697437751554213
0.0492274109527275
0.0526687571245223
0.0256045290578937
0.0424983220890963
0.0492195695239246
0.00198803166669597
0.0293661087605235
0.0173596970793213
0.0227894888763674
0.019086162724858
0.0416553795460874
0.0211217245658586
0.000294809588150383
0.0421996981123569
0.0504610694527112
0.00193324196622468
0.030861537373698
0.04943866219104
0.0252605273281753
0.0681453415449402
0.0279078992610874
-0.011554290017397
0.0514919222633119
0.0265539336102753
0.0224915019070719
0.0399520838466166
0.0248711908873805
0.00196013476959023
-0.000257709007924738
0.0293852077650339
0.0283135167916135
0.0759034988580937
0.00349441220108206
-0.00680884783546933
0.00592720741978032
0.054594633553104
0.0815739091081952
0.052391712053085
0.045204795007502
0.048369981146546
0.0508196008177946
0.0690505642819414
0.0506102515432223
0.0459044648663402
-0.00433389218902242
0.0525867788278484
0.0419828839930986
-0.00364450928805691
0.00468356804609493
0.0523750075414762
0.0515921810931782
0.0504312245106608
0.0800599121249265
-0.00198990057901212
0.0331486535510084
0.00155991679677855
0.0504375550938362
0.0534846628748851
-0.00459013761020475
-0.00556063415922681
0.0245827126796487
0.0311748124685579
0.0676373787444914
-0.00200914998509898
0.0389680271270137
0.0694796254177604
0.0752397014274887
0.0267730717441471
0.0520713324160901
0.0480876203569619
0.06837374836946
0.0557896771549298
-0.00325584909928267
0.0532936266001115
0.0497287349343155
0.0220411285883826
0.0572200157973311
-0.00730729659883313
0.000134004257635588
0.0232838402316351
0.0189943164911997
0.064143757692935
0.00146843077500341
0.0265626286763838
-0.00111653748391605
0.0532382670040581
0.0476648878164546
-0.00688968238886296
0.0462119459706457
0.0451732623508761
0.0544558230002049
0.00403934774824748
0.0039976526118303
0.0491511343157179
0.00274074256415142
0.0218795587232257
0.0174982033734854
0.00386433656840174
0.00217617206037999
0.0654423912786773
0.016445056243401
-0.000775839617715692
-0.00320249418204546
0.02715687040434
0.0272677385884557
0.0500856381754328
-0.00589828893326271
-0.000399574333489234
0.0271713881342825
0.0442958015939828
0.0549272645317886
0.0538678872175619
0.0254500342381941
0.00645608612888891
0.0215363145315791
0.000190113242274257
0.0460405103105862
0.0489020102139793
0.0446300303796611
0.0468072108688449
0.0758192139403944
0.0298232266390551
0.0461972284379996
0.0575886482221412
0.0624537065654435
0.046172124905562
-0.00222418517493424
0.0511498879329191
0.059390368943001
0.00486497804559815
0.00285593031989889
0.0723211324103222
0.0499246189747872
0.0659270672379953
0.049884226927353
0.0296019221810068
0.0758127941299404
0.0481596077421059
0.0031590982977809
0.0195057705204538
0.0295088498301426
0.0263758212464079
0.0495956631921688
0.0309856307014919
0.0061984787072658
0.041317692871951
0.0673839019071398
0.0548955677355059
0.0517273376191905
0.0448855387867021
0.0544585433055754
0.0208460901311104
0.083912365015539
0.0520746609831014
0.0249595252648687
0.0570924837898359
0.0274629192768467
0.0546632220844882
0.0632664083587814
0.0316527672006019
0.0466815318588291
0.0529887845019209
-0.00347305660343425
0.0521976514436448
0.0541651909415147
0.0277311152471918
0.0258619968054758
0.0556616297609429
0.00223839205910123
0.0447122236462412
0.025037586311581
0.0533419098049421
0.0559246430572784
0.0344885275900565
-0.0117719761936951
0.0240874376767326
0.0218096811070709
-0.0035844885091929
0.0778798445628388
0.00263818485300795
0.0522950255260192
0.0551971125527365
0.0214106655148987
0.0262453940798145
0.050449279070661
0.0545497668089364
0.0538235343481959
0.0491402797238716
0.00232813305000018
0.00249738940566367
0.0274145139137166
0.0475937371071954
-0.00445138516636337
0.0534848765073541
0.0407944038590418
0.0531652773069905
-0.00320617377232399
0.0445157722253051
0.0458770930910586
0.00282516712579089
0.0188493927677795
0.0163176962228706
0.0769984807318505
0.0770329560250153
0.0248136656403164
0.052662315994449
0.0704473391735782
-0.00478444314917246
0.0769208904423228
0.00170290988374546
-0.000831246763916715
0.050696979449696
0.0490130572407838
0.0483236109102394
0.00157266049616187
0.0762774040323297
0.0250997193638757
0.0471312863471189
0.0447426148663948
-0.00501946374306
0.0471807857562843
-0.0035319562563074
0.0765413806631687
0.0806113204523986
0.0275604996692324
0.040949251430313
0.00207657365358023
0.0732472898191395
0.00438692959091881
0.055276248431165
-0.00983856561194421
0.0525660945473249
0.0797394002689604
0.0520881667577784
0.0569446463203896
0.028750047493814
0.0543549807760293
0.0534314849767462
0.00418382588450183
-0.00317988375002637
0.024182672583113
0.00224889518640627
-0.0108742959062198
0.0448061498405015
