0.165317332611244
0.171741474217442
0.181475406776235
0.179748667391271
0.173496436662213
0.171864464443143
0.174168553749401
0.170362473662683
0.179647582762579
0.174611029946993
0.172568462139153
0.175318806764328
0.171484694668912
0.172835679299196
0.174365388596949
0.177126505222135
0.179093885261942
0.172476397230091
0.179502561343244
0.165988138569502
0.172387149347783
0.171036275428681
0.1744901182095
0.170905881847401
0.175823524039383
0.179003269353838
0.167407248782056
0.176494904116017
0.17487828198335
0.169082557175129
0.176892694917769
0.169717961376538
0.177282934753607
0.161961455180994
0.179390949368947
0.167254287321137
0.185247473717221
0.175030524723928
0.171587539609605
0.175396861299141
0.180343142986032
0.17354744081414
0.181293202198869
0.180236092581251
0.165899299982497
0.174648110360102
0.169226409214991
0.179177820626756
0.168104064237981
0.17762682396668
0.172839080138188
0.174877538448052
0.171704646772265
0.173268673614577
0.171392774194532
0.175623415798004
0.170490133122491
0.183688217516264
0.174435994605884
0.176184609099745
0.16756186736297
0.165217464743996
0.179693374786024
0.171963621095791
0.172578241477385
0.179717794921477
0.175971181569227
0.168309501884754
0.180179951937597
0.190262989193585
0.169755517319078
0.1762685569571
0.177158931176193
0.177062430434299
0.183431141723186
0.177286878408875
0.181923013954271
0.173213415810635
0.171740743764028
0.170978747021333
0.183626956950692
0.185294224773235
0.182489246416245
0.176689216740679
0.166435733913441
0.181299601533199
0.172403290154497
0.177317318832058
0.17492583767002
0.17044504406041
0.165814704301996
0.182076262080442
0.179018329655486
0.180898103990813
0.174962704796117
0.170680032068764
0.1733274985454
0.168248806271318
0.180144384144647
0.176208782537526
0.176211942060525
0.172099077630156
0.173273886911162
0.180527775284702
0.180203294576102
0.172390847998943
0.177267127289464
0.167517225161089
0.175622021597945
0.179691931890205
0.171558086175432
0.180025643330312
0.172023168761434
0.17332831124456
0.167478850769147
0.173580136875705
0.17668697874286
0.182977181452625
0.168504543564309
0.184743570347888
0.177398411803212
0.178092519698037
0.172711864249338
0.173176052428007
0.178945780542187
0.170872693073118
0.175993113031844
0.172472903806358
0.189477516263529
0.168674486053296
0.168256176337291
0.172793256098621
0.172137227709209
0.177538849810242
0.186632038572695
0.17586765320954
0.182251960435634
0.174772138081653
0.173982034075859
0.175299188394909
0.181882520298886
0.183004567065514
0.178392679928094
0.173005196243089
0.177127391245652
0.170339686914018
0.172737313417246
0.178777138514805
0.17640529769866
0.182711394305993
0.172866880539824
0.168403708376439
0.167820946525788
0.17411267555612
0.171261906816941
0.179316427809203
0.183206241715236
0.185529181489977
0.18154266324249
0.170758009628954
0.179345112095919
0.172797981709565
0.176784604789614
0.171381002334527
0.170412077410824
0.176061591179843
0.174948908057333
0.170868532947816
0.171061727649571
0.16932019340008
0.167618169722248
0.173836572192984
0.172499502027001
0.174172929482721
0.173242632914237
0.174573373725945
0.17722955573519
0.178955765877972
0.175857108020717
0.1678501638911
0.178449776475161
0.171656651469484
0.175727456867195
0.181778874315873
0.162959029052119
0.166276851312958
0.172018241946342
0.176890372249959
0.184804189506314
0.163936341584527
0.177861544615907
0.175578150941272
0.17763203688097
0.176628425835562
0.180610417855229
0.177353070644404
0.177223188849439
0.166353543366881
0.167527952097892
0.181276327601968
0.172862721281751
0.171695524337182
0.178066546257667
0.173660975166764
0.172669413296346
0.169182214150938
0.181938693987353
0.170712364599262
0.168994604108818
0.178664866815153
0.168245941761808
0.185246639832691
0.17394287168534
0.182377924112209
0.166397009349272
0.172972387361434
0.174137181492146
0.17086326889874
0.17705781255568
0.18975073464895
0.181770263583724
0.178078150493253
0.181273578380431
0.178246313561691
0.184948030979384
0.175695552404345
0.173259988810357
0.172553540198041
0.174266033305224
0.183129507628188
0.181586931533233
0.175130574054592
0.173950192662987
0.181083621450333
0.175719004162885
0.178199074546363
0.179907456396919
0.170805493429698
0.173897182992298
0.182376540201458
0.177782289045555
0.166894255883203
0.177202377040386
0.171281566172639
0.174172620866825
0.173389089765923
0.184549731709301
0.181442722406597
0.175428821914481
0.172962578492843
0.100840769771638
0.0916187631274537
0.10938273075709
0.0312061839591923
0.0968781681739523
0.0990770464200762
0.102935178427546
0.0160318053634891
0.0955602030879099
0.0944084170872936
0.104690099275492
0.108340345911933
0.0993939142979323
0.0983802534148631
0.093634672510306
0.101878614738532
0.0937217278789431
0.103920163645314
0.0992325993210591
0.0966614201133096
0.101709351281121
0.102030131361106
0.0959224563207035
0.0991288795683375
0.107958389151469
0.102173389552953
0.0968255018775595
0.0991525142589634
0.0916599356568046
0.0883559603531643
0.10522530738353
0.104869544902747
0.102867204335061
0.104022807713754
0.0969919236953805
0.102900080816407
0.0938357525469793
0.0973656666376799
0.0963743370011844
0.0925213408669549
0.0968412311795224
0.096449833103338
0.0982129175151239
0.0975624249212094
0.098093076778644
0.0965393058564228
0.101534520322744
0.0271726480833363
0.103091069755889
0.107316553085888
0.0933080771234833
0.0943508962584444
0.0231951020164981
0.0241254386046767
0.0261226589391991
0.107395439601479
0.0203912025758598
0.101405747665285
0.0985034950038462
0.0992088231148025
0.103808440881379
0.0947009571019434
0.103835376157669
0.0988728808227489
0.0970255185351286
0.0968631180076478
0.0910341662784375
0.0971335009097166
0.0951274907330167
0.104898883155833
0.0944889442713659
0.0232480739940948
0.0936022329699041
0.0961793273694324
0.0365473533434325
0.103945104139977
0.0978760104453845
0.0991886715239667
0.108707642395167
0.0973013237062517
0.0917858657018475
0.0984776830672137
0.10275522742355
0.0971620057019353
0.0260658136043939
0.104536043708571
0.0958785485481189
0.0906912105030424
0.0212580117789301
0.105431093836556
0.09510135814494
0.10165968512314
0.0907165469043531
0.1067213401105
0.100491585781431
0.098394300590737
0.0272617580165244
0.0895605914812768
0.0881563631525874
0.0978943895584597
0.0301962781643301
0.0961927615451112
0.0237214513135949
0.109190829031426
0.105460131925236
0.0239481911683501
0.103557195452143
0.024041545776592
0.09441630838458
0.097531568336843
0.0961380181098575
0.0974153257523345
0.0998970692311703
0.0995979747243183
0.0959361571062663
0.0210328678577204
0.0268664095456021
0.0264754515509703
0.0930320707768125
0.0988720369093557
0.101637180711295
0.102074313717019
0.100738475099815
0.10503016903918
0.0296451157654979
0.0984611732088654
0.0353217841944895
0.0967522021052686
0.0954083276133202
0.0983208888846956
0.0955115482168821
0.0192802732007381
0.0227813006382125
0.0973627861743555
0.0956986465971934
0.102297032166122
0.100612663316259
0.106005853444551
0.0966802392889323
0.10102910214885
0.11108862777687
0.102598555130759
0.0215575507844825
0.0935901544945681
0.101103329225851
0.0281693993835399
0.0916725595266789
0.0967528351703004
0.0977298619366138
0.0263179664095539
0.0967057365124914
0.105843886413776
0.106921660877416
0.101587605090919
0.0996850995972764
0.0979821523605805
0.0231408779797587
0.101463128680498
0.101001104453228
0.103062644387254
0.0992580645622375
0.0985763722081348
0.0232710548654422
0.103051558449951
0.109605577279421
0.101738870997789
0.0310657098700498
0.0950877459373781
0.100069492930638
0.098747584569788
0.0309644813957313
0.0205764082178172
0.0935300522836489
0.0167493705011543
0.104863523747726
0.104620737415579
0.0954496286253111
0.0960093095872678
0.0923934948742241
0.100409558324604
0.107420805216335
0.0997931936585486
0.0947524008920279
0.0895273437734395
0.101798006847143
0.0345673965968463
0.0960623366387329
0.0975763664005045
0.0976397838502282
0.098367528175848
0.101560302114976
0.0997644293885696
0.100021506286691
0.0971389731264771
0.0891906830398272
0.0912407940139733
0.11138847519786
0.0956305806812192
0.100258223816933
0.0234854097893409
0.0271216766607155
0.0947271214417422
0.103349222844678
0.098653784355391
0.105817880461784
0.0952342502029957
0.0219503126966023
0.0265703169741469
0.0984816260347094
0.0260022241993588
0.108156892012279
0.096060600611653
0.108459348163261
0.0214410451861311
0.032399083608801
0.093784780348001
0.0992233752786882
0.108079437108246
0.104438509557208
0.021839761517532
0.102932668667356
0.0958622377162696
0.0993542260854698
0.0927914318910802
0.0191309888563045
0.0213482949923292
0.0875594033535142
0.101098400919171
0.098613542821744
0.10064400543393
0.025527877248125
0.100233033019506
0.0995052086602696
0.106855485147486
0.0936815510907288
0.102859821694468
0.100960688080949
0.102588625316361
0.103311841781182
0.0354965602990454
0.0294147036953261
0.0954246143195766
0.0986219780601798
0.100226886159546
0.0932875178188662
0.0905617941120092
0.0994383071690813
0.0287669475730408
0.106039885609474
0.10074460113567
0.0246756374460367
0.101601855012672
0.0249742573045854
-0.00733684095365101
0.0213360080799539
0.0921401103578335
0.0230434976697999
0.0980544199256571
0.0055428675619305
0.0955512466015881
0.117354935966959
0.171873904274722
0.00174460572172511
0.0753177146717774
0.0228636651388162
0.13324424049004
0.067275090532014
0.027116970419959
0.0258390899404004
0.0521876649737026
0.166531413753817
-0.00267702505435175
0.117675753846422
-0.00656925377865495
0.105234666913747
0.00269488545384317
0.174789307994431
0.115229947875165
-0.000686837839736006
0.0238087095438009
0.0328027277164276
0.0255942942706023
0.0997190442601255
0.0767789645686189
0.0235015967046604
0.0141998210629661
0.0997633497012309
0.134066193776502
0.0689071774214614
0.177807400892183
0.0739843947589934
0.0226599440110839
-0.00849459226016351
-0.00731764596926253
0.121169058796068
0.103792481988985
0.0222547910863963
0.0258140493646498
0.0322545480897252
0.0245580967916515
0.0249286115380758
0.052501012561988
0.0309114739962554
0.0969418411459321
0.0713392668242181
-0.00149089296335162
0.10064338351815
-0.00462139200938887
0.172096403216852
0.0475681572559651
0.0773779306640498
0.00348932607881979
0.127819947771384
0.0968847760869652
0.100535585567758
0.0278538469653923
0.0497229840838444
0.126387837948142
0.00556051388828415
0.061977024585903
0.12897588629571
-0.0048921144730198
0.0482962370790957
0.104486455761591
0.0663388754957793
-7.65728074287152e-05
0.102565258701153
0.0279534400577107
0.108315674217711
0.0275231130042895
-0.00176620023648907
0.12252848341246
0.043673489073795
0.0265534783810162
0.0511799220730462
0.17760365533591
0.124978265678459
0.123352845039319
0.00823712152956892
0.0248056460078079
0.0757519330214933
0.0521450023593361
0.0526982329599588
-0.0045759088164038
-0.0111192233824951
0.180403424898609
-0.00348711492488273
0.0226718122196623
0.179988166259967
0.00285960723139446
0.04682181845308
0.0453913479058683
0.0204727111094647
0.09538668261189
0.168191777776828
-0.00281501620078947
-0.00136157349257399
0.0916528879565347
0.0989353586473599
0.0225978845215639
0.10764145774716
-0.00813051509889213
0.00315480731903332
0.0271069981554249
0.0252854950247906
0.0907103246528169
0.0198852370148471
0.103303963482392
0.0282602462584918
0.126723448897309
0.0772133175446983
0.0825984349468417
0.0211043508547639
0.0534783767534279
0.0310507884181331
0.104294481117951
0.0480284528330427
0.0221796017977219
0.181832670086012
0.126702405547777
0.0258564572234622
0.0200691432748804
0.0328326647077515
0.101635180020181
0.100936168843741
0.00122345801958128
0.128302638046362
0.0976516554913232
0.0240670851165972
-0.00658415080863077
-0.0103406592245354
0.0200377949356397
0.122820962611753
0.0265489135332328
0.0228252479880335
0.0175713451985343
0.121216571735718
0.0032833682115054
0.0770493288471
0.172958955405424
-0.00740636503627621
0.0711069653189821
0.0209618063795931
0.0211884128805667
0.0207709613217129
0.00315530424742001
0.0255867943927082
0.125098719720844
0.0227931800731247
0.0739623801335863
0.132234814815746
-0.00493190648333726
0.0996610437204062
0.00148910903934542
0.0517233136279041
0.0735403155255888
0.0757237278892306
0.0785923177300975
-0.000567152950493962
-0.00181293047957816
0.101633664534334
0.106077365146011
0.0568856716489847
-0.00873090731161406
0.109693944713551
0.0720995249844253
0.101808698614094
0.168502899070981
0.0227189144128154
0.00150628494697111
0.050518535132691
0.00838464153057541
0.0233477583218271
-0.00874466631414696
0.0186543816787768
0.0736608958777396
0.0187616444667206
0.0244822680059038
0.0756873191946875
0.0440905562745524
0.131474025311952
0.023459381070023
0.0488899367441838
0.169593854534148
0.121204743365668
0.0259279212673974
0.101026305316586
8.83264685812503e-05
0.105875468907326
0.0563013582301288
0.00133871347270242
0.165148304464246
0.0913270560921102
0.178223577175475
0.0732072155261348
0.0360617544825076
0.100827010329458
0.00201035289789668
0.0732728200343032
0.0230186751990862
0.0329098303079295
0.0955001188699742
0.0256838264609461
0.123525294606031
0.12187865935823
0.0295425663633914
0.102646364845063
0.0252792673656407
0.0219189157758006
0.172872232210419
0.0289208818011278
0.177485273141289
0.124807959629433
0.103364194667077
0.0252428237630025
0.0742451358988776
0.0990229022185852
0.0564698953526611
-0.00108677789734979
0.0804432418436528
0.0807167743721088
0.0492941159361241
0.084053421976799
0.0309873167719982
0.0259318618394369
0.0748328921924881
0.104633247278641
0.101729511678675
0.0685049272045265
0.0946411383369505
0.0254275865316043
0.00167265874124542
0.00328244022755278
0.0259069691784734
0.00554829580603829
0.16797774568777
0.0946508876959905
0.00191620827560028
0.0687507543570355
0.0245978898630266
0.0163910326102111
0.000883143379759194
0.02269804668602
0.0222231881198697
0.0259589099995655
0.0296525867215948
0.101158728428857
-0.0011375868998074
0.0230076465696822
-0.00239319782333973
0.026385787083056
0.00843100785190913
0.0262884027033508
0.110158469481789
0.0515461846514619
0.0475623796782023
0.00425263419494431
0.0338507039133324
-0.00109584253355536
0.102659646210265
0.0949174014122814
0.0961868167052974
0.0244038944949037
0.0165429187827013
0.045970460691234
0.0420578296634421
0.0999937998127438
0.0250454228634116
0.124833026031778
0.0717997227341193
0.0514889811403117
0.0976056168601282
0.0445822064861861
-0.000836336377326278
0.117962651944392
0.0193672389680003
0.0515032719038121
0.0831869315207047
0.121223518764433
0.0537235491623416
0.0442176234090717
0.023392813228558
0.0464803327525766
0.00314254480065589
-0.00206597689726426
0.0306533312823316
0.104385314918761
0.0997680795831078
0.133550138604909
0.127151818156996
0.0833206889757911
0.0907025812021982
0.0229802895054492
0.016128617828013
0.171741960333669
0.0689022746417504
0.0834802675291643
0.0247693494746227
0.0725924377331182
0.0924097978344267
0.0787177280338345
0.0961172623365983
0.00435019857231241
0.0473183774593737
0.175705551798493
0.104616708302703
0.0728894500951472
0.0301764364521099
0.105518145907709
0.131264013196162
0.0279241909499595
0.0482794333787828
0.101136048673125
0.0225427638608713
0.126015236192519
0.116011764340608
0.0259479368461835
0.0502847550335991
0.167148268727524
0.177490734298061
0.0237695322766611
0.0246250086396753
0.0978807212414195
-0.00041653445306595
0.0308287547416571
0.0198818582859228
0.0352322618009902
-0.00248603732138301
0.0249143748380597
-0.0094761783380954
0.0569201406679241
0.165668085824883
0.129460796066903
-0.00315056452964956
0.0279222130102624
0.0252599493949665
0.101289289521024
0.0283414794109989
0.0243982356635274
0.173283698482809
0.0293035173903405
0.168458684971049
0.12180557437079
-0.00420888155994552
0.121550939111181
0.10173811167468
0.110194725893505
0.000520005406290543
0.103942675405106
0.00448801339420724
0.0153643899118956
0.101383126352239
0.0949498387636266
0.024818124039058
-0.000683120212240573
0.119797284874129
0.098391440551401
0.175773770172063
0.0462952400636003
0.0251044964242308
0.0239001607797171
0.0206448707226784
0.0567120938351366
0.0220664560051988
0.173716851249271
0.0929403366647806
0.030754053628936
0.17276736954214
0.019899311855949
0.101090038378274
0.101168120393048
0.013283948416995
0.124863351863209
-0.010933660775929
0.101187480991228
-0.000820398486609865
0.0909055832640207
0.0597976353915073
0.0303260491751406
0.0484663244780981
0.0718190677072626
0.0989607059558165
0.0890846908850128
-0.00115292559975605
0.0731220231541789
0.0479045541536631
0.101342945758902
0.0770110716236259
0.0542054587175294
0.105708184038317
0.0787184469003623
0.0013026474234615
0.0790291492829271
0.067266702703822
0.0254792867124594
0.137306183705069
-0.00189602918178625
0.0785676590625447
0.000782958420976544
0.0782268450494921
0.0320106186020449
0.0974295860292206
0.0555549151540301
0.18133341876225
-0.000557782843323693
-0.00293109686393255
0.0275973054870247
0.172635328680682
0.123998588498683
0.0559056172488709
0.118691146205935
0.122079821272309
0.00256524746171418
0.0249833263209585
0.0236535712216435
0.0790545524878383
0.0732397417880745
0.0585800091702928
0.0484845856701533
0.0197917100877451
0.0340753534305059
0.0752477849962081
0.120016676681034
0.0265242489782287
0.0142942960236881
0.072934010735477
0.0240972625480777
0.177858913015127
0.0571729980893644
0.131107248933183
0.0245056165519837
0.0297690360654356
0.10011595646724
-0.00440098993778469
0.0903056478939082
0.0283443799573831
0.0161240114048711
0.00227471210047744
0.0473630757895382
0.00415898851863849
0.0590054142100901
0.0297178965779696
0.0982362887882722
0.0509406565667994
0.104933244112929
0.0207301214882973
0.0472725532130713
0.177751881731797
0.0247416206062516
-0.0016365275096171
0.0771444696878011
0.123417958944241
0.102366718748253
0.124744433575089
0.00680183833391072
0.093731297072777
0.104652861817127
0.0247101573806756
-0.00315748239192142
0.0946459141311626
0.172599677154711
0.0578927241614576
0.0282952271383028
0.100733648826156
-0.00826483974466052
0.0717655913937822
0.0546454753908213
0.103755391097056
0.173107147903136
0.180122395492357
0.170355873469843
0.030763739274498
0.127831951680228
-0.0016851761969602
0.0277485012037494
0.178154772127097
0.0780216923779667
0.177171973128341
0.18061224905725
0.100979710703545
0.0782545628824614
0.0176206958676153
0.0432226381663942
0.127803321985493
-0.00704138882311374
0.015996366963255
0.178214717347719
0.0209384228296229
0.110260241498867
0.103711117138807
