0.0309142066310822
0.02428989664769
0.0339508882929748
0.0817720985479572
0.0217263298743594
0.0764034774300369
0.0297455601605443
0.0288292479672119
0.0238982184483028
0.0121429721033972
0.0764025791751359
0.0805758743442595
0.0778274627120185
0.0895567794721605
0.0186245358188914
0.0716778114524534
0.0490427484843616
0.0228702635825782
0.0290068957286949
0.0742462168823919
0.0742428191063526
0.0825040341514018
0.0228964779884433
0.0242623275310103
0.0233601056986666
0.0324771828928067
0.0742033910575407
0.0244264034369411
0.0760612439814854
0.0281864481095819
0.0743859124747454
0.0765928352918414
0.0751405454368222
0.0224595138439665
0.022510445925991
0.0161852167314101
0.0837994429165615
0.0731233743873793
0.0728657899018176
0.0737053535500775
0.072359381413152
0.0817455548939733
0.0705405744703397
0.0209886961680151
0.0689484012180276
0.0293046629385862
0.0694050185363969
0.0204432296917965
0.0778961244600822
0.0278819740701423
0.0774228094566974
0.0253574614445896
0.0795991168078656
0.0225731128821857
0.0133560178587417
0.0631658218380253
0.0679290444595524
0.0254346001020203
0.0248277696816049
0.0190461969219724
0.0733615541249599
0.0908417038586223
0.0755736421233035
0.0249942487313112
0.0248794458637047
0.0248797066471915
0.031857705390864
0.0713038665899837
0.0735797438740662
0.0702765776914014
0.0247053499279578
0.0233699672011567
0.0815886752098402
0.0220815175556074
0.0257610389423633
0.0217559346324815
0.024080310889663
0.0206433757306255
0.0268364561443645
0.0740387655788884
0.0741688302092516
0.0314513354873733
0.0826729420637042
0.0215906047723259
0.0191378385632695
0.0794139650674349
0.0755669068192516
0.0851415383364424
0.0756298315973346
0.0286484970810495
0.0224322923813021
0.0283185808653046
0.072284001953537
0.0660388476623802
0.025647041960281
0.0247849815987427
0.0253295025148841
0.0305880882877277
0.0263057065812263
0.0254906638819676
0.0790312438813433
0.0746594034773951
0.0241118752854723
0.026744082999207
0.018823816513036
0.027516943523054
0.0298663055302764
0.0245251964351213
0.0765457875939217
0.0753163284848886
0.0691330748652441
0.0781796997083132
0.0161458855105578
0.0250767001466861
0.0260364609383533
0.0318305616985202
0.0790165728853576
0.0880940394057382
0.02727806948041
0.0358970722566318
0.0732385427231291
0.0727873441452283
0.0662685612063151
0.0806692710993232
0.0696725122701444
0.0310822937896051
0.0661758414286478
0.0751953794801373
0.0827182735584504
0.0212195850429174
0.0797872372345513
0.0814851836384357
0.016349920330279
0.0273404842893187
0.0219442305033618
0.0792444285218089
0.0782893202916063
0.0267074725048862
0.0778565029886656
0.0205965006720273
0.0298283999760592
0.0766734373804823
0.0741206453243805
0.0307193586318018
0.0348180511248916
0.024747201712784
0.028829890046141
0.0242871335588314
0.080288527136021
0.073275071952504
0.0786019111860605
0.0317313636017421
0.0320296446941424
0.0298295854321469
0.0220119427825546
0.0259316810292202
0.0761396320966572
0.0197213835770648
0.017146780878071
0.079795642139409
0.0776792394532462
0.0687419722738794
0.0234878642278375
0.0233220789257192
0.0220741489417386
0.021550081861645
0.0749269683277878
0.0628860778720107
0.0288067141299405
0.0219436830177345
0.0174783422075554
0.0709648554269416
0.0227752332203958
0.0279637129197478
0.0243346867410283
0.0711028579910117
0.0781594575746777
0.0757484488333418
0.0227138764980204
0.0787680174485385
0.0805768852554838
0.0225119936067246
0.0341372314695648
0.0282385374656604
0.0716274544881225
0.0321581069429568
0.0300000954336019
0.020163594846556
0.0806444839685496
0.0251555162860594
0.0747258151997017
0.0731152040559769
0.0286621338696514
0.0290729322129942
0.0276561578572783
0.0226001662462024
0.0302316846284059
0.0270003872548467
0.0777549302352909
0.0717919069412852
0.0776601307188816
0.0235697916165679
0.022396978443777
0.0205533012395835
0.0753183450010002
0.0792593273232332
0.0311904457811142
0.0657044481443968
0.0253174583276162
0.026581076977251
0.0346104791715187
0.0752815183322273
0.017435398407582
0.0265013226675497
0.0760414313329005
0.0724020173059604
0.0539869306334042
0.0234963360055438
0.0233552756749414
0.0222795288721082
0.0744606480999483
0.0232569585686096
0.0266860572427233
0.0749938433046674
0.0151504573409455
0.0252484107762689
0.0702347618427983
0.0299959456725068
0.0453733345769903
0.0261606118122567
0.0785739860469877
0.0182804443578016
0.0241497227730589
0.0207722191285866
0.0766964028990714
0.027746648903302
0.0775092893036748
0.0253721221638452
0.0292670326103714
0.0266615577415017
0.031389454640161
0.0727942663246891
0.0301071178707187
0.0655988305723153
0.0794278554115016
0.0220965316197804
0.0750643258595592
0.0783257474741728
0.0227397922193814
0.0272417025885259
0.0476991809773438
0.054076101486037
0.091122289685322
0.099068382275101
0.100827723951858
0.0959619068013135
0.0998635775380802
0.0442388715674078
0.0519374516312594
0.0419728764538142
0.0915594601232551
0.0897186729190064
0.0511435167840864
0.107620110367593
0.098365203049664
0.0528215081448979
0.0488966413028998
0.05047351147623
0.0375575898226521
0.0995855733384567
0.100192132932923
0.100766235501205
0.0979340140961914
0.091505287949098
0.105816056737435
0.0495176109687214
0.102563611753641
0.0944401744447133
0.0912324464936805
0.100368876263547
0.101507524171544
0.0532989911241768
0.0514465305104177
0.104765633862897
0.0951609642839259
0.0983686598230925
0.0479931719618234
0.0510053692328484
0.100580506762115
0.100489698997412
0.0875011300082555
0.103498867999166
0.0917830961631861
0.0529169609876919
0.0446488796045934
0.0533034051782866
0.0978629619722154
0.0484889944049286
0.102952972992257
0.0602159200888883
0.0578786921800911
0.055754058215103
0.0988079481332653
0.0479975762246556
0.052938551610305
0.102180270576148
0.0559252367469535
0.107025983551841
0.101346040148978
0.101225640662297
0.0914455463365662
0.0550049383674706
0.103189078336319
0.0351912340861528
0.107455888824633
0.054242776288529
0.0522804490504212
0.101502619286822
0.105501739528793
0.060455960348495
0.0486889613967805
0.0991912648197284
0.0930589409645215
0.0960617064628985
0.0506681361938803
0.110718118247323
0.0478095212794705
0.108739225920873
0.0496827231707419
0.0886238256736204
0.0924894859892039
0.100620256201813
0.101412224166438
0.0500790645252864
0.0475867411435553
0.0945686773027423
0.053101706242494
0.104599746534988
0.100789172545774
0.0973165220450059
0.106602660048472
0.101974062591011
0.0441004366209931
0.095479225152281
0.0917397259389581
0.106422122421863
0.0469343960780747
0.0526648576641161
0.0572322430010782
0.0472530030274267
0.110186874686296
0.0964820902898296
0.05026193608384
0.0523535330934708
0.0511793736737647
0.0494923397873162
0.058987656982282
0.0520104303928868
0.102855000095133
0.100004207707283
0.0498017726262808
0.0516222692923343
0.103190084911847
0.0495452902248663
0.0509335766905776
0.103612429435761
0.101212676368548
0.0552271591180625
0.102755197002174
0.0989275274244453
0.044784771117218
0.1014174307355
0.0510436391473131
0.100655543530507
0.0497847917360302
0.100908393832462
0.0487163649858354
0.097191002566551
0.0559933751793377
0.0471984486053743
0.0451468754581983
0.0462437055408825
0.045433215865003
0.103549474895826
0.107175002745196
0.0573488256853584
0.09552667407135
0.0913276454202608
0.0998497670858353
0.103353654433411
0.0490240063209728
0.0998431944100797
0.0619124088095522
0.10750601595974
0.0555189353081056
0.0964527758427876
0.0484370813860336
0.108290997018466
0.0527701281411246
0.0505129515315137
0.0468608842621707
0.0495086321604748
0.0439799644916595
0.0965534133233075
0.0968439783189477
0.100357082617452
0.0553537940704155
0.0978214222661746
0.096543094249013
0.0504275659213164
0.0589621926382547
0.110900466822992
0.0480832429072583
0.0973452991499274
0.0560065309360501
0.10086220583231
0.0945081734679774
0.0589943978324315
0.046555411095585
0.0479326733679571
0.100899529542586
0.0878723379316618
0.0518695624017012
0.100528698357356
0.057964749122662
0.101977944319193
0.106739711312376
0.110297804748944
0.0921402307847171
0.0503924230763056
0.0499876492996777
0.097755732543345
0.0989291503380486
0.0976194007461359
0.103921196351663
0.0446633091387329
0.0957721384455871
0.0528992399810108
0.100721056950473
0.100184141265135
0.0512274757243022
0.101751369582
0.100840163798221
0.104095308018903
0.0995433205443425
0.0916552224355862
0.058197883941815
0.104345836574589
0.0502674173306776
0.0449877335816643
0.0599837508243752
0.0490436890200482
0.104062771583658
0.0999144069306353
0.0976171952325361
0.0589984620390077
0.103826410035544
0.100464653405665
0.0570103548247718
0.104684810770621
0.0488029158089597
0.101431489185547
0.110509560367675
0.10621846147863
0.0927986166069006
0.0979194513517568
0.0999890428603929
0.0479057452656422
0.104886780346075
0.102493412492743
0.0949562799647715
0.105405123299546
0.0528687285772538
0.098682390521601
0.101322244888133
0.106121024626916
0.101586459799745
0.0461601737709468
0.0492718926012649
0.0929474354676995
0.0914544975901496
0.0969722696124321
0.098488326653535
0.0508225693774053
0.0993546281408248
0.0985860498232965
0.0547251433098929
0.045329621334479
0.053347244751173
0.0492313490648795
0.107341848727038
0.0977331113536764
0.0934346004667728
0.0929725855037488
0.0442687310973917
0.100116579785741
0.098022908443401
0.0432373091968223
0.0974418367400518
0.0532538565467981
0.0789471026727729
0.110510171389234
0.0476024717360165
0.056319245014485
0.0932937324439757
0.0824170907818761
0.125539724636818
0.0433565469332689
0.119736443636236
0.130328736697674
0.126022449748169
0.106394733408033
0.100827726344895
0.100189429999266
0.096901155733979
0.13122771371456
0.0478869551140652
0.0979343642908743
0.127104335779397
0.0487596373655101
0.129414896929989
0.0725606747166573
0.0951104542366839
0.0740696540499793
0.0673141868376364
0.11919410008274
0.0969867916459374
0.0463567052744936
0.0467552960663621
0.0422285499083332
0.117855317878145
0.102031067261258
0.0491765244645205
0.092663664649082
0.0787375936290569
0.120300709600094
0.120661971131133
0.075262186364834
0.129263512861862
0.0723956888615687
0.0795725256287123
0.121750173619377
0.123072136520622
0.0976386284666495
0.0956504933868073
0.0961149231416279
0.103318430355352
0.109090509011941
0.0750997609484194
0.129126606168251
0.0848519068657026
0.123561563341049
0.0990017448501874
0.0761628076747588
0.126047663956662
0.0690962882962063
0.0713072869268512
0.117651489301365
0.0736892978067592
0.113495676877049
0.107144549082433
0.0716732197634295
0.0482723086300091
0.104586801967716
0.0440701691386124
0.0478692014126803
0.101886035203983
0.103500448257624
0.118924349879288
0.107397121555022
0.11628431108139
0.12203957266191
0.0942992946936368
0.121454427207482
0.07188741292908
0.133737993822318
0.121333683739821
0.12611063070547
0.126078321498989
0.0901695050479331
0.099796984478323
0.0987887329551079
0.113212544084056
0.0720798951516798
0.0768677142104882
0.122950341004765
0.126112471741619
0.0963761361084617
0.0770059752694509
0.104249350035805
0.123572208995676
0.0736657793765837
0.0676936313665055
0.0981565963444531
0.075980334891637
0.0521335035507384
0.100052260215003
0.0742491873776345
0.102425010791326
0.078523586859238
0.0776919421838849
0.105508073817221
0.121824383988518
0.0843871215011729
0.0767762427541883
0.0698904546478607
0.0728242619897419
0.0775535020596505
0.13188985375994
0.0958496701866022
0.0569618100921366
0.100311605908279
0.0934102136938898
0.0806648677911126
0.106204206154652
0.0876439886469281
0.077372004752228
0.13399925613651
0.0430491232708361
0.0712587545815025
0.0444591103847367
0.108106135885416
0.125945324939573
0.0814807871462791
0.0454951956462833
0.0748996662836717
0.126804523061869
0.0746272010442485
0.126837542676276
0.100706641558334
0.11775099657655
0.0972387692537625
0.108390163176723
0.11056885354792
0.118359305604327
0.0768793030745704
0.0537087861679596
0.0970330416875503
0.0466325024548789
0.12340433842993
0.0798229488849091
0.0866504597643222
0.0515232777662272
0.0831436866231334
0.120084199144051
0.0510070361221739
0.101012548865592
0.0796623839485777
0.118080188916169
0.118049102806168
0.122822739550744
0.0942472320391096
0.0732513827161987
0.0738747664108488
0.126755542242556
0.0712058672845925
0.0769024079719464
0.0697978013521322
0.111352896496768
0.12028413312859
0.120665666218864
0.127433925728549
0.107438649137465
0.0798325428143581
0.126277888022802
0.104539101163239
0.0799080255956335
0.0963829589560159
0.103182506210059
0.100786618003698
0.0977226559425244
0.0992544231406526
0.0474068202292761
0.120131143707497
0.121472645869176
0.0712189218590004
0.0798056118325557
0.123050283253678
0.0995288419582896
0.111470372525252
0.123814043297301
0.129812133390451
0.122829390188244
0.124219782725353
0.0722123180864572
0.116671788122903
0.0726682103326951
0.115732292046202
0.122972184738431
0.123610733213196
0.10578182629948
0.0894077279908012
0.118141855176298
0.122329737941484
0.0675958356439026
0.104850726629262
0.0941721306138806
0.0635228227566701
0.071960542308137
0.052821408841324
0.0691573757891884
0.1069485424187
0.0709106299995285
0.1081831139141
0.0706933413338685
0.125908624156145
0.12828447180125
0.0644831888100273
0.132721666513158
0.0703561765531427
0.0522356623123114
0.124519252792614
0.0748424546880812
0.0698199543251124
0.0920263251788177
0.0811409200969781
0.128756354268449
0.103272621382267
0.0537778378032622
0.102900321338986
0.0396723991048865
0.096538625588354
0.103333752416221
0.125902522915449
0.102644519726576
0.0832522660468341
0.134972234724307
0.0446285667642832
0.122192100569351
0.13424253325929
0.0953002291259623
0.102272269097136
0.0989196467692875
0.1249171683763
0.0866648952633371
0.123066245380647
0.0999384838089803
0.125517558281763
0.130038171027423
0.10582272305145
0.0987830988232874
0.102456006227457
0.0464307337776087
0.124915290563818
0.0699455690990569
0.0995223850675359
0.12412620709317
0.071337801240876
0.0722189150080711
0.0818123762396185
0.1195067239447
0.120331573107917
0.125988212865614
0.0667707291718005
0.0982160526743976
0.0968227580035413
0.10961128194864
0.0791050130687222
0.119646716180313
0.102191731534825
0.0684491026304304
0.122377551309208
0.0751395165111835
0.072860190619653
0.071876954827984
0.112935731862825
0.0517698912139284
0.133751863700977
0.0956970179244858
0.0429658299857444
0.107999457204002
0.0723981631904708
0.119190078814332
0.0719516463395264
0.126103248366391
0.124616798254433
0.134492254055905
0.0715131709768533
0.12750917595848
0.122878344670606
0.112239004787687
0.107553914604912
0.0764972220238204
0.12530199639771
0.0511497751178755
0.0762370774230652
0.10712430817821
0.128881628140707
0.129335468852956
0.103032520101374
0.124974616998032
0.0870095768161525
0.0766981587946469
0.126354597751902
0.0494809890672392
0.0518804791746363
0.124811731537709
0.107991574680049
0.100219989894946
0.129259522035353
0.125110712810448
0.0721229667769907
0.0818377811284868
0.104491582867799
0.100957127880987
0.116638117312554
0.0726910204343534
0.0681674332148248
0.122823932857962
0.0929095918443573
0.101469552271602
0.116457745043495
0.0972029653892431
0.0832780091115644
0.118730874373684
0.12237169176514
0.123371190829196
0.0735044269650691
0.0918238823380281
0.103657600841173
0.127374085974797
0.128771986381884
0.0749891657825374
0.0692234847354535
0.118123225702003
0.130503630144464
0.127106021426653
0.0708893849396203
0.130634078524911
0.119712168631805
0.1215196954501
0.118158050782683
0.123391899854304
0.0720823948338673
0.0468168874333981
0.134563100661617
0.0527534561829398
0.0999538026687425
0.0818209974078431
0.0954556682609199
0.09926280383348
0.0448615997804646
0.126219762253843
0.0732022455235076
0.103210847413449
0.0700318953082426
0.132238850546431
0.13507138591886
0.0973986148188531
0.106765085294975
0.110636451278082
0.128482963792853
0.103607900180122
0.0796550971046467
0.0713140111088731
0.121358059260865
0.118448696319273
0.0714052628142437
0.0696409185045559
0.122792492425682
0.0729306899823834
0.0941901761736389
0.118850785843655
0.125697417147248
0.125130071408675
0.126603418224175
0.122018071501889
0.0989940360704829
0.0993964658531346
0.125510967857929
0.0984366085844569
0.126682975239652
0.130817857681441
0.0811766393337712
0.0970566839158527
0.0774955542991708
0.0484810744934966
0.0793718742944624
0.100809299935776
0.126779174277572
0.120789340301162
0.127233882449241
0.104940806647611
0.0764781536309292
0.124142769251071
0.0459599444464518
0.120795019190376
0.122140128629262
0.10590737286964
0.133419510059261
0.105311388061138
0.101913464893307
0.076014229879687
0.0700212787790496
0.12711562316485
0.128505988955544
0.0802532720769444
0.102287549144895
0.0781805963976733
0.0968155946043954
0.104634025637637
0.117680038729336
0.131134820170911
0.105606310663242
0.132754790289651
0.106113254933046
0.121668031946727
0.126142866035699
0.0668571197309403
0.125488516325396
0.0765841249075067
0.0971420961020142
0.119258927041644
0.127755239525571
0.119055098532307
0.0959159307782866
0.108363836182873
0.127640570530329
0.12507346322615
0.124573250328924
0.103349907343914
0.105127581971666
0.0511730428674566
0.125316023057001
0.100230425170892
0.0751878766305024
0.138599188817553
0.100057116777235
0.0705430763115739
0.043164008991018
0.101926767735824
0.0386734914362813
0.130970122889175
0.119476657536486
0.10126572668659
0.136242560688204
0.124745566593578
0.131174689410467
0.0983189627463178
0.131750705103902
0.0806305638439436
0.076466199172602
0.0753466360033485
0.0914927223256154
0.100964972859499
0.114231824848008
0.0760788212141918
0.0827485792177309
0.107167784211017
0.120960672435866
0.12413006141674
0.102563766580134
0.0523579937531382
0.102613300649358
0.0783033604823286
0.048564765170089
0.115602247134432
0.0992696742286026
0.0615970640621049
0.0977852681246754
0.12658118872736
0.128138958596062
0.089295494562829
0.107635281743562
0.127669961480378
0.100511615705071
0.0766193669810143
0.0466769869271723
0.127931572835216
0.102762035281216
0.0987455377053163
0.0914822239177628
0.103483627231928
0.101721577629995
0.128746190454502
0.0715340809753562
0.0984248715325558
0.0789383486448041
0.0689688612668379
0.124589341688825
0.071909543298179
0.127067515389436
0.0761040660667109
0.0528555139910824
0.0774936182609145
0.132706194347126
0.0997737171643439
0.132903188850901
0.0997746520060856
0.105252389320312
0.123488449051613
0.0762891425834231
0.076271758703314
0.10274186744781
0.0999614868315772
0.132367355903305
0.128827104062602
0.0752880011014576
0.0965890987453782
0.0775620801560424
