0.0702319347797354
0.0763664128752189
0.0794476504946505
0.119222644979402
0.125071341024744
0.0671417685652045
0.0770996002972205
0.12482216407879
0.124655066635227
0.11959425279707
0.129150284646792
0.078042818208904
0.131372484234517
0.0767028936025737
0.0728312010622538
0.120167935676112
0.0752692120339032
0.0740119573092155
0.120291004737047
0.125884669837649
0.120620120129731
0.116582927969639
0.0808886413890829
0.0704395474327871
0.0781515380221786
0.0747827080575972
0.0750422698466829
0.131256560638173
0.131652216464305
0.117730418641178
0.0742798713632997
0.120232457452519
0.0876227359569745
0.1337832148582
0.0771278477485472
0.116346521732314
0.0827816460777559
0.0701622998435789
0.0765643031891401
0.127448550456821
0.0777850715055789
0.129703411224406
0.121460126624159
0.0740445778732826
0.06534303261025
0.113936881549938
0.0643777980587042
0.0732095882964413
0.12680873012694
0.077410953078112
0.127265171954076
0.125487535334365
0.132798075818523
0.0695118064649316
0.0729386485311309
0.124025421179422
0.0718088117323818
0.0720436388893547
0.075218953691754
0.0643158474688788
0.119282934082919
0.121355600010257
0.124019180133144
0.0781242285680369
0.126702479586606
0.128740570567762
0.0880888780334616
0.122672717993689
0.0679905982391695
0.0700851109114571
0.0729962700662741
0.129245794710617
0.12989403362577
0.0759645166362213
0.0742823373695882
0.0749519050167788
0.0739826319325562
0.12663215519712
0.0663675924986574
0.0623061061523686
0.120454278863796
0.0720195223527741
0.0790906311687494
0.0680341371203179
0.120794901602722
0.123148800991581
0.072255466596588
0.123254756219695
0.125178759416722
0.12964747079079
0.123750834278486
0.0767771865710238
0.12526511453935
0.0656041245308694
0.125892534606522
0.0696391854774007
0.0740118780086156
0.0721699112423938
0.124033506257571
0.0723927357948968
0.12304741103335
0.0776036711534201
0.0760679140432694
0.11297529694558
0.131043634896156
0.0762838567575932
0.121793927364255
0.0732552333281791
0.124657657336884
0.0734789396572084
0.0745980120576729
0.116635743252428
0.11901409285171
0.0738347535715936
0.0719459269069288
0.0730370874814693
0.0706438467057945
0.122994017874279
0.119596748168733
0.127282086897843
0.0747512799147756
0.119729577040005
0.126391160766878
0.0735457132217609
0.0802970782271825
0.12146986713061
0.127574341380807
0.0745989884461394
0.125811617428854
0.0685969741758076
0.077956451120805
0.120240899167782
0.117588353529024
0.0718096475560974
0.136762580486048
0.0763174088471516
0.0758579168288714
0.127421509532177
0.128827876265856
0.0678972305755095
0.0773805668956823
0.0796458106458577
0.12639634232456
0.0751077947177858
0.0731271283703353
0.0734814125452226
0.0814593443622322
0.0781231253295701
0.0738475461488684
0.123416690516557
0.123528405729561
0.0783308265421127
0.0661466553357706
0.129327528584484
0.124768595585234
0.0679657778256312
0.0747886054974543
0.0784080441981845
0.0804421781159428
0.122131210515135
0.12219067104278
0.0773900613693998
0.0794027035778898
0.12836829573562
0.0711361335931557
0.117764917863754
0.123214520056843
0.079052675724626
0.0744264029639117
0.114331206442008
0.0816047913677645
0.0784482679655462
0.125828967974226
0.073754762191176
0.0764155778806269
0.0848977885502654
0.11931773104473
0.0731383362176439
0.0783310777429613
0.0752797360258621
0.077308611157739
0.11501430009922
0.0691952304971227
0.121586592000664
0.125195529612509
0.128536205304238
0.131794763983165
0.127682367129812
0.0742916732926865
0.121862837629582
0.0765203293148912
0.117307573576109
0.118117397708615
0.124447720839127
0.0799262724482824
0.071135663275758
0.121345562686613
0.121970344272414
0.0727509281223043
0.0692314549597829
0.122876446481934
0.127805108433276
0.0805882266282589
0.0759673161265672
0.121307057133616
0.0727034057978278
0.0769734716646589
0.0769772409494985
0.130226074886633
0.117299194042808
0.122304930116217
0.0834024405374297
0.0783761598692625
0.0785211567572327
0.0767199353519166
0.116882049097124
0.0779448494282665
0.0819685390180849
0.125556219920041
0.0825458230378875
0.0695769686377541
0.122565647603039
0.0685357611268177
0.0752226507316646
0.117802185619902
0.0780457178142551
0.0810885730372339
0.128052176623076
0.0665801960997429
0.082638235714284
0.0792556965665248
0.103974446332383
0.0740871535796425
0.120946132341498
0.127048567274964
0.0824161926040954
0.122011691711786
0.115861062740235
0.0797106182152393
0.075565113442935
0.0752903153873719
0.125246264225548
0.127085008795355
0.114832978463055
0.0735062215001853
0.0801030765728115
0.124835489468082
0.125946698396859
0.0712550322502637
0.112697815415741
0.217584294818088
0.256988789134388
0.224660643444982
0.246164938196912
0.226852355782923
0.22898718649498
0.233230851903524
0.250340360847312
0.244433201104923
0.221991734716289
0.225679975621048
0.230643392728302
0.229575831671137
0.259257991963355
0.259538077110025
0.22126343716036
0.257400007095701
0.225315367833686
0.222894433228728
0.221278381123497
0.223850280925274
0.219031152595177
0.252097736293807
0.256734345581516
0.22105759950777
0.2216364315068
0.217638361137571
0.257050011969266
0.248873303665735
0.2528607019118
0.230791020507342
0.224037741882412
0.247609014513696
0.249223043072965
0.214416217070035
0.243434022815077
0.226465180556402
0.245984377405994
0.246638556301619
0.244314012718963
0.218081328357323
0.244325786813171
0.224978833112061
0.227818332979464
0.228639739476767
0.247685646898824
0.23771686351843
0.252855998221893
0.251319740858409
0.254167545656913
0.251138516614395
0.232915685103052
0.227006541300629
0.223778778237629
0.227114840808492
0.220045253893368
0.216783687942832
0.25182213833447
0.222645694859036
0.230478637078118
0.223467949115059
0.251045129521372
0.249671666889607
0.247434444629814
0.243371832453891
0.226524612592849
0.22967853143557
0.236560737138022
0.249354089622999
0.238826894971861
0.251021468515617
0.23223433042145
0.247331714232382
0.231181523657592
0.218056677142853
0.229528437819162
0.227876274450138
0.251096420173061
0.248102442585775
0.224861997288894
0.244156108754598
0.246493758123181
0.224051804893748
0.226101596133673
0.214683447911862
0.234841341018602
0.228001762386205
0.254342489174979
0.248383053004159
0.256313217599128
0.240887911884598
0.23756591193615
0.222989294767554
0.230324492709536
0.247180697177915
0.227194161103613
0.232011325703693
0.254202393858069
0.242265424479469
0.222456574930822
0.2509434123087
0.233278592417045
0.249515150847712
0.230883857427838
0.247101901331079
0.25116397043576
0.227228851545248
0.250097955583095
0.245005186062046
0.216021387001491
0.226190450808325
0.221738312245593
0.237637572870556
0.225811391790948
0.230755901495845
0.2168658684142
0.225285634478729
0.227818225324128
0.239838657553478
0.221158801496904
0.249816771920161
0.259965309457172
0.223365061031504
0.22351230378585
0.226756950653451
0.249041563431334
0.257580414767192
0.224413438446392
0.220603023814377
0.23497783301896
0.226273571617197
0.24966201601716
0.255055518353912
0.229014258282856
0.225924580536235
0.256447466380042
0.245395504422648
0.251764116268783
0.228871922622147
0.223842532454078
0.231319232323698
0.221421576964171
0.243125879687163
0.220714595733243
0.229286612370489
0.24733142485517
0.229058819330179
0.228834751921723
0.253449111588238
0.221180111281453
0.225741381736892
0.223185576153925
0.223341240299845
0.225943292588173
0.219438597727244
0.228499101939166
0.216709958022865
0.225876961042904
0.21819626501875
0.22739328516601
0.25303426108608
0.22361986056361
0.255422019442337
0.242256742431707
0.237260166551027
0.2326616544324
0.227018566324852
0.247650897590833
0.244214955725952
0.252918876324344
0.221524384591851
0.230270404503244
0.224587896932032
0.221574350137761
0.227302289142698
0.23803160709234
0.230117848969035
0.224186469719691
0.231941486483973
0.230467311621939
0.224702015987055
0.248717409478125
0.257372529141854
0.22234109671029
0.220178898972214
0.249150828485713
0.240527463793301
0.254776831739381
0.216056346504688
0.241909535647853
0.248295310461024
0.228977010557703
0.253613910481439
0.249393295878116
0.242282196473981
0.222298377634262
0.225554713122702
0.224721536388815
0.23024705987059
0.214061977228519
0.220222260299375
0.258449215632509
0.25409399537274
0.224629454472033
0.227617561310089
0.227499023262011
0.226820784595932
0.240940152412514
0.221011926265597
0.244990984492072
0.249794590444871
0.251942300374633
0.251664015561536
0.253663531621449
0.221162003167502
0.247808426839427
0.228134461883295
0.254930801849912
0.229023554493262
0.22416393156293
0.23133882954511
0.245778316257161
0.247756482119879
0.218069172515112
0.237568657507749
0.247137652534746
0.230762263773316
0.253023459161317
0.224787157261298
0.221438496084046
0.267480438358071
0.222205476470885
0.255729498048755
0.249304558552006
0.251449631961445
0.221898710490036
0.24548137419783
0.248273086022306
0.253433835745785
0.248029608111958
0.228151826663859
0.230333610106158
0.232441384941623
0.231785993654792
0.251825730325487
0.223714279230763
0.2264714744443
0.24525768589016
0.250103955362091
0.254228007905295
-0.00227654549427
0.0506825049466156
-0.00498124951114704
0.0252685991436126
0.00467812561407542
0.0190994170802923
0.0713891814734744
0.00339615204944319
0.0724280015170026
-0.00366995466176047
0.056197157970799
0.00460341339302718
0.0721380450257802
0.0698578273541917
-0.0028688491212935
0.045827460363892
-0.00197530392823457
0.0560796880541177
0.0526319918514924
-0.00499169976855779
0.0513808126976211
0.0260530725894569
0.0476301628235279
0.0442457595839875
0.0481758745514031
0.0518466108548036
0.052501050951391
0.0540630786515959
-0.00100298018927133
-0.00450703880337956
-0.00278974779689971
0.0248509279851749
0.00593029942199509
0.0426514208360862
0.0776350867484327
-0.0022834017970201
-0.000311825228460858
0.0434411735926431
0.0427680277730864
0.0691964333310981
-0.00226649700326289
0.0488149361040752
0.0337649504507905
0.0480602708314129
0.0743676527191648
0.0012928926386352
0.0412031963252125
0.0694642970897457
0.0762651793660246
0.0454931557646386
0.0505765325625298
0.0482107212840496
0.0509062031989359
0.0613642298711303
0.0445970145389121
0.0236995250633931
0.0382591242691541
-0.00572138045034688
0.00477805563977199
0.0751334660069529
0.0546487400149343
-0.00897746910547226
-0.00499097273984642
0.0248769968275582
0.0467076955751502
0.0445992381631964
0.0557789919864256
0.0484269611323081
0.0249818147702358
0.0509008497129898
0.0517611832799633
0.00692459306078234
0.025203525006211
-3.00134881480408e-05
0.0746146540189035
-0.000830249664544469
-0.00121759392326752
0.0710492095167342
6.68544868393015e-05
-0.0017763824597769
0.0537389693498057
-0.00201097309794647
0.0799144668404025
0.0443780521731324
-0.00587114962255257
0.0504014536390936
-0.00394018368020558
0.0762446262973013
0.0742854111612378
0.071880983273813
0.0042333159856024
-0.00248110988781514
-0.00370975589732585
0.0712998654418965
0.0468925734361582
0.0712852617347692
0.0509466303131811
0.054415239830856
0.0509074824965872
0.0564119055600084
0.0290941517769243
0.0754305623541583
0.0421086380152879
-0.00912060038708601
0.00310328055357568
-0.00586467132677927
-0.00214149369614721
0.0515881036922951
0.0498299088467171
0.00157046199570508
0.00017749998886731
8.51976431021283e-05
0.0683260910374847
0.0577947015814091
0.0277880418671248
0.0010523436851878
0.0558486241704785
0.0478944732134794
0.0453166505678899
-0.00803285379565987
-0.00425308717696669
-0.00244766491944878
0.0739607184440948
0.0233140254988985
-0.00560818513054946
-0.000841428443885033
0.0583128562908641
0.00556270253153929
0.02801635852372
0.0524041636760732
-0.00886024430080175
-0.0026431041045647
0.0256633966819376
0.0268207221046265
-0.00407519920654047
-0.00725348820405015
-0.0101270121837339
0.0821352017830674
0.0371912049247321
0.0225152787211067
0.00741777778775721
-0.00566745116807736
0.00355949056751318
0.0428110634691362
0.0496966676926065
0.0716286710778581
0.00423080718791349
0.00457979670300954
-0.00624776691862437
0.0034472469866022
0.0038685302976511
0.0480458653880921
0.0205233146090166
0.00228714209105623
-0.00950434630866524
0.00935410837685913
0.0716440121507081
-0.00644736318218741
-0.000164357225417305
0.0199799731829645
0.0298743672637863
0.0257049169189698
0.0027573815711814
0.0508616571249525
0.0689619622415081
0.0472037335380337
-0.000656610100344942
0.0225794032752793
0.0740479819290106
-0.000486355846890507
-0.00342157707608779
0.0170629980635201
0.00672197208186641
0.00147582656138668
0.0533410640398983
0.0411764873146139
0.0572997292945434
0.0302287864669499
0.0598749757214439
0.0790178468196403
0.0677124347198255
0.0013250599904827
0.014522826439564
0.0033516429861278
0.0674633559445705
0.0554146421303002
0.00443265334009884
-0.00364936084738963
0.0565833956768823
0.046968217044279
0.0516862102242673
0.0667219392625947
0.0550498742193404
0.0502895135828112
-0.00613943809608383
0.0234985581533319
0.0755335751660468
-0.00151840310469584
0.0313885878346854
-0.00147964479490069
0.0773745571106788
0.0720102909096973
0.0560353243407399
0.0531739890171979
0.0333807988528747
-0.00265946412085183
0.00912667137165281
-0.000901644131833732
0.0717838705210492
0.0781179647460058
0.0475315129229331
0.0499934205603924
0.0415520674080664
0.00459050662043589
-0.00672309403066572
-0.00797964967274684
0.0129363055382734
0.0762083628136007
0.0252147481921368
0.0207013639553519
0.00277282809256739
0.0496930503579725
-0.000518259475312591
0.000560612198585619
0.0502710123713704
-0.0109765921050137
0.0510760823149929
0.0480902027276195
0.0249464433183613
-0.00734092461164693
-0.000797835343442316
0.0754192426523856
-0.000707341910068876
-0.00815115294569653
-0.00588668075797703
0.0809025682452303
0.0747338969664649
0.0133630096845993
-0.00369519669713117
0.0286996025203484
0.0737710507773127
0.0473701932035455
0.0676913749792619
-0.00189530399612426
0.0537546809589932
0.0709432606934325
0.0277072816604429
0.0763987800193214
-0.00436182830063974
0.0782576454595866
0.076784932941953
-0.00047953727644179
-0.00274834524436959
0.0781715189588784
0.0232518496020201
-0.0122425377431171
0.0706089967901072
0.0495389841943361
0.0115556763814279
0.0352685245591779
-0.00679069328247501
0.0425994754275277
0.0726487572461363
0.0837299167109727
-0.00894768998384855
0.0327418043506765
0.0487844452819683
0.0205968251602236
0.0469513281971204
0.0332769804898555
0.0324856359210079
0.0432221377269195
0.0263322272480296
-0.00398179223589782
0.0565989687632415
0.0455955007024707
-0.00104600565466751
0.0425631438502664
0.0130533428346629
0.049627019817039
0.0563294853621478
0.0510151488874513
0.0786187359049031
-0.0104625320080443
0.0702648363973204
0.0274895132984876
0.0218032292895975
0.0504419336647414
0.0290180624687254
0.049936939203638
0.0730393295039121
0.0264336031390996
0.0433605351277903
0.0215439408440704
0.0209198475377911
0.0499452185941874
0.000926856646499961
-0.00218750281505693
0.0736787556168597
-0.00356341992514929
0.0514424156798989
0.048650085436549
-0.00118000153021106
-0.00120982063490161
0.019329546665083
0.0240581961276367
0.00510320523552232
0.0136315268337717
0.00133218573689048
0.0793162666028997
-0.00219393271489727
0.0542110434443265
0.00135472928759472
0.00103721115094566
0.0270982643352129
0.00222566497096384
0.0540730994061877
0.0515048508376279
0.0247270574576762
0.00338019506650352
0.0479886638163672
0.0653586194545278
0.00332930386641812
0.050696336676391
-0.00480026138409483
-0.00108711227759977
0.0819210263262238
0.0322033950706123
-0.000853948241886455
0.00356921416172416
0.0526428354140921
0.0797689314542163
0.0489183650342858
0.0166592861404743
0.0707447407296501
0.0724180082895908
0.0495748042535827
0.0468104921516075
0.0808211321864474
0.058918182283795
0.0521796861804652
0.0467056121784268
0.0261435623450115
0.00213428062822911
0.0716773370293193
0.0556493554148854
0.0365723029254444
0.063223030749323
0.0687164416575979
0.0515905186562986
0.0448874484186673
-0.00823916047816131
0.0772850917875838
0.0528830196935016
0.0500446909156924
0.0745990880297447
-0.00205557601076395
0.0714212187981151
0.0484911405935862
0.0784476612115479
0.0220199829733003
-0.00667390791222852
0.0708140886813175
0.0821229406651192
0.067584621497998
0.0765656283811486
0.0442132647293825
-0.00985911789233652
0.0475064915572934
0.0112546471671487
0.0510197306558585
0.0335675406248019
0.0762044480796231
0.0734600934711473
0.0245731713817545
0.0799362721537786
0.0698831741164753
-0.000684193097822321
-0.000166484368016692
0.0723496078044272
0.031067199503852
0.00200755596553911
0.0138606165548677
0.0474914393387926
0.024711272544111
0.0707052893779935
0.0300731883806117
-0.00110870020756894
0.00335185352587195
0.0738993050107947
0.0844560002535414
0.0724934590257397
0.0711950488121297
-0.00154933419071858
-0.00303300390405527
0.0773811506484226
-0.00938062896751994
0.00107253064702915
0.0009642935557237
0.0754209348526737
3.3693815968782e-05
0.0506287165054313
-0.00251574503406539
0.0541421678895118
0.00357571972326088
0.0172033370791923
0.0500066355103125
0.001131294854153
0.0556839719593625
0.0216927468774519
0.0020364252431988
0.0463409983738911
0.0759570093961081
0.0695404876610747
0.0748126150520625
-0.00126630631223881
0.0653515172824893
0.0750143178323308
-4.72786397807101e-05
0.0449634259997572
0.0721485865038613
0.0776821624623893
-0.00183337355737005
0.0211159259335916
0.0578222942465802
0.0719369985932485
0.0813406249867804
0.0310820128922946
0.0614473842347377
0.0634204104714242
0.0469252706717552
0.0555092847177616
0.0484360190239454
0.0705974923219449
0.0747685138506065
0.0296303705608355
-0.00284316547906725
0.0666752939074511
0.051842882577345
-0.0077275840288973
-0.00219237372665861
-0.00356603034144196
0.00368082120298427
-0.00939977500812731
-0.00221873843136277
0.0686084309153079
0.00194839600533302
0.0857887374644148
0.0316924295638048
0.0762744155571686
0.0788923729674625
0.00408031034781565
0.0735890818838276
0.0237384331960432
0.0487956561377433
0.0117683256423523
0.0499558857487117
0.0481221226526022
-0.00149519954602641
0.0795853254263251
0.00468761837690349
0.0713415485831786
0.00109507140595625
0.0743881591323337
0.0777846124733012
0.054318665200418
0.0054437477404165
0.0555066818146239
0.00564233955513764
0.0259154126764686
0.0561633262957192
0.0721880022412708
-0.0072020879091909
-0.00455406422613709
-0.000490853408979473
0.00477952812569767
0.0636350607094321
0.0487668289744298
0.0541042276078458
0.0721013424296191
0.0776037536427088
0.00121636952286902
0.0715348351823761
-0.00618796805540361
0.0142153081298663
0.0544789631340349
0.0754790179341601
-0.00431749515263748
0.0500381553590033
0.0176227105634865
0.0509411517505182
0.0111909903577369
0.0573620713717981
0.0223611686053932
0.0449095069479671
-3.22494118372905e-07
0.00190163087314049
0.0471108454914686
-0.0171564832694704
0.0833152137231535
