0.0755138561514039
0.0755086163890858
0.0779992724621475
0.0794752421229606
0.0554367215179479
0.0697049686825925
0.0761760970385199
0.0743183101868602
0.0761459000477976
0.086618117984973
0.0463846673051805
0.0514253403171512
0.0767856580991233
0.0721247306937273
0.0801375443054931
0.0832079507466873
0.0807090042063998
0.047321105491679
0.0686998600693433
0.072485209899925
0.0821504792172834
0.0731811322391243
0.0781900206922542
0.0736282375729878
0.0753797842391107
0.0448424030617201
0.0799456112479419
0.0792576858705174
0.070888550420981
0.0795206409872476
0.0757405556695801
0.0720455488217378
0.0865318537209878
0.0724027708948575
0.0749066492596255
0.0770306639037843
0.0829140235631818
0.0674466329309752
0.0761944112949317
0.0795075814708061
0.082060496029038
0.0686120390894405
0.0763792463327614
0.0774122241216
0.0671625164238229
0.0669579850372417
0.0782149405850058
0.0757178656744929
0.0746956366743171
0.0540674051341246
0.0730807002915722
0.0433863315907034
0.051527978260177
0.0693943656859343
0.0818300187171079
0.0637436045183657
0.082723372644523
0.0437134362126019
0.0453594608018923
0.0775388762585308
0.072765311514831
0.0768144697796555
0.0766376062390074
0.0693420578343298
0.0726723551400556
0.0784174469939318
0.0678569405544912
0.0560912547065523
0.0718298387288343
0.0754286511947037
0.0544680813718209
0.0862294911507961
0.0800756082199983
0.0552617842175147
0.0778729245469637
0.0796960049638776
0.0679162764606382
0.0730893973708628
0.071330115066111
0.0732958437203954
0.078911475074987
0.0837512934799576
0.0664250828237208
0.0724882492535124
0.0803674356342632
0.0813547702868866
0.0716814012926512
0.0726378357906154
0.0548678174182996
0.0825536829705435
0.0694408421180801
0.0544872332286731
0.0730712452175342
0.0762681921911281
0.0408848410197032
0.078370533932009
0.04920160302192
0.0839187275638457
0.0782329298596343
0.0723722081101027
0.0739449963946752
0.0749652598172797
0.0796430348934042
0.040550465383116
0.0825370004727908
0.0760387909462918
0.0418270194133683
0.0687666137317389
0.0412477675209834
0.0796279378736295
0.0743805547410856
0.0539243024365394
0.0784242330852281
0.0804716642448046
0.0748739126875416
0.0800452118393378
0.0405031781596288
0.046916958718166
0.0745098531984372
0.0766894073628688
0.0700718971104514
0.0728800655713231
0.0767922311680659
0.0739376092576751
0.0771691607122496
0.0760449262347827
0.0747923219216402
0.0718564982488763
0.0496593698075296
0.0668700941875822
0.0743995087487498
0.0614683540851558
0.0708856721314233
0.0528160714499937
0.0789386225052636
0.0783272369909357
0.0774381344317726
0.0750624969210019
0.0512208865536586
0.0763876765730459
0.0759588646611644
0.0791485692013671
0.0708785053147656
0.0438383871964581
0.0496414882543783
0.0789246271807711
0.073172609407208
0.0538214260741173
0.0477659572622091
0.0822084501257103
0.0634020959723107
0.0673379936995704
0.0779410246164197
0.0818010722056202
0.0774406645514786
0.0731004311115169
0.0757176197708553
0.0846936165050482
0.0724111974576064
0.0783552763983507
0.0876477464306289
0.0702438224736593
0.0764467552771478
0.0784963953960415
0.0787750535632255
0.0734557887243863
0.0558677508289789
0.0734910116295725
0.0816206710734254
0.0739017923021458
0.0781060976623499
0.0772133105614594
0.0748168695488936
0.054217561485293
0.0498811233048368
0.0853919748115677
0.053369909848829
0.0780782638334142
0.0784869942494658
0.0750852205955474
0.0789405315535933
0.064346376809816
0.0731639747527934
0.0815563393874249
0.0724931622094105
0.0755970987613509
0.0723459514375907
0.0738084713348448
0.0718422442704888
0.0825019154977114
0.0616419513379532
0.0566783113000104
0.0761681913871147
0.069090387370337
0.0464702968302373
0.0705482139998554
0.0765457258057658
0.0665176497935295
0.084899482946822
0.0754409568117715
0.0737251416678186
0.0476618080180731
0.0770381550388689
0.0738057109734568
0.0703284039930766
0.0641030214312564
0.0749873339086291
0.0743703042740994
0.0730988267648412
0.0492972571114424
0.0713519795103591
0.0511342087843121
0.0721916073346107
0.0762515283924397
0.0727733193808376
0.0756306681713706
0.05000767380733
0.0522003190346056
0.0694027987053042
0.0774803442859959
0.0754155312931559
0.0732635087300373
0.045327256211649
0.07453488407429
0.0763268501461047
0.0815804564040709
0.0785278023004507
0.0688243692977757
0.0757201613921419
0.0710561175001197
0.0799745462372655
0.078354100193067
0.0780021617231732
0.0633958533007508
0.066610403672562
0.0481571555644593
0.0739415824279487
0.0447248424852481
0.0542151899906024
0.0721571827740993
0.0736373288202683
0.0772013940074292
0.0742509792060215
0.0807012676817011
0.0811067258678802
0.0634705592164759
0.077273633621928
0.0703643660928378
0.0798420918505382
0.0656106295480757
0.0448458093025443
-0.00156610775103564
-0.00624315530208401
0.0500847235886171
-0.00729489146535983
0.000649114412197085
0.00385509425382479
0.0437415988970539
0.00166651735553855
0.0600445461180371
-0.00520194508143039
0.0505923750349768
0.0537472075995177
0.0538125497842491
0.0523285317432463
0.00098919186101204
0.0517692472443666
-0.00255676528523245
0.00440489701012519
0.00393577284982744
0.0493386865424922
0.0442437042978024
0.0517902863308107
0.0548365055868882
0.040293921062775
0.048130104709988
0.00422214550681942
0.0457511875017662
0.0555607903877513
0.0501480682016558
0.000877936307962821
0.00387852033491367
0.0460729970854322
0.046443353717626
0.0014737059573785
0.0534596950872259
0.0547719364933972
0.00157653630148294
0.0553744472737734
0.0500153476526003
-0.00370488508812491
-0.005532525623503
-0.00888641690543206
-0.00410884355355707
0.0529318599589316
0.00265333776892426
0.0487928984879429
0.0568289483350681
0.0524367607415374
0.000333975430539659
0.0500806020220529
0.0509966616956287
0.0562690170642117
-0.000331484764775811
0.00536685178512117
0.00350445814721801
0.00196997013809844
0.0564469090753786
0.0575748178139336
0.00438618490808068
0.00210208903245389
-0.00412504415987
0.0583780490213052
0.0499483481460023
0.044618507950529
0.000571686635287803
0.0082223008003696
0.0533527090443378
0.0443997188368025
0.00239913465045444
-0.00300258803477215
0.0513178240295408
0.000363696237348209
0.0520082379014564
0.0505105505272353
0.0619026784331716
0.0521790970312639
0.060037493663109
0.0534133144817355
0.000861076696542841
0.00502858493229766
0.00618558925939365
-0.00616928054967478
0.0512747434288229
0.0515739859979027
0.00194003677325467
0.0487072222040856
0.00275440630584475
0.0474590597968163
0.054305161006502
0.0460938192689011
0.0455035648170605
-0.00558007864621942
0.048496414818974
0.0523200705276817
0.049070230816936
0.0456926148970235
0.0447646483868463
-0.00354542155092814
-0.00225880721978205
0.00351605003366448
0.056044456551763
-0.00596717773371293
0.000429742839030963
0.00396353190055344
0.0403140803246054
0.0496718616093368
0.0448466608667892
0.00124484926848001
0.0544916126115305
0.056212028159333
0.0030747747261807
0.00115978514588105
0.0424122934480768
0.00114590582252705
0.055080220915368
-0.00810187221946967
0.0515234756094927
0.0509613713830839
0.0513333715033991
0.0475373128611323
0.0466583041976577
0.0506136227972046
0.0551852991201408
0.0409594741091511
0.0563098572537075
0.00192421288079245
0.0464853114943698
-0.0046249290636159
0.04746076253765
0.00223746933385404
-0.00668042307009349
0.0454833896196793
-0.00939557226912192
0.045917815695636
0.0126593654781965
-0.00218455886745339
0.0486229396431571
0.0497465327217829
0.0533733175413302
0.0478815039858583
0.0438811303542339
0.0492557378245946
0.0494522621783177
0.000752427909387439
0.0513666934110851
0.00143066924708602
0.0505041463090269
-0.00195406492804267
0.00603927140214124
0.0497408627790487
0.0525695796676731
0.0507961732374186
0.051592670079206
0.0505703331844676
0.0569622604495205
-0.00438227556392987
0.0564007701513606
0.0551282330945441
0.000316633410874922
-0.00195552306484232
0.00795304762810905
0.0544993116895788
0.0491520863899326
-0.000317074814614656
0.0534633084481417
0.0545244523973961
0.00463699847892705
-0.00442919157737246
0.0418704500847568
0.0449407637224051
0.00763888768253846
0.0536078790598746
-0.00572559117951586
-0.00615231238688808
0.0476710973075168
0.00087019036740359
0.000280900672412588
0.0500930725950817
0.0470252726800875
0.0411861102197138
0.0558891542826291
0.000166463109343365
0.00820150392850859
0.0542921440147537
0.0502328513911089
0.00546752285101535
0.0475314443852886
0.0523384546334319
-0.00374373522874775
0.010162402214479
0.0467003911114946
-0.00087425575151998
-0.0100474866935301
0.0578123900273352
0.0531949560923561
-0.0040212665451894
0.0487117314970377
0.0533033092361312
-0.00129411760188931
0.00399167186613755
0.0458476503487043
0.0523513173147464
0.0483520164821855
-0.00727279730435918
0.000897674207339713
-0.0060432716935397
-0.00272483977149509
0.00170824758450275
0.049943697229448
0.0510722307865145
-0.00240103824900946
0.0476340138118999
0.0552023435631302
0.0492592054065783
0.00214091945790865
0.0663876117827642
-0.00235024964255913
-0.00416833865387614
-0.0099305771755248
0.053334108009723
0.0569585622146896
0.0406401933991471
-0.000985696698016153
0.0527860742342818
0.00437467125675113
-0.00389433525423972
0.00856167488552676
0.0515598200783541
0.00202547316981855
0.00364133179141647
0.00664249129378423
-0.00111923514757123
0.0121526955717123
0.0554063952003796
0.0385480810643981
0.0561069222161286
0.0514559891359426
0.0430497364248566
0.0506880039142707
0.0524281572070494
0.0408118366682271
0.0482778335083206
0.0529280093291521
0.0526822061278457
0.0465636092550951
-0.00510032588669304
0.0517860635489761
0.0479141215824896
0.0503935129284285
0.146817142066957
0.0468719677945419
0.103661150856055
0.121116112366012
0.132035695693037
0.231917543801872
0.174028854474188
0.201814007073798
0.200137525222918
0.202994692143485
0.198841629111391
0.100217278668291
0.0905490689771899
0.0835243776906688
0.0794178555348091
0.120496052024433
0.169880105831523
0.107865234153037
0.131904966987466
0.128685772532815
0.17359902812322
0.219148486378317
0.225344012927809
0.0986555980847698
0.181457133272643
0.198835276060021
0.122003926152665
0.0464559902851048
0.0949872917728527
0.221367749942248
0.122939770074508
0.074482535730432
0.0751952733893401
0.177722373947054
0.179045608375919
0.0760782336536984
0.0999430379144165
0.0693106788196588
0.168036203183718
0.0723019956282669
0.0924384382421297
0.0777052107191005
0.196708167792112
0.0550906049970672
0.122562895077827
0.227348810391922
0.150614843632141
0.166689680252472
0.0766363135587114
0.227648065033629
0.201721039892804
0.130488924836948
0.195758519866836
0.0944508042295999
0.0448308808346044
0.149986883024076
0.0780439919172557
0.1217006225351
0.0671198505118687
0.0763046760052955
0.0942113844267179
0.105939051626752
0.202827605939225
0.205346860557059
0.201981306131311
0.194117332657526
0.14454356184234
0.074341700608634
0.101065551029684
0.0770628229020878
0.179151961070057
0.121087023667918
0.108180734451033
0.172552220693657
0.103794220219351
0.223276470859548
0.206145716956891
0.126771467907794
0.106387584271759
0.231718899311502
0.220510532581425
0.0479736835115213
0.107244733868047
0.18091622759877
0.177831227517294
0.106841889860971
0.0806607890286278
0.196912129881548
0.0992477671276775
0.211334068796024
0.0898791954895025
0.172846576775432
0.201903661839715
0.181380651926212
0.232932727563044
0.218384372699169
0.128783524957366
0.103786678579992
0.223972629652409
0.122307775435101
0.0774951856239903
0.225403742299038
0.140184580365848
0.194829967832307
0.199320528760891
0.196087698133599
0.126610858804464
0.171767966543803
0.0973256813081581
0.100061767394071
0.104417983864529
0.122348998191037
0.0665703248626409
0.0715106231577825
0.197488400754944
0.22137297024717
0.204575454427689
0.196444998122004
0.131080958767213
0.12321165727017
0.224937645912625
0.199915702288478
0.139291649983262
0.203903192053873
0.16557280350854
0.10379908697678
0.0492122986998704
0.105311103955848
0.220041759636188
0.106606966957134
0.152771746386411
0.104861327581327
0.228389568077628
0.202710712330471
0.18207809126926
0.0725604756213874
0.209419893779187
0.103041940388562
0.200917037139342
0.149994436876489
0.0478948557291333
0.0491659638694084
0.200212782434466
0.0503760235681532
0.128291133859287
0.0771644236092468
0.227508881134462
0.0789298064886908
0.210265310531887
0.136672297579669
0.0548925033331975
0.123902251438246
0.14860284246544
0.0957907849463076
0.204163076264364
0.231201172907948
0.169065698060436
0.129171908377111
0.17527405281738
0.225225446205489
0.123495836743189
0.174411850434037
0.128575263748602
0.146729377814332
0.10332966096894
0.122931196401852
0.094132992134585
0.0917355431703175
0.0918242512272918
0.124533738103496
0.0946535964418876
0.0539531112471892
0.0474381612409472
0.0760568448403276
0.225582743101819
0.127667428782963
0.121335837219726
0.199585341862292
0.0697440236995342
0.220694776675778
0.0895354565774313
0.230796383212739
0.123883038518976
0.119821188089267
0.0992608609091518
0.171133578568776
0.181055402285552
0.23354982534159
0.0958830711238853
0.0970274470826933
0.201931222363774
0.090628850875129
0.108682108402631
0.20809770959911
0.174506562822962
0.0977887152872691
0.210882585288475
0.228385843153479
0.20535938662358
0.0821397063544981
0.0706836604734547
0.0952726159441531
0.146129616183633
0.22906147224535
0.195221268001568
0.199566732426054
0.1751196861036
0.114903276852778
0.1195970687113
0.0758134090850325
0.183990445988492
0.145726864594389
0.0579501982092143
0.187323539186676
0.167843883774479
0.19662722076394
0.0662521573958453
0.21544222306003
0.199774356755598
0.204361364075751
0.201285179627643
0.0629890281637228
0.134669160706417
0.134383977069826
0.107331226516685
0.0541440997102868
0.100928464606238
0.121743315870101
0.204354652579125
0.221433072666029
0.173997972760815
0.223586527606467
0.100790184701151
0.0467369726992926
0.120414300646291
0.152082835663425
0.071684858315552
0.08854302939331
0.176854904179511
0.22169719417133
0.104644907843257
0.121929068828435
0.201187981646695
0.10181734292902
0.123285865834353
0.179035814706549
0.150766435041809
0.229314117433904
0.0699985303212525
0.0840045024210846
0.103131338231867
0.0710712402183865
0.100046164823918
0.197075226671586
0.171710347695888
0.0699477959662638
0.143804113221018
0.104410096704305
0.078189476332875
0.106678501343913
0.104865493035438
0.127695404368756
0.220809737727911
0.097810661323595
0.203473829829013
0.196727401968783
0.231327786845616
0.105975982637461
0.178292583960189
0.126127275256181
0.219702099558637
0.125796292955907
0.075116702106488
0.120211415980292
0.0948589946851018
0.126886235913945
0.122220406749342
0.15560669410522
0.231330640347203
0.0760399088654729
0.223397136279506
0.0735483802103425
0.0716220654330709
0.209597699889402
0.0997283913163961
0.150129863199578
0.0890659769894431
0.196280181524477
0.10285819531485
0.0972744928743672
0.182349112085242
0.044444115124641
0.0945691057999911
0.116355084248915
0.0965407678650678
0.190738070475181
0.170060784767884
0.223042422104025
0.222319354574215
0.185748850003716
0.199119901119194
0.172144730132242
0.216401392061481
0.0557987074132262
0.206832736952705
0.152801574037745
0.230436967718617
0.17271234911536
0.131195469615873
0.180658350169497
0.101932967013263
0.172115787035732
0.117274854646822
0.0786265686454434
0.0754021994203865
0.224305921284484
0.171308577959439
0.222736625218869
0.205263559226534
0.146559952812169
0.174462323269645
0.120058777673524
0.196029623072743
0.101112952398293
0.056014227226495
0.119097891440788
0.190548210007197
0.109987808693647
0.129643503554386
0.123833883917747
0.0823703577264412
0.21127006280589
0.100708911666631
0.139238196683274
0.177305460673401
0.0999252494827793
0.0999625064139646
0.077553710987418
0.168349787416896
0.118057037541074
0.180783188776506
0.0457730273547049
0.141810185550428
0.0939660816465737
0.125968761597707
0.194174214625111
0.118102664229059
0.18262466527651
0.193767691208307
0.193676831514903
0.149912341988828
0.100423180733476
0.131563868325959
0.194799869848921
0.225553697173986
0.088484590915953
0.0474970518958986
0.144294283753744
0.0980339632688877
0.12183713051754
0.202240735350542
0.199184740740975
0.145768880985836
0.124069991043241
0.197056271456822
0.204721904990601
0.0461545927706448
0.0970975617900386
0.195888484225837
0.148967782887159
0.0767864619139642
0.0557437218478123
0.119416225143579
0.128805127611927
0.0763913721832329
0.0992597374231487
0.218475999489911
0.167007248505922
0.11837976335374
0.0551145847578361
0.102698553090926
0.219090670108416
0.195796186704338
0.223811265687025
0.127751394909008
0.0770456042145378
0.195355628292044
0.150294372886343
0.199759239805769
0.142534422951157
0.178664884187523
0.125200456791995
0.0796601785277028
0.223976181457014
0.199911577034238
0.0971519054560447
0.188730288476207
0.0545067615966106
0.0533711306730925
0.21829358371717
0.217478474152023
0.121762326599566
0.0419636606330448
0.0978021730305988
0.116565648558992
0.200423260107301
0.101867451817234
0.175588663194333
0.125407087538485
0.227738166242025
0.197941408952623
0.153163148720661
0.191298294782556
0.156450194416509
0.203512561361174
0.171148313726086
0.198116258866047
0.172194918566522
0.189202033453314
0.174095184834677
0.193655854352937
0.202126971634699
0.0733869972135185
0.0762111234412592
0.116584222905107
0.168914999857958
0.199985076153463
0.0800803872526862
0.179065722954564
0.0804509402804531
0.19773430842702
0.199312465354278
0.124037084566394
0.090281755210494
0.125399675604612
0.173345923986345
0.104580174195323
0.175017866583828
0.124998424709309
0.224545033004351
0.195686869496852
0.121536428930751
0.168557259058274
0.233500305563711
0.160970395597027
0.128636375869341
0.128274625840343
0.100178364962149
0.115996058363975
0.0963061724415601
0.225222745356586
0.178460625525009
0.0994662100576521
0.12441619706473
0.200180997804357
0.103735002549167
0.174464165521645
0.126395570391245
0.198167602430626
0.0730003628778442
0.079250273946135
0.233621016285445
0.200612916468164
0.216954779719892
0.131946008769261
0.228206142288807
0.120131141097039
0.0778834350443462
0.198101856962463
0.0719145322533579
0.180194410146096
0.111855587390482
0.171212084162009
0.17383162618585
0.119930177278912
0.131631925730863
0.0700409466320116
0.0970573080295166
0.198235388482065
0.182739693759707
0.0533184811100735
0.127174183458048
0.123462180379824
0.173026068436023
0.0687576781798485
0.207276108092724
0.22474839819127
0.0909851053969133
0.200536709552309
0.176186034943476
0.197822822497732
0.172441786763968
0.128113729994374
0.128986855033626
0.127252265288734
0.178181020593208
0.196521779093446
0.0975419239150307
0.232399346820276
0.206744180668622
