0.157022672168658
0.141951052877136
0.148427756153776
0.123520166719239
0.161531492417088
0.142321870890816
0.124873101666811
0.14627462196982
0.122519699115104
0.125837675247986
0.132839442771311
0.153817396175873
0.119558644281158
0.149718956833046
0.124705723603874
0.125591297034954
0.133077894790558
0.120659320415946
0.15219607625697
0.132576092604078
0.151019287562023
0.127151411251742
0.122122167153421
0.144771753165527
0.15525268011626
0.118698360705025
0.14968096741982
0.145352433558074
0.152563773019758
0.134566735634596
0.150924319542403
0.129821350567655
0.124821312172998
0.119818277649101
0.115730265157544
0.132534839346459
0.135559678384178
0.149721533527657
0.132851399323089
0.154249041723286
0.123126434936465
0.11634998033442
0.113456713816894
0.122613850522914
0.122937828164728
0.122950620591618
0.121520974489428
0.120762827654146
0.155018199154855
0.14651023131157
0.144337390491559
0.150888405303312
0.146202372701659
0.120720774452837
0.138468932953178
0.15369681545757
0.123913837738813
0.15421246539712
0.124262200517816
0.122300325347928
0.129501697440886
0.143711913503022
0.127840808784509
0.143225500211409
0.127029787967638
0.123145402924417
0.146463393740376
0.152601025584227
0.130373364182431
0.122333308840208
0.125865064182926
0.125256920114977
0.127100313541921
0.126340598200177
0.144366506484271
0.123330689187581
0.145697481223708
0.151226717934635
0.160670568072817
0.126329967473114
0.125082239388542
0.128713732239109
0.144389973870394
0.150577567496772
0.126652553110849
0.143725836683541
0.148952116091505
0.129530419695375
0.130737987723119
0.126897993167523
0.126276037820898
0.151365285027883
0.150731151450826
0.149041419183072
0.152580018389945
0.126817142153343
0.132893528578672
0.128821719195621
0.14319094730371
0.147662677809795
0.154424307137931
0.124273280384199
0.124773995586217
0.145674840204996
0.128171452293244
0.13051695766901
0.125912741891929
0.11600978901863
0.131351207137305
0.151233270164291
0.151034551434861
0.117103126928136
0.151880295121484
0.118945387298669
0.152849429697602
0.146957287153256
0.144904481018843
0.154522236168096
0.144755197561086
0.122998449474988
0.151039334471606
0.122848445964558
0.145216664612241
0.129188437945272
0.124585968681813
0.116971527944827
0.14962555789299
0.154403779513135
0.128343755083957
0.147277069169966
0.127400768568051
0.124988463674331
0.151408735684519
0.120331896460098
0.125282561490457
0.125758788555267
0.14903014007756
0.149246773039971
0.127060502283885
0.118319880162567
0.116984487393232
0.142871247728592
0.128401750410596
0.153036889566832
0.121324975508458
0.146809096787253
0.122152363669699
0.155803088158058
0.149198451731118
0.151266316474945
0.151637679034259
0.141096483698848
0.121949491509298
0.13216918445846
0.145030989106225
0.147080235747681
0.158055873003013
0.145358569791871
0.143151968813869
0.130143727190892
0.123959798922645
0.152548834412667
0.112964402895547
0.14372231162431
0.122780577362617
0.130459574653104
0.154606875907187
0.152722778776005
0.119055437271332
0.147081169689826
0.148674245944847
0.122480154162306
0.134256181803514
0.149710718553456
0.15705395277152
0.125489926343428
0.119857970969616
0.132828876464503
0.150218184031686
0.154630489534488
0.131085311953185
0.151950955087566
0.131042099534109
0.148484316760939
0.148714982246275
0.121135854004935
0.130689969430506
0.150706624056423
0.155420902596277
0.159756916219784
0.148406592945487
0.150211051947711
0.156319099823096
0.128826817816444
0.152562315022066
0.12454030184863
0.122538164619066
0.126413276082228
0.151048693378601
0.140969845318422
0.151715691225864
0.151896161176193
0.1519565306475
0.147878574528969
0.146435028231315
0.151872843950368
0.114609275711699
0.14676422945005
0.126691086986205
0.124650169796833
0.155980807719212
0.149115912486643
0.157011252930099
0.116425199554254
0.128920570618541
0.14318212850299
0.1216543768749
0.131617083308832
0.150490926786099
0.121051113615969
0.152426024950641
0.123762150615333
0.132717410251686
0.125769392029644
0.143800505737678
0.123713144795811
0.126396821849713
0.143257547280952
0.119220835073687
0.155959397014114
0.148846509234188
0.124196215659532
0.142038681777496
0.157350740852599
0.151256223261919
0.14825585176006
0.155318632600304
0.124012208358643
0.146201817954657
0.152924461679347
0.152139669614567
0.158739911794275
0.126084419894487
0.120414945681724
0.149791139741884
0.122294891869445
0.143768708526704
0.127937899540373
0.151937419966403
0.152328531056054
0.125366730561692
0.127995962859085
0.125472881522197
0.0915704919940944
0.122600894436755
0.131314161517204
0.129882411671824
0.120468947942918
0.127153028180394
0.123630069394074
0.126001865612552
0.123808255747407
0.0922893681459988
0.118313344356726
0.119017037317165
0.119049891544636
0.126697996107724
0.130802070022621
0.130195436809189
0.121844131842915
0.119641026827289
0.131984846980851
0.128487463900586
0.100016836140035
0.113014964114306
0.124035228553607
0.130314953974376
0.127626677775809
0.124053473406254
0.130209022554636
0.130448624336787
0.126164815794077
0.124522606001871
0.130391567825148
0.127424748940496
0.124046509731598
0.133676546510367
0.122739217463611
0.130736986687779
0.123728806731325
0.117769149729786
0.129053744432712
0.123721160009834
0.128232102457632
0.126298755492303
0.0944336599365528
0.12493843644797
0.128253343925459
0.0981922543423039
0.122626081851479
0.116543648258732
0.106395970428602
0.128125053432904
0.120900385817491
0.121638001604574
0.128493343515062
0.127967659683562
0.123513394493307
0.128828750283414
0.116369980640566
0.126226522437423
0.129453739780642
0.120952315077379
0.121161831021933
0.127260381626278
0.122360634441803
0.126377402304514
0.108253299101422
0.124422675702529
0.0977570004632821
0.12573586394829
0.124927535530373
0.118515418659027
0.123146706841891
0.11853360849261
0.125166756670643
0.0978084254085055
0.115976344727681
0.116889395775316
0.116004176823321
0.137005216930744
0.119149692264418
0.116680105822598
0.12103354671064
0.127494714706371
0.134629141526145
0.123141130960932
0.117786015092656
0.121089862208735
0.126809605147661
0.121995746126322
0.11937428317546
0.128970861964502
0.122491719312476
0.119827170364222
0.127389883768807
0.119109793294108
0.119594958547826
0.123360915027435
0.101988979255141
0.125618339377668
0.123984690542871
0.11739983083647
0.124833360811956
0.10017769016055
0.122488301263394
0.127939214017905
0.138927119971517
0.129087387890445
0.1219946177313
0.134527080838291
0.124688936972771
0.0966014113401206
0.123336982399199
0.124668749983001
0.12393954033482
0.122854496972529
0.118743701030651
0.129657201735628
0.128488982680487
0.121360667290283
0.116229919323929
0.120295934108367
0.100918925986411
0.126134642671846
0.114110558626702
0.118926834963654
0.121013483338345
0.132291761365921
0.125406322524787
0.119469911870554
0.130895918888476
0.128982579916234
0.105179442841859
0.131974231625395
0.12794559443467
0.129765871862813
0.133165210566887
0.124408922480828
0.127257146436508
0.0965534660670791
0.132392826293172
0.112643788264634
0.126711267172964
0.125854081379357
0.130162166118392
0.127454156053794
0.129234915444061
0.123133644595939
0.10949632144576
0.130789550749629
0.125078454098054
0.117360591152851
0.131385036068757
0.124790190212541
0.130886179496464
0.125438098227881
0.117592422709525
0.121896167511623
0.116352564301363
0.128104907431895
0.133993515423389
0.127233770987165
0.129236959756781
0.121423274875274
0.133579660140846
0.121283080672113
0.119522517943931
0.118285138739128
0.114355587388494
0.119345958724098
0.11317219978583
0.103951560791531
0.12557140626776
0.1211355434756
0.124573508277526
0.0964814993099644
0.125857137894126
0.118971723924159
0.129504031584512
0.119271657546091
0.0925351619600535
0.140846982948168
0.119839745076525
0.125738993526923
0.10473868869169
0.118381381421055
0.1269977879036
0.128126023008534
0.125841816748667
0.124388096879011
0.119280740129487
0.13273983587085
0.102803050443465
0.114182628014553
0.123799618448616
0.124791776521624
0.128106235503854
0.125570901460385
0.130697531863188
0.116616492481665
0.124423346932162
0.122604459464848
0.11446989062111
0.122738355589887
0.11798174675201
0.131090048834254
0.127568529767309
0.125183737760704
0.123949152247975
0.122481755124359
0.127539454700341
0.119404231229639
0.12470004587968
0.124256679704208
0.121353372640412
0.096294924790341
0.129052428724169
0.122399565707845
0.127720016019606
0.122730849995238
0.122297204262019
0.0998600289273315
0.127423102378327
0.103357853882884
0.129318109234521
0.13143324699065
0.0993474962349088
0.125081137467764
0.124669561946832
0.122682905916314
0.130143959262838
0.13369019621524
0.123486261775646
0.125275526028968
0.13400046780515
0.130227000468286
0.12728892791062
0.132099975255093
0.124774220730932
0.125109456262565
0.133067780031689
0.135321393080046
0.0978841764873425
0.123980379934147
0.122030301069015
0.115385702597934
0.0973308088132129
0.121629852740167
0.0976118869397817
0.00423400358225192
-0.00246733339050425
0.0535177457079984
0.150906918896674
0.167907533155886
0.073422513205348
0.0286788962734893
0.0575717863373964
0.0206823467500363
0.047885120238644
0.0528217611896469
0.0454264991401274
0.0300464553720607
0.130580752076482
0.177370501648958
0.123762323356259
0.082231878471803
0.12165567410704
0.146668635645873
0.028314714249348
0.0471563355393033
0.148407106643558
0.145578552779226
0.179277681573471
0.147809290662965
0.183474090260544
0.147788400411992
0.0264348660781203
0.0422958476508827
0.122480626328606
0.132687559257269
0.0232976580732866
0.021652536313734
0.156440393496905
0.114304632417474
0.15583534542822
0.133279179681063
0.178461043259916
0.0425860862257179
0.120357878092012
0.0447484677557818
0.176794285933677
0.0718806175907937
0.0245518848189697
0.0761943073822944
0.0259296304939201
0.0733333030744693
0.122181619633846
0.127826987083304
0.0462495414696007
-0.00346466876747641
0.17243196434114
0.17330772083984
0.0218601696324247
0.0238044710830358
0.0518860534536821
0.050933323951157
0.0219991246698712
0.123195176568849
0.128914228182767
0.0296146772039258
0.149295370432903
0.147015745956646
0.123961262606568
0.116478107601279
0.0233162863253316
0.13284233993396
-0.000919594252706348
0.157291274533548
0.0691582684725296
0.00166093050085742
0.148062453997761
0.152095034565768
0.0663559365261801
0.0349933152212906
0.0750811347904048
0.0203036106083362
0.17970465181846
0.141276358504366
0.0739078747292743
0.0600818268510738
0.0285988741575597
0.146628229334472
0.000850166479845511
0.174257209424771
0.0493003929156819
0.0275608744713276
0.0480274554224846
0.0459756942856145
0.0436914477591711
0.0486879163419906
0.0469973920886108
0.176583174527036
0.125891281501926
0.177045461052985
0.0245533919216011
0.173146779989042
0.0116845599920677
0.051172181311594
0.0508321205934757
0.0477791307474382
0.12378055135615
-0.00680322812046462
0.142117150698322
0.000423821400727029
0.0763417979801692
0.0332145937612401
0.149810934559708
0.118773001428227
0.0224366720749449
0.169819616571277
0.0509292018360302
0.145781245801878
0.0731097195612504
0.123747106123509
0.0661938757857182
0.0236093944259015
0.0584315529624305
0.0238303847423699
-0.00891729110508278
0.148643530890716
0.0268240867256483
0.000977008179866036
0.156981323089511
-0.00467372169585421
0.0511328474032562
0.0328819830690004
0.0769175891175111
0.170721971284417
0.0834075472277324
0.124549346567317
0.0494424091153384
0.0759870570456602
0.125976071007265
-0.000603098248936066
0.0502905331505583
0.0572504937898773
0.0700352269389633
0.172728083372644
0.147173080827251
0.0210980894938738
0.0804575883755611
0.0513690172760351
-0.00453252133187659
-0.0020294163600714
0.116045124830461
0.178021393887958
0.0527384512896101
0.0773491921550149
0.0454508464994941
0.132861978428345
0.148949568850089
0.140378273256673
0.174303417459735
0.0493137242302587
0.0210126122682758
0.156540378724705
0.0254010021429768
0.167206357755175
0.179522466330731
0.0238979077026429
0.055263559888323
0.147388642839002
0.12816448810823
0.146474883647967
0.0470583091445939
0.062525192487358
0.154527694563326
0.122938927572965
0.0487571194965389
0.150745084422275
0.129802942037705
0.0478301527880714
0.144451107440552
0.049394370361692
0.0821394517396065
0.0293008521610828
0.175137644113144
0.121169689916964
0.0480251767416004
0.154012455400272
0.0507800731132149
-0.0082865358976864
0.0288273006402504
0.182785094809911
-0.00715859423881287
0.152759494535847
0.0231333158682395
0.151819422428704
0.0276081233116672
0.0316567886496465
0.0527274609689345
0.118700811736531
-0.0058478674170543
0.160979473249495
0.0735634964724071
0.0266003324321312
0.0784346395902997
0.0329690506101167
0.115713430982115
0.154212999888551
0.143871944237398
-0.00215032357384205
0.121327631837001
0.171868742908707
0.135788705623707
0.0164970019448382
0.172347911366836
0.0266934858481803
0.162154792243944
0.0544818464703237
0.00449304909911917
0.145466329555063
0.142838952154604
0.145549760405282
0.149364727138743
0.0534189262317754
0.0261199380546371
0.0497181901759374
0.0501850908053751
0.0552436024258583
0.0500454631810698
0.0214354395215776
0.176917988630079
0.155206534745134
0.155304355412356
0.0309281974704306
0.0775572107008307
0.028672224797789
0.126402701545881
0.0475459300712815
0.122923784730762
0.177761300754627
0.146269387382213
0.0423009624085521
0.172678850269132
0.141644382869056
0.165872957380316
0.147174046503712
0.0180179526314028
0.0473571853438484
0.14275949437726
0.0487481037919418
0.145344249201171
0.0680418329110836
0.173342785714037
0.180626870748481
0.154794251050996
0.155574503296296
0.0192236675318224
0.051589622657121
0.0843505676910356
0.0587184223690542
0.18177687508769
0.124899106670994
-0.00158965190385368
0.153890361601843
0.152172710882027
0.146473548491549
0.148755082183699
0.0426519277057395
0.0747200987240534
0.178917580998378
0.133549596930092
0.184711309749487
0.0310127001409371
0.0493477839191209
0.152726704860704
0.0295120061807799
0.0264688347354132
0.0738202384525962
0.125674021308359
0.169015818923152
0.0225601971255378
0.0516319940979102
0.0448790565663317
0.0196047488598992
0.0760696250102197
0.171224939951252
0.15239191677636
0.12134536885111
0.155690917994729
0.0503745698470448
0.178382672826707
0.0685905370547364
0.156213565088247
0.0478222288698387
0.0201160926966598
0.0519127368502797
0.0458385127573157
0.0539111598286907
0.17867464579774
0.173930684313877
0.145732351257231
0.153355332801774
0.0796722180712449
0.0183105176537394
0.0571400556900046
0.149922374429715
0.0554897158117544
0.154180389028482
0.144587274046004
0.177660963253335
0.150860032426951
0.171352464299425
0.0765226314310723
0.0767285920112513
0.0351519178814679
0.080401263896422
0.128990087582496
0.120472208715775
0.00182741999707593
0.177302045394701
0.146339529617663
0.0231915240446534
0.0374734476905513
0.0226436532466178
0.145871854769114
0.074372366864221
0.140802994707588
0.149359550894726
0.0528990855967388
0.00182742070889598
0.172765879632722
0.0279953207175826
0.0172232494516064
0.14744293983407
0.143157256186727
0.0589888724874756
0.157157157179339
0.0519478818860016
0.048380835379142
0.147610883749218
0.153934533734301
0.141436762002498
0.0560516971840972
0.0527672571728978
0.0438480768795921
0.147867264453793
0.0548434639125412
0.0440633639030903
0.0383511253006137
0.0794463266631474
0.166004504674414
0.0749904201648787
0.17392092815459
0.148649237815816
0.0257608768011906
0.157235382361267
0.140608328145103
0.0202283776256488
0.175840288529267
0.123837723617048
0.0460653026998939
0.0739872606180164
0.184819861793201
0.0374807573087135
0.0184225520311842
0.0568417648054033
0.176029826947305
0.145668889978627
0.0270569750772387
0.120742299821157
0.0345298318304735
0.156451990396122
0.160867689759625
0.121389013222421
0.148771530732933
0.121822028670744
0.0502846843433805
0.046237109404289
0.121808387197397
0.0219736825909906
0.0119939502361731
0.0296174522965294
0.159434919123551
0.12721660427697
0.124997604403767
0.0259906548959476
0.181516476710656
0.151947096463974
0.132593496351665
0.0297679663254873
0.153141302243761
0.145396876851588
0.169724039612075
0.0660677001254844
0.0199951500544221
0.0516448541066238
0.184586804241605
0.147376142793908
0.144908113656573
0.15998896443622
0.0231181665196209
0.0438404444376767
0.145032379539281
0.0310410366362252
-0.00858513971962036
0.121753729001952
0.0541350030827841
0.0484156599074689
0.069421630286524
0.0396903972983654
0.148727359110935
0.15962974015633
0.00196723805860931
0.168391716558396
0.125560669690681
0.0556023874648069
0.05046148977084
0.158482600341197
0.0425156957164811
0.125806662621103
0.0181919598185521
0.146960741256577
0.152000366380752
0.145796853261051
0.173027954416084
0.145985088221871
0.153449305813853
0.078992960188952
0.161179757954184
0.131465734483977
0.0264712979779931
0.128677351311198
0.0764923313090463
0.121836748684835
0.151527671251105
0.0493083360215716
0.155326292257089
0.18273064793864
0.181360244232519
0.0219621184001458
0.154173077421285
0.0278354308618927
0.122984562880594
0.155064829229586
0.0705485594110627
0.0766085661634139
0.122758964439503
0.172571615257746
0.0622824019812308
0.12279025458803
0.152097050129949
0.15524978991919
0.179141608572025
0.144356794109304
0.152924492556593
0.0830961484890433
0.0471709692155964
0.0570083178717621
0.0509341632988146
0.12187465190282
0.157674257992611
0.150300427810215
0.0213853659561058
0.079309385273718
0.150194078485485
0.049059078405867
0.0725417519816439
0.024729790075429
0.0600384059563937
0.121767495468635
0.144817839061087
0.00292606912925832
0.172422891110939
0.174565310210428
0.124169358313862
0.0217852539089503
0.15144702067248
0.0453965883399689
0.120084871921398
0.16882082381374
0.176041256471686
0.151837374138585
0.0520896821152408
0.00361346732910856
0.130916395018046
0.1496658860474
0.0236631964571316
0.152388306213978
0.043833121217221
0.140669483627347
0.150391031445053
0.0157867076357598
0.149269309571519
0.0221567732403425
0.182144137683055
0.119909255823425
0.176568318114015
0.129691360014975
0.0782243267171794
0.147310621523727
0.0473314276007104
0.0239616476354717
0.0549043603001922
0.0497527540914746
0.149338421535235
0.153182293305036
0.082794087825412
