0.180668310594222
0.17273833370263
0.122034607906273
0.171508519639611
0.120362286473534
0.13123356530877
0.178525613079724
0.179999560806459
0.17922240606258
0.177026513406653
0.170688568217394
0.135435056365042
0.173516606122311
0.175093588016613
0.137639213157607
0.121906562847792
0.169620484048514
0.171663140398409
0.125501292564554
0.135394935328921
0.126117406647862
0.175617514338843
0.176341468258058
0.178141586460692
0.128372555580342
0.11847255722111
0.172768456663177
0.174581250287842
0.176237306283198
0.177265588122395
0.181111229590515
0.174143517902402
0.115828754115376
0.110341835622162
0.170361662723076
0.18666149702759
0.167312844207283
0.175423647348794
0.172387687020837
0.119076266904375
0.173142019285776
0.176378917949516
0.18472271226672
0.174319492369735
0.121237717301936
0.176646031753067
0.120627073285482
0.172326034019189
0.182670937339643
0.171080327371637
0.169618482435149
0.168584659387455
0.126479789302874
0.133902270894606
0.174911301508586
0.17052748783789
0.170192909646743
0.123310111119933
0.117708275468945
0.174973761644243
0.122687705752828
0.17132550511232
0.179244037084825
0.182409451903553
0.123876387105828
0.175384980863751
0.176524923030889
0.167236595187272
0.169556216532433
0.125653202933167
0.170364665782965
0.0994650396398316
0.156935338277757
0.174198966469344
0.128264959452686
0.177018050539458
0.163953342119144
0.167794412141915
0.179486632357731
0.176749124513199
0.163908784794716
0.173785611705808
0.17453910310504
0.128101019262283
0.183994845516759
0.168039789139873
0.129579886661228
0.178506802154795
0.167846889292713
0.1794522966967
0.124368226006086
0.192053241321836
0.172889259728806
0.128577017354906
0.17693666852722
0.182620102386983
0.181582466314572
0.17146481886181
0.172307277325405
0.185035596202005
0.118410134389098
0.168406134646948
0.175520320517118
0.168201230019578
0.175439464707219
0.179142454934014
0.129704170133547
0.127284904217206
0.175791013383968
0.130374380669835
0.173444989778241
0.180050902373217
0.184565883430968
0.180368741867211
0.175160144396596
0.169513581759283
0.179579752438098
0.12548691898168
0.172816822194963
0.172707726477587
0.174131231801516
0.171874389098813
0.175510236412151
0.175056995894973
0.17523939826804
0.169329046089142
0.179674157138897
0.172839706930985
0.168871229667817
0.176222626911023
0.110623369234387
0.170958503841854
0.120937686009616
0.123425066705023
0.184251506811402
0.120789861558928
0.119389363564095
0.128547333435197
0.125030191585299
0.121441244478519
0.134029699683576
0.169936772292514
0.184348738449089
0.125057908146799
0.120937205880918
0.17523932277128
0.171998012352912
0.170848018060418
0.17826604296772
0.182986302754121
0.128494984100377
0.168745344412547
0.1759315196325
0.169630039949578
0.124147510315458
0.17277188825287
0.124628848537923
0.178704745975252
0.177455799143285
0.131153441882659
0.124077039442626
0.166871770087581
0.169662208334854
0.180701353690275
0.168954704012739
0.172639151463002
0.129375617196336
0.126237623262035
0.176701824730404
0.175097038629832
0.17426717135481
0.106179308857562
0.155386834620873
0.179324823027033
0.121848044025913
0.125909116791929
0.124988444649123
0.128829426980235
0.11899891643356
0.1673750979131
0.121526154989524
0.095499061783071
0.17673420212519
0.171654608328317
0.185197330379643
0.127491954273236
0.166098107181115
0.169155281918172
0.172006510619869
0.118640955274346
0.181592739794988
0.151721585925093
0.180434473655852
0.166458080859467
0.177423673103661
0.178657249428747
0.179086894930498
0.173049619016103
0.174132989600693
0.115456280276512
0.124922342863182
0.17657732267896
0.172255707713403
0.173558834712787
0.176233166990135
0.123601520880783
0.185412426719202
0.170296847994739
0.128008038234043
0.181724356035052
0.125051834079294
0.175974517984065
0.177628450554756
0.185330306064843
0.173483150914446
0.167955652532521
0.168035851382898
0.121240914090966
0.177637298973786
0.122917795966273
0.170884355294198
0.127953725208561
0.179946221108076
0.122585222761259
0.173004938914412
0.183695797025384
0.163302486834294
0.129868398374129
0.125993977807961
0.151909667615949
0.171583899042223
0.175073043567191
0.17492396396468
0.17736683334942
0.126174250239312
0.170132012075994
0.184555346740974
0.123204748658178
0.124074047360033
0.179703887848551
0.134696330123994
0.165696416607232
0.125527052930847
0.185541829732267
0.18080605507797
0.12356293008665
0.177125992056381
0.173157235290705
0.12261113624404
0.131790752615814
0.0418007801539016
0.0468154785666112
0.0379652666896984
0.0610110088737168
0.0545265478412963
0.0503677636476167
0.0426392512170974
0.0520588665643679
0.0494713463080228
0.0551565107200312
0.0474943067356258
0.0524986495749538
0.0550763817879994
0.0374322897449411
0.0532872370013744
0.0575068929316837
0.0486664109238674
0.0415619167588618
0.0474900512596005
0.0420889317448026
0.000122541623264298
0.059272435805172
0.0462210679065445
0.0464599222705782
0.0476784637554845
0.0525038882764556
0.0471799880599383
0.0510105955078686
-0.00208637558473441
0.0432910760806581
0.0487153154404266
0.0466701489877681
0.0544844943527035
0.0574674138175362
0.0442852019832881
0.0431063564243496
0.0471819627007529
0.0522354492845469
0.0479540384848541
0.0544264451667679
0.0513231069955025
0.0510442833840428
0.0528986447067283
0.0454533338849091
0.042798271206646
0.0605178362412415
0.0464409401883936
0.0599484562753693
0.00462067752474971
0.0403000998070298
0.0502016499577079
0.0583043769426581
0.0397446463282598
0.0503357673612306
-0.012654477010839
0.0473333719692536
0.0480706971229253
0.0484325497802924
0.0509465797569362
0.0465073283786953
0.0480786001325116
0.0502467529152841
0.0540998088766126
0.054911389772486
0.0427155001368889
0.0445506422209404
0.0482981737024861
0.0583655542163145
0.0544536313920095
0.0534811660812216
0.0450197088392712
0.0466784097664615
0.0520320072253844
0.0478138396805334
0.0549472719695338
0.0528173502969199
0.0571440247563008
0.0525618832098996
0.049409620528009
0.0447794873337172
0.0431914764272775
0.000742082931880768
0.0560121010637933
0.0481253942380441
0.0448165275655837
0.0466310012389536
0.0540044524065191
0.0527397616884807
0.00161432734282554
-0.00822991389968031
0.0489515264776899
0.0458300632164608
-0.00242919211998223
0.0434216679196233
0.04794809895458
0.0474969268936161
0.0513998307631345
0.0560296841406828
0.0452724790578484
0.047824005900615
0.0483952027565118
0.0568108980905917
0.0463642039672212
0.0520438724502636
0.0450971714403228
0.00151616919902718
0.0558151380081588
0.0576706787062134
0.0512702424829416
0.0553932919307922
0.0539033655753266
0.00142899831648101
0.0511710934557457
0.0543355451606063
-0.002063545717613
0.0496349045051672
0.0561357537491314
0.0569770924210693
0.0467186918456213
0.0488880482501
0.0493068538784544
0.0469792404682587
0.0475566750147811
0.0428191083640316
0.0397081171350901
0.0474949888619697
0.0100197168370104
0.0523247563022486
0.0517653909918551
0.0404972356143879
0.0488394363507003
0.0509933843303718
0.0524590484427869
0.0503100993440532
0.0495469553725363
0.0514073806348596
0.0481808699470816
0.0579863195447441
0.0581160571758587
0.042959999531477
0.0499052629479347
0.0480834984634085
0.0384833087609494
0.0498305339457957
0.00210547612795718
0.0514390970309523
0.0487489645470907
0.052027457153719
0.0515207304701773
0.0532213679871114
0.0497823877976233
0.0530108727276165
-0.0024105420870532
0.0482708859384629
0.0523010099951705
0.0594024919290187
0.0591257945539472
0.0532748124363724
0.0538987801048191
0.0514787520857221
0.0501191273452238
0.0452507868170898
0.0503952816381431
0.0587088156900206
0.0421550441104627
0.0541228148861403
0.0533669719947682
0.0507444743423396
0.0414563176227907
-0.00341876615615179
0.0529372210800586
0.0410242518698412
0.0467893574935845
0.0497336116093981
0.0363562144546834
0.0532968603811183
0.0498284827001473
0.0541060777188956
0.047693075626989
0.046370179793641
0.0484324166018935
0.0512462168156576
0.0559248816137541
0.0492209831104571
0.0472714286987091
0.0520597059522149
0.00212487965712225
0.0513715418099458
0.0538656161429784
-0.00583489770114701
0.0497733302322233
0.0642712855353115
0.0496036607065717
0.0555619582916883
0.0540671911785538
0.0509686061556796
0.0537093945882521
0.0486944472239019
0.0449407840062851
0.0510247372814515
0.056352761773979
0.0556432226098405
0.0503469751329759
0.0506345445605227
0.0515461386955779
0.0501733474725701
0.0533833064784651
0.0532889556493022
0.0494674135769033
0.0514445395060921
0.0450928270771976
0.050715228147387
0.0575393552547721
0.0405978238396375
0.0457592473090094
0.0427764491037722
0.0512579053637026
0.0510632493490081
0.0499156296296047
0.0502367823399903
0.0464950421658151
0.04742978975481
0.0559200659022604
0.0439469930254589
-0.00443938366454495
0.0464416022720198
0.0493645860093113
0.0521530236632396
0.0443941908752062
0.0498882350178608
0.0482469518767408
0.0457516047982095
0.041848653426839
0.0546318007254355
0.0512032543241963
0.0517770459327105
0.0558639672010667
0.0416993283059239
0.056333877835886
0.0514395174443917
0.0503252344093896
0.0539118840504609
0.0589093515985519
0.0579744969644426
0.0606447107138016
0.04820020576013
0.0362050180535014
0.0481460303839449
0.0530728448056286
0.0530193215649749
0.176698244597848
0.10331768377569
0.170906540165592
0.168184859343525
0.0485204005762934
0.0520145631753429
0.177291379623442
0.0342175914126251
0.0307342754142497
0.18068362628408
0.187308862557827
0.215235872801944
0.171743239614028
0.174752935362124
0.102726539159011
0.217895982659418
0.0235760877757431
0.222544549071536
0.181200906897554
0.17161319364643
0.093722690081109
0.050734769730412
0.0274976114859131
0.0491331191470066
0.165399304941557
0.044487329553637
0.176636230148437
0.0462024416611893
0.0953682410236213
0.174484087610338
0.177795447537196
0.166340821768226
0.173279516160517
0.224759161651489
0.169609624493754
0.222539977019141
0.232374793417176
0.215054662091323
0.222432085889158
0.10157343347628
0.220631216204242
0.103125788388738
0.181015280606257
0.22734327347827
0.0541996874437117
0.224177022890931
0.222153256246401
0.16987866330606
0.0436054631366109
0.17413282857214
0.101638989399759
0.0677204877674081
0.0907175931374612
0.218421278455566
0.224861866628809
0.0215855458937889
0.0499901628029295
0.171887408035489
0.158958905977718
0.0520530397604455
0.223420794383144
0.174906610780414
0.220272497766445
0.0228909711678034
0.0207385956774685
0.169392691441029
0.0747392267129627
0.221490155870392
0.171293001444131
0.0958180205463181
0.175897750339568
0.217233380405486
0.177385790503828
0.232295040745899
0.105926589015073
0.023749722445916
0.0565142001302057
0.17600638890457
0.178215632377695
0.0719953354543447
0.10211433761024
0.184360348955364
0.0290849592221945
0.0884757806488778
0.0901733101475523
0.0488012482014144
0.0150472492436737
0.0499553142906323
0.171623019481048
0.0469174534446792
0.221723687133973
0.102981250697777
0.222085355826987
0.10312814541839
0.17673545498421
0.0790131762048074
0.236036362817781
0.0545267051163947
0.100673686478038
0.170771471164991
0.0459848436437858
0.175583380115215
0.184249732915165
0.173191499883227
0.221353060438782
0.0476110237564031
0.217974359218186
0.170937150012761
0.0760790418701528
0.222404590101322
0.168493708898641
0.101603383705006
0.22033717005467
0.225098749861017
0.175068564600938
0.223203798871482
0.221173193298015
0.108989924860438
0.220468552804205
0.0444622457872592
0.10654885807371
0.178326764726074
0.024640163755556
0.178456525503027
0.0791035464573918
0.0564233611703683
0.0419213423426348
0.177225008938639
0.0623934441290931
0.232093334842124
0.227734126413828
0.0738457859138415
0.232845192022207
0.0741772137818284
0.0944259533188943
0.222713687731296
0.175284851959224
0.1744410477202
0.0226020317058215
0.224646441154233
0.224442397825623
0.177126384381878
0.182729194181368
0.0438251235157253
0.168162950031758
0.101067186617294
0.233529051145916
0.182879830042956
0.218375818959221
0.16543972763377
0.169249743589646
0.101046980593567
0.101253632534946
0.0441311795708557
0.227397377954972
0.0992175643100167
0.108029468966652
0.1647520490788
0.0187504240766844
0.213364093047723
0.107169015894
0.0243176630383712
0.0975099655158594
0.092907455712379
0.226721898619016
0.173443905563611
0.0361709183690144
0.0481939948201017
0.169945280270186
0.0753182885739202
0.0229999818270748
0.172026939950624
0.231883921925969
0.0695848136629675
0.169160106066102
0.217377575669013
0.234870571605667
0.227976526266157
0.223805924971615
0.0994912525913319
0.0958214617298854
0.0542273655065657
0.182179209607845
0.0932926035503483
0.0498028820743426
0.169540218476625
0.0575597997331547
0.0940739917018696
0.23045371081675
0.172560313335346
0.173392678476131
0.223105950416649
0.175716167818919
0.22996993931946
0.0703457351285533
0.181300121578436
0.176373637082466
0.0488346886134227
0.069886666871382
0.221031124588433
0.109196658887301
0.180485274947971
0.0330127237019876
0.217708074444873
0.0475633864373596
0.236653052373092
0.222515247417745
0.169525079647247
0.099196089442609
0.181203398225736
0.0265722159366287
0.168663622748981
0.2169030489816
0.226429434591749
0.220796061209059
0.230784616552211
0.0491166706918138
0.178043654932248
0.222279826367363
0.0420049579725562
0.179221627474818
0.171946482263987
0.0979095243387748
0.0987996230214776
0.174741636888048
0.076812433532235
0.0438323332414621
0.074239166018425
0.220858794964431
0.222300733970723
0.226923365098821
0.0516875221396718
0.232041060556562
0.0537754383149786
0.101233700003118
0.169737884548862
0.173526976585525
0.0771499670277165
0.224365653194497
0.0217817644263441
0.0520423728660088
0.223152216799887
0.0467801154092771
0.0751870030109654
0.220988911021205
0.2300466853846
0.170081664738872
0.0856750868834353
0.0486914645202723
0.174009308337861
0.0186132462867103
0.0978113845786074
0.0753477147780039
0.0942910320095113
0.175693381580864
0.0290855466284533
0.173778977914243
0.179469906402349
0.101309859512607
0.171684855455234
0.0298644768672597
0.232894612812842
0.217516624868134
0.0278309541339938
0.222613605637679
0.227592026119694
0.182290228037184
0.217955225564276
0.171948305902434
0.0985730535794942
0.0712892829616572
0.169209425596055
0.0257650007563506
0.225321223122165
0.04770692615393
0.173047540307217
0.229015448410337
0.23435314457322
0.0659652297075615
0.169326125191545
0.228450867334432
0.0792737754059368
0.228788227255577
0.175049085193744
0.176634451070234
0.16882582230956
0.104553235173062
0.0826040006486856
0.221564267105126
0.028768693542343
0.106908911292552
0.104990950449226
0.100226891914718
0.18418791436505
0.177506516977786
0.0483248478724094
0.0564973128209662
0.226480430778611
0.222382929921858
0.221126845497272
0.171078296062564
0.229133362255552
0.22998783178589
0.177447025458078
0.0933742229043028
0.177731566177614
0.221779832370341
0.224137050187668
0.220068346650222
0.172538167351608
0.0544621167025087
0.0742020446358823
0.221977192403191
0.228969955153101
0.227098896257999
0.218167168575873
0.232534133824177
0.171623978291966
0.0736965118025899
0.179633160831613
0.215238904519083
0.231876403545494
0.0268672660631666
0.019446293973568
0.0779550179585978
0.0256247996136592
0.165183521576824
0.220291249805184
0.105680409092188
0.0243787507110456
0.0223708707680986
0.0536676503934955
0.0991628107458606
0.0236219318265395
0.0288515427407366
0.181337324742464
0.109215106387264
0.184991807725249
0.0660822532832268
0.0778969011259263
0.074995742524732
0.0818159459233797
0.219370047131808
0.175657780381609
0.050423328332752
0.0561245704115628
0.172823501956446
0.218552687028654
0.0722608260630978
0.0252445191738665
0.171913258062036
0.0466634463482381
0.0512961951435224
0.103081727959557
0.176239778021027
0.102677395693078
0.231492231692978
0.104219453711177
0.219788152070921
0.225735658264148
0.222134138691411
0.0315882447709224
0.0489369220753978
0.172534464630694
0.17104191103851
0.0486872539931864
0.176373677878895
0.0324311385806655
0.0453755775353502
0.0227507003953546
0.070914935084783
0.101557175842526
0.0876754694140458
0.0313736409884423
0.229253830296805
0.0155625707422619
0.0572477789345057
0.218783527171741
0.091175184772263
0.221213959485905
0.105080364694882
0.16998051550502
0.103319069353834
0.174132289992824
0.220679926022885
0.187639043072747
0.172918691529495
0.226370362009719
0.166734765420257
0.0501469341376478
0.0441445411580645
0.165983124827334
0.0987189339339787
0.105724647278923
0.102276774621557
0.0507604156126201
0.0320838026016709
0.0530527096172076
0.169676475576474
0.0530812989019053
0.021571894185455
0.0506806868080066
0.176049898579412
0.028309502450903
0.175005120993416
0.225299642866816
0.218431246993321
0.218221692822711
0.228189885924153
0.177680674345175
0.225909927660802
0.175778575878967
0.0462803365288798
0.229739363416894
0.222871166965595
0.228521242559385
0.222689189394459
0.106001383448382
0.0254373804185675
0.18380673732183
0.0779107104732179
0.0931640889999371
0.0736638043644241
0.0610868325290571
0.0900688490229189
0.0505088593156272
0.225745780658689
0.0752313431592301
0.0523931477168291
0.220292165787338
0.105399925091087
0.184924772100092
0.169588072865823
0.0177539426461173
0.175179632014519
0.0965272422326308
0.234882689720935
0.218770199038551
0.100424373492994
0.22616867453553
0.22137442808875
0.0587844005473757
0.0495275496560802
0.0841882599116915
0.0300277436368447
0.0984737075649573
0.0437497391117488
0.170926961440332
0.226503830062395
0.179760221769975
0.0235493230939768
0.0792059602382244
0.225857313617944
0.224339790861023
0.0580784762435149
0.0245435890512996
0.106728937492381
0.0972335003048092
0.229713433992447
0.0718743246825989
0.174466651514366
0.174293824517791
0.235907528799927
0.0401219054909796
0.17921661781601
0.0519114168997237
0.174492006676771
0.220414630755564
0.0198083566349504
0.224937441479619
0.0276111232711192
0.168690211547416
0.100480197901535
0.173978746987421
0.029811535542713
0.173454478457394
0.072922270949854
0.0256790491900567
0.0337643279900334
0.0956041311508567
0.227258117931985
0.0210368862193288
0.0482084728974546
0.232471747706783
0.067359167387861
0.171753084160598
0.0244367559218108
0.0957086464244913
0.221818411787002
0.218356889989074
0.0752072745521386
0.0503736628546408
0.177099123404649
0.102787465023316
0.181864230496952
0.0503897316900579
0.101194166987852
0.173151481021443
0.0808880460285037
0.172453392396231
