0.226104996901335
0.168801915190638
0.177744057274611
0.230828258234195
0.173686244126126
0.171720854982355
0.16391590766212
0.229875502413948
0.220597541147331
0.168864580245299
0.178085572072981
0.176878381414842
0.224469001875754
0.176998999409974
0.183629349770945
0.223522556620641
0.223169990888645
0.171356853092378
0.225154444339623
0.233769769713314
0.176898749617696
0.230803873736805
0.223502101739293
0.219613704030313
0.220778096011166
0.179508977311786
0.163612938702189
0.179006735725648
0.172359810200598
0.231894005339615
0.214795989991142
0.220345825749733
0.173256749618501
0.175076052595966
0.217736614902583
0.228308916972591
0.169844907222915
0.230282901489999
0.227622599095827
0.221071495259579
0.181307174422813
0.231675228427944
0.227013364438673
0.226619493577704
0.233433395136343
0.175249648070678
0.1732083299103
0.175002262552594
0.22271967312559
0.172212968037811
0.182688259927002
0.176489203561811
0.22227238194429
0.22763589603123
0.221521154598721
0.167349884921261
0.217118995685683
0.222144687516428
0.229057095538965
0.166877324271002
0.170735214835546
0.222780904311492
0.172108833443217
0.211547309832485
0.224981216037808
0.220295747326566
0.17710389180246
0.175319788691597
0.219151235738024
0.17776821827233
0.22551844228139
0.175754766974257
0.176150460009599
0.229350409287536
0.225303644725406
0.218216782729297
0.217491538225057
0.173521476394151
0.180177692959883
0.17600766813811
0.22422646351392
0.221469588758369
0.186582153303111
0.171227086420854
0.180028826129356
0.221222671799968
0.175439558650483
0.222999847297551
0.218840396899503
0.218572995045058
0.170616789786001
0.229641074507661
0.168438489299362
0.223925701012033
0.223605404066506
0.216140233511203
0.175731739480996
0.176632175380152
0.228989045548903
0.231431121614527
0.174260971233689
0.229491491496677
0.22766840515331
0.229430869362423
0.176465739651217
0.16768980662344
0.17959938054498
0.222206363999497
0.172897288118349
0.176364755870661
0.230582085292586
0.223215684932987
0.166509189370039
0.221090400314992
0.172662768424533
0.166236722259298
0.227256221594109
0.174014763139649
0.228750369737871
0.228566641146744
0.173723308455875
0.225131265988385
0.220216607088558
0.172466034843875
0.173557466958155
0.218564229457299
0.163622170621807
0.226076748229237
0.223899794317277
0.221577174400954
0.175910650132065
0.17600637167759
0.219915212044168
0.220607566561115
0.176009326467439
0.224047391952139
0.178699099032648
0.178879667032428
0.225805955788356
0.174859676215693
0.172388780114126
0.181832024676202
0.232419363879266
0.236855985187965
0.17001267149389
0.223373825705217
0.169094203337915
0.226562556227799
0.172687458296133
0.177525611815283
0.17417360095282
0.175404702373431
0.225948058400845
0.226588159824608
0.173291587590899
0.178628285045757
0.219577175883238
0.229682008938191
0.164867411652457
0.175332006952306
0.175111326118826
0.178723768330498
0.176056172865922
0.172325234485058
0.176326209255684
0.22303826519436
0.225089227902195
0.2235524535518
0.224345835377696
0.171495675275885
0.169910610121236
0.184811308264656
0.175699186182351
0.218665031855958
0.178088780655623
0.178576140524899
0.173137047549833
0.183800696686115
0.178211744217806
0.224039867228864
0.230083746827508
0.172996662017687
0.180195052588379
0.164269367956344
0.180030654341099
0.176945890116021
0.218276711258535
0.220987754911306
0.175077730611369
0.1753220690149
0.183504585837012
0.220328504587975
0.222693481771142
0.230626778179358
0.182333031931553
0.225289495221282
0.214229020972509
0.182303929434379
0.163346929405979
0.176779098348193
0.171902845111277
0.18737177117139
0.232071056131371
0.228628545262876
0.176573528840274
0.22719296542271
0.228314663830863
0.182149292302258
0.22549084888047
0.222107256857544
0.227128460239322
0.174356089982228
0.228877876318372
0.175998239002631
0.229030359401885
0.222699484819315
0.220547452239341
0.166034944883785
0.171568115348502
0.17074385286363
0.2325834374039
0.226377439609414
0.175030544715977
0.176593349367396
0.229528097973457
0.225649995152545
0.177854446971508
0.169301203048098
0.175712896564491
0.188506749789558
0.185291919144086
0.177456698718274
0.228482434764432
0.184385024865701
0.229059993816766
0.224086391460981
0.224328568133153
0.232458024912886
0.175044231517116
0.220253053357409
0.175588320969412
0.170493667394352
0.162780533957604
0.220932110120848
0.220982490314579
0.2354976301088
0.222555241901612
0.174279491964356
0.176866047972033
0.175620982225734
0.0787327375271736
0.104399921116237
0.0944371399947723
0.0972902303700425
0.101723458655693
0.101867197417184
0.100858880564251
0.103624547966542
0.0958618303513411
0.104830305085565
0.0984971791184634
0.106161067308804
0.0726930899682119
0.0803442144258401
0.106832011660335
0.100477032664145
0.100474380635636
0.10143236662478
0.0995123804999893
0.10210332566166
0.107107616064086
0.099179667902393
0.094978721621847
0.102796384778544
0.0999964097009735
0.0981123676049359
0.102760519997094
0.0981355432200718
0.0974406028462939
0.0921833443734352
0.0824030955774246
0.106165277341922
0.0976870485667906
0.0992816153837461
0.104884758032244
0.108566179128279
0.0955861497634571
0.104874621095441
0.109362899894435
0.105405428651521
0.102265841497752
0.0966106847092824
0.10304647224793
0.0989681237235893
0.0986860949599812
0.0966168847563742
0.104826603844008
0.0993981466115133
0.101256596173598
0.0992783233279414
0.0683191692678994
0.0858421281040974
0.085578322400937
0.101189923725704
0.0710734319486271
0.105763451792337
0.105200956258864
0.0781387507116844
0.107667199091765
0.0957157719817804
0.0805848583739374
0.10457788436937
0.103403110366385
0.100026486773941
0.10228038849296
0.102269861224693
0.0943514901301633
0.108546344042823
0.069839605213937
0.106464502513319
0.100321022031723
0.0982076904280373
0.106868288987168
0.107116061756335
0.103363627917304
0.0935164155066834
0.107345378903339
0.108757199895959
0.103864872849644
0.0934315709602173
0.0998320039817289
0.0965503886398661
0.0948579845844168
0.0943655583972589
0.112210031987461
0.0952096470331073
0.100373421135976
0.10284152688709
0.0946534312891539
0.0982787726891688
0.100796917033327
0.0996679430201259
0.0755547879220231
0.0915340484161316
0.079510817884124
0.102272722015831
0.0902228476005874
0.100328756487481
0.102819004309049
0.105747950723361
0.102822038722338
0.0772925532884118
0.0777779612205722
0.110197213595241
0.0727074990513476
0.10067909405567
0.096095642373422
0.112725418145223
0.101415510311774
0.100882122485419
0.104260238878843
0.10120025697543
0.0785646875355719
0.0903702886992152
0.100841122756912
0.0739794974632399
0.105437773044209
0.105421864109664
0.0754467120230608
0.101702700547037
0.100196598888706
0.0963927361494708
0.0920749777537565
0.0761698344562105
0.10852185625217
0.0930934300044687
0.0771119128410658
0.100357608187399
0.107009002972119
0.0918418976690332
0.1006047488561
0.104939713397648
0.098083494786621
0.102492909506984
0.0988188194234727
0.0833520854359703
0.107428558484573
0.0918235135491796
0.0960546471364145
0.0991059359277737
0.0749385979778836
0.102495657301939
0.1029843786309
0.102553490084722
0.071298129213234
0.104825684902928
0.0761995950066768
0.107246394039853
0.0981680760045365
0.0946682854974701
0.103795575495265
0.0636496829781974
0.0754826732102774
0.0892636958911635
0.0967908343499071
0.10307297262272
0.105373548743455
0.0763430636243263
0.095514680841907
0.0845318811189494
0.100866033236759
0.100570860244876
0.090826957146338
0.0955431833277196
0.100881053591032
0.106568658266907
0.0915543554877523
0.0880124895544554
0.0684393440428629
0.110274968740421
0.105218868548773
0.0936353561733977
0.0829036676003878
0.072274400405518
0.10027733405983
0.0977298016306686
0.101150342690961
0.109116234631803
0.0757580601651024
0.103603220487203
0.0917284808286954
0.093211523559342
0.0955875456790841
0.104841860720721
0.103305274262681
0.105979337913292
0.100690085306104
0.0967798624886259
0.0960513784166582
0.0940961989613074
0.0814969626610761
0.100232889450501
0.107063317856131
0.100768990646012
0.0902793551510432
0.101233712236378
0.0971692468680294
0.105508491420687
0.0796848092774917
0.094214090712646
0.102876876579735
0.106456975644347
0.0779582959460044
0.0891230985143274
0.101213209000945
0.103942524923246
0.0813532902001648
0.109333753647473
0.106685575141807
0.100684370042929
0.100325212676546
0.0997235715027565
0.0794706622249718
0.0957756459821446
0.0772606092748811
0.105174401144791
0.105578926033054
0.106862785783032
0.0984305749916883
0.101093446118508
0.099409837545245
0.101027748813988
0.103356221935044
0.0832047879942105
0.0669290757153094
0.105378681584129
0.0913525518350625
0.0692778284915057
0.0904161313172526
0.103387690492663
0.0917142384161282
0.0972374954393527
0.0808067393783607
0.100297407170681
0.0964098263339411
0.0976169911097526
0.102323237354699
0.104703245533714
0.105534632422916
0.0739772122229797
0.0726659999322118
0.0987904228036649
0.101485029603059
0.072228706935215
0.10311533615385
0.104670497677281
0.11387358827234
0.068438710527324
0.0737458322102684
0.0997247109113163
0.126173054747316
0.125577808721505
0.0203611551081371
0.129105463041221
0.0211258677221941
0.126382653927162
0.0458514039512008
0.051034864414743
0.0195265805035534
0.124813452390731
0.0209756424330189
0.0198230734658852
0.034197670629837
0.0202223023676831
0.121601705331903
0.12089701564775
0.129863745314678
0.125521929044081
0.00255268458476385
0.0193456630419491
0.0289319991560703
0.0239590229406354
0.100913558085465
0.0162236554340708
0.0187935727244034
0.118586907846207
0.0198553428270604
0.0245990343427872
0.0291653310487744
0.0204650754028937
0.0271627561347785
0.00543156746442347
-0.00338548100572773
0.0198847083170451
0.028385236427519
0.123182775838531
-0.000206435826552305
0.0296353406668833
0.0215403251999824
0.11974285275034
0.0298598787884826
0.0294873330993392
0.0249874877273403
0.0242935830253492
0.0465044005909808
0.118869094754745
0.0280406549825737
0.0330346144737692
0.125587035350431
0.0196682515524069
0.014588112063509
0.0525800008233687
0.0216087489849219
0.00212022075528383
0.0229588692291665
0.127487191383214
0.0231249438468835
0.0224418497965003
0.11953047188844
0.0503334902367273
0.0216675388049576
-0.00403704802037864
0.0292166532413155
0.0304456782211239
0.030444583934522
0.0262725018706001
0.0157207764839435
0.0271410347568254
0.0250533339868113
0.0236206365671276
0.0228836360805564
0.122960015211133
0.120173569870544
-0.000767692057542496
0.127925515341509
0.120010603997886
0.00297709930501872
0.0555290458150738
0.0231885859968555
0.0166326840380016
0.0298190972704776
0.12695614213857
0.000536157080972403
0.0285465471560281
0.0302403120318227
0.118011488736166
0.0210281275146198
0.0213106166948065
0.0520026049093089
0.0252377224532301
0.0321438460902238
0.0260731269801825
0.0225329565045968
0.123346553714267
0.0225642426865127
0.131908499102931
0.0225357291627899
0.125636001317812
0.00089975362767355
0.0174294173275828
0.0413572135205926
0.127281261261109
0.0541512413233127
0.0244597075090291
0.0543754388410243
0.131644005663997
0.0247588807585469
0.0502428356255655
0.0326864605883617
0.0268453978096549
0.0353064259784945
0.0487404111827725
0.0326541827110644
0.0288509615020444
0.0250276708208808
0.0313920211118449
0.0242597088435977
0.024661834653425
0.0452182157327005
0.0929984364480662
0.0285598702669283
0.00782739267199757
0.0231801592984561
0.0286522473531892
0.0224343365650151
0.0246916424308511
0.0320396496561378
0.0211786797994384
0.000706867796210301
0.120874985479412
0.0258213030245731
0.0490793991002185
0.0284474436019749
0.030173942951663
0.127992313404978
0.0305783501439119
0.0609548638251833
-0.00625963367401263
0.120985163061338
0.0254724203017483
0.0333225528860037
0.127536396749743
0.041051772541076
0.0465628765794263
0.0253515918611032
0.0530167379339314
0.000967332439623387
0.0264134913495629
0.00171136716604295
0.0257031758507144
0.0152910414369738
0.045672776311613
-0.00214737835591513
0.0318415269425789
0.0200052162367296
0.13363597869899
0.131131605232657
0.0292426117098103
0.0462060224949885
0.030962897997121
0.0232027250748059
0.0281577622426614
0.0181750024319336
0.0513945662794454
0.0266834569036597
0.0196190216112399
0.0247849962296184
0.0146008983448932
-0.00927934173502474
0.128034795387229
-0.00279193885885799
0.128737114063857
0.0169922843647363
0.0284580431350364
0.120851024094694
0.0176298377865546
0.0202617890390962
0.0297885315102818
0.0210925960303395
0.0216007241361593
0.0307018980801425
0.123285091514565
0.0294695953954017
0.0197921355873337
0.0246304360151259
0.0284691172272894
0.0282128913215914
0.0221654831729956
0.0163181407511632
0.126411545618273
0.0249516523018261
0.127160711314811
0.0251797785628266
0.0263762583059964
0.129147127058074
0.0288129522255106
-0.00796297808077734
0.124756282463265
0.0299384535812704
0.0294672058156349
0.127453775602259
0.12512071949279
0.118789616230691
0.024977282007703
0.0134366228931354
0.126678448978253
0.0220560238138706
0.0265782225749685
0.127716140525431
0.13567042282335
0.116700382689008
0.00561504119455014
0.0163364848674267
0.022770844780522
0.0248544330304002
0.0279780294852107
0.122070497589422
0.0234490101505201
0.0565060022307643
0.0207486526119188
0.127365890174279
0.123900167214886
0.11592922430322
0.027488335470725
0.0452652590189326
0.0455319389351455
0.0190940610953047
0.0246944386147793
0.0198136720960078
0.0203458283510469
0.00291400979459403
0.0444231763081787
0.0286426122786875
0.0246917523881951
0.124293380006493
0.0312554343621208
0.0235209570774791
0.130819441060876
0.0243052190221318
0.0215866383798486
0.0477890956993984
0.115617233815441
0.0274566400219138
0.134170882251457
0.0278736195681446
0.008879803577046
0.0197205794539146
0.125240422502922
0.120862087687347
0.119028263450399
0.0304701822635588
0.0302419200034465
0.0260360678474635
0.016883631196189
0.00120026367107624
0.0293981928469354
0.122346048827622
0.122597675612443
0.0484727236265996
0.0169596273991952
0.0535011669405449
0.123207774694255
0.0263291678465498
-0.00780993976568664
0.127359942099652
0.000858845088380625
0.130015174530278
0.0187542221076042
0.05555575842769
0.022742319306515
0.0276160339238042
0.120569232861973
0.120435175060236
0.0240712395342134
0.1248939380172
-0.00417763048659126
0.0160316505471439
0.0150035380939301
0.0305593891124256
0.0211215996284125
0.0230503307506984
0.027991650326259
0.125544763736113
0.0230330652967635
0.0265026589172007
0.134429826325964
0.0182502156814655
0.026691732228343
0.0580544162809165
0.129486922275863
0.123079311810698
0.0228698109136759
0.0283510284730835
0.0181030124164767
0.0214851549382637
0.0478321847070869
0.0169226898537117
0.0211150354489076
0.0503163549289754
0.0246209241631453
0.0574982366119434
0.0283911513781258
0.0309059628574638
0.0249459181954185
0.0223723524015995
0.0242795930616832
0.100689649678596
0.00845097008208875
0.0555721254934084
0.0307817166744508
0.03246001961428
0.0272333912930082
-0.00599577572249742
0.10439403163149
0.0298697232048605
0.0205411307864274
0.0309654494753492
0.0243458367624522
0.031717513630768
0.0225344871091029
0.020792622711918
0.125057736212676
0.0306937570633322
0.0311338287046354
0.0262186482546478
0.00319390727887478
0.0244317426213081
0.0974219601511947
0.0204685680189931
9.77986974199351e-06
0.0200699506656452
0.0574843214480394
0.0217200161889623
0.125236070822233
0.0234862600431369
0.0216415505708893
0.0295794839943574
0.0902791812498101
0.0288680554280108
0.0521490066821629
0.000747644695289324
0.0348025976521947
0.121785748288562
0.016864065346144
0.129306409967052
0.117022342461767
0.0296071068516057
0.029185923844967
0.0323884363396068
0.0239815372717015
0.0347542545391215
0.128253048647031
0.030555960429529
0.0261894744457617
-0.00505821341306005
0.0034709019584261
-0.00609663627980972
0.0290943118028291
0.0132682659776197
0.0475389946381585
0.0261764676521041
0.0181841662268784
0.122003749720449
0.0240016896367148
0.0201420587432305
0.00423659730260595
-0.00867837947503499
0.0290648437822855
0.022172623358912
0.0204979810602599
0.0286035140808642
0.0228942353210127
0.0159348533753884
0.00292998377146232
0.0267052544226345
0.124532128563154
0.0292377313351212
0.0301894523250474
0.0329817314917296
0.0254182557455715
0.0393856480500586
0.122069379395471
0.00664984109976258
0.0201284003001497
0.0194847563859925
0.113029195639729
0.0270068989934321
0.0475892667096401
0.0249244606532171
0.0270826753085372
0.0396322022874063
0.0305963043237337
0.0342191146538765
0.0486148228246568
0.024515368118341
0.022582613148622
0.0312967998472769
0.0258513799018441
0.0473371876924194
0.0289262897716418
0.0222250829592471
0.0367511838930925
0.0463227485401457
-0.00137736989243598
0.125000920437697
0.125959128044252
0.0271458493436019
0.0481331166172643
0.123905970936072
0.119978681752749
0.0311207763010146
0.0226558194167128
0.021315665106635
0.13073943307704
0.0279754128118802
0.122231232371381
0.128925712839824
0.0254324065369172
0.0265026042583672
0.0492782150565395
0.0338459943113292
0.00189589756839748
0.0212295695133931
0.0257946532820721
0.0247830025009511
0.0489123898984401
0.0260856908899347
0.0472989300526761
0.00816465744613009
0.129128698051594
0.123801872604962
0.0315026506277541
0.0244954215443731
0.0303417609644895
0.0217823578228845
0.0228610157313372
0.0227197855666309
0.0262106691830429
0.0282551182645863
0.0266584462748882
0.0230119091866545
0.026750200324581
0.037560612055316
0.129475145936158
0.127247853734623
0.12414633039923
0.11916154453195
0.0294294735568401
0.0117587430333596
0.117093101007223
0.0218596117327772
0.0264315539081377
0.0236935395559003
0.0224020123709469
-0.0053411960790174
0.0153609827447169
0.00308510549080818
0.0296081694677697
0.0247138306615603
0.030952449289175
0.0240782408058285
0.0295481918626653
0.0215265679356922
-0.00107760215468352
0.0298509351119701
0.0175924940741665
0.0244510689012657
0.0338689837962232
0.0253934317951972
0.0274115562707371
0.0319312423121736
0.0490572468179231
0.0196821012888904
0.035274702517167
0.0231743206996633
0.12860729680966
0.0487680978193329
0.124521082830785
0.0287574849337844
0.0203527117786839
0.124332475578911
0.130600733696452
0.0204887885286203
0.0227699117355008
0.0222898442891867
0.0266905695720889
0.0263784932595301
0.00782323148550183
0.0520835385299199
0.0204348734110182
0.0191923415443351
0.00471786481724676
0.0196502989413134
0.0190193966293732
0.0191777537491731
0.0216799956155197
0.0480141912946511
0.0196061992216646
0.132657104852176
0.0272463292237497
