0.221649758130033
0.221999207657348
0.218730445413039
0.236501809307327
0.20092948604789
0.197799148873371
0.229974886242673
0.217203071881537
0.234478759883717
0.227675525759192
0.201945439397017
0.232269419611958
0.22100099211554
0.227437786320707
0.192123428355706
0.234188297810988
0.222665574862087
0.225996240782741
0.221766070586335
0.229959005353906
0.226785885677589
0.193233793665137
0.22973712691915
0.200366065803023
0.228414697224673
0.203766843319475
0.220921943388768
0.22375469237262
0.22799941706861
0.198697520807381
0.226124910333585
0.224667735119178
0.203030532819613
0.193628566275392
0.203251005346551
0.228626000017618
0.193207937326261
0.230555890939501
0.217319498031589
0.224244793681502
0.201141694755526
0.229270500551991
0.192653580306393
0.214589219548677
0.194715259110706
0.232542040627627
0.204784756815129
0.221168970135798
0.217514328348564
0.229609087859168
0.221619492826208
0.227937423092387
0.234919248597663
0.200359305073881
0.195958340948124
0.232709625923309
0.222990367293218
0.222224186397362
0.222360060001295
0.221888289571936
0.197470620540683
0.225935214346038
0.226587862326656
0.219670965019173
0.205953788667304
0.224238644390261
0.230266786607569
0.220765618845296
0.201751410859992
0.222240333860673
0.231510171787289
0.223125530892798
0.208623491092392
0.225978496259275
0.204996286185571
0.21547754712354
0.201015426737029
0.224849322764974
0.215932736835008
0.220606619040622
0.222465953382693
0.223839706047928
0.226395670947337
0.224558665506286
0.226021487448895
0.199858469271693
0.227381682632125
0.222192659739434
0.229902183381674
0.193687193185142
0.213762232819203
0.221002643044336
0.222183555968856
0.236121794277081
0.220948569897879
0.230341374828741
0.223322571438264
0.220151427658738
0.223477250614349
0.225777446402979
0.213402944404494
0.221991682761366
0.22595592370039
0.225294095101353
0.235862734658438
0.214287556783424
0.232153721900883
0.234870504870707
0.227665967149395
0.196448528618709
0.203509201212854
0.223653401760442
0.227048732277099
0.222070557313557
0.183703328682345
0.203158012983544
0.22690281651711
0.200285900245742
0.226237268956442
0.22472516923241
0.227594029811139
0.226930263658426
0.200419435520309
0.22105805136373
0.203801880209227
0.190782218741957
0.1999049871044
0.233071623924692
0.22153108015247
0.212676758151315
0.19673804064963
0.218525446911143
0.226483081213119
0.195628571341579
0.204374383385902
0.221637349192255
0.224322271864101
0.219182883890736
0.218680287701579
0.222502664742733
0.195634344846295
0.198887457331488
0.189962469268453
0.208074561105749
0.222020673943264
0.196538742087577
0.203391678920235
0.198439707892148
0.19521707317901
0.195932278345022
0.229419909070338
0.227436691466661
0.21398382713876
0.206871738770306
0.219876352328625
0.217874107188446
0.223193994580074
0.231181716296679
0.211942616040742
0.200445520477494
0.200631008731304
0.204184627764617
0.227594959258139
0.22559263205442
0.221355683187313
0.233026981458203
0.226336202566678
0.224604020475583
0.199565869837947
0.202898760759086
0.229425953191719
0.220351345296598
0.229656231190799
0.22558711680646
0.194211732496795
0.220397847453128
0.193393291045553
0.23134245716993
0.22556885779573
0.227014961005177
0.201598941772988
0.23005915566496
0.206167609016377
0.201724689140968
0.234771816674933
0.202665725449271
0.23295095593619
0.226252463774222
0.233760576456165
0.220758758353028
0.204253304525742
0.190777594252229
0.228289066747148
0.222458220934802
0.200008424126463
0.2273556712013
0.231804061464226
0.22094014627712
0.217247139164984
0.225990420089327
0.23598946747311
0.197662999408663
0.22340298927504
0.194912447285239
0.198603966602052
0.221631908570784
0.229319507820509
0.223346694199033
0.228924419403658
0.224683910206168
0.193873115033253
0.202585672269721
0.207513108435582
0.195053814210605
0.221603387613688
0.224914882975596
0.235823065309828
0.194145314648749
0.21917009974337
0.217571248979327
0.229177331762292
0.221803484251749
0.222748814841697
0.19687783190314
0.200290900931804
0.224845144314451
0.192802994311637
0.228537553831061
0.226536107417091
0.214047676684453
0.23013384429269
0.225629312164131
0.223979626313918
0.226125494504048
0.23166068890473
0.222655017334787
0.222718036029597
0.218905740508996
0.224841490295692
0.228044520361867
0.220432010426641
0.194977101136511
0.230020220883968
0.230443578993864
0.206291111903118
0.19633561378487
0.226594111671763
0.20063294685322
0.216483290071904
0.197079595485861
0.152995014818819
0.142766517749619
0.141077060488006
0.159702637623341
0.148436959916686
0.147887895073981
0.144104973125676
0.147678149436906
0.151355016356854
0.154177463061674
0.153135225051094
0.144291505131624
0.144994309011125
0.151235083254339
0.142500814444441
0.152730312746118
0.143406920108892
0.142292442144979
0.154256234799666
0.156881524760818
0.149177630022435
0.148159923772472
0.154550052961857
0.154112283530587
0.151088006410704
0.145688296744996
0.15166439283154
0.146824654449712
0.144522221811365
0.150667796685325
0.148878440526622
0.153955961861762
0.152705289087745
0.152250702918672
0.157778230853084
0.149730226421638
0.141563547196675
0.152320847637607
0.156312979305822
0.152006446582339
0.164027468251604
0.139759831889882
0.142000019149399
0.139379273462835
0.1583974061607
0.151397458429634
0.150964854257767
0.144183250901812
0.148185886397136
0.15150012247222
0.14384446395799
0.142937958751832
0.145261358703656
0.146631000154387
0.149388287072462
0.147743182964456
0.154631602514496
0.15105759093285
0.151951903182898
0.144393516614073
0.153361207008976
0.151813367169058
0.148242167092822
0.155321201943873
0.145176125046065
0.146843369724394
0.153636371293611
0.153853768097718
0.155072835250077
0.155233043523611
0.156782078444726
0.152734613728515
0.148289274399027
0.151230874761379
0.142935407892756
0.148583025357226
0.153475969837539
0.159198798642957
0.146159052184061
0.154421457726486
0.151920173556597
0.147074811223374
0.137143814382056
0.144180401805653
0.154950601501776
0.143844847502008
0.150187601406663
0.149411758587936
0.149349923860576
0.154410273639077
0.151996451785777
0.14807849754988
0.146493745855917
0.150715849964458
0.146119330097349
0.147979670071403
0.155549343537888
0.149221239841276
0.149393115141123
0.154130268640651
0.148938136064794
0.150906703535103
0.144313731094754
0.152982711635203
0.153638810353598
0.157186924736894
0.145399853297884
0.158952950643483
0.14640737172357
0.149291736047759
0.145435460336138
0.167576926550629
0.152400547330815
0.153294167898874
0.148609394520029
0.144618382311829
0.154271399866595
0.158597919910838
0.153158635028219
0.150507903079073
0.144024789783225
0.150401986255707
0.149781766410039
0.150850629776518
0.149051868829431
0.145529701979771
0.147696647285769
0.14585351423306
0.14827422003089
0.150793029955667
0.151786751471779
0.150287818821433
0.145651774763775
0.148583386939213
0.149709649695714
0.146388262667447
0.1543920368175
0.140333599164188
0.152303330499124
0.142573399129973
0.144793334027087
0.149735501030809
0.141454351028795
0.151952115357907
0.151779532351854
0.145532644035596
0.148914452840568
0.149680166633772
0.154652331251304
0.153008544900787
0.14914955325784
0.139393593221306
0.149518729041871
0.141010314652119
0.159832085413033
0.144003783021384
0.154715979197948
0.144749368348938
0.161936933184013
0.149826835144347
0.143864530846443
0.148517855839227
0.152455238107107
0.147372343891553
0.147562141977231
0.150432966928711
0.145913189560246
0.14952391808751
0.159838017773186
0.147443091440061
0.153836034557133
0.151391077154442
0.145693957172373
0.152073228645532
0.146357509148367
0.150140993755177
0.151888322388462
0.151160252240005
0.152204708486781
0.161788686658702
0.147705129680961
0.147678570796185
0.152999087777263
0.14563180866712
0.140471160972795
0.148648245557827
0.153919197593099
0.141478124171067
0.151785049048448
0.153969251844409
0.152841946478487
0.144453751977924
0.145131993390904
0.152840617370535
0.155447649953509
0.152210813899013
0.160625197388547
0.142461684647351
0.144544733159422
0.146418759746827
0.143416819383538
0.150176847987254
0.149526943837849
0.15222569192808
0.151972020330282
0.144234814174836
0.154410075106608
0.146288395608857
0.150859182990719
0.150713274205533
0.153508131291399
0.151692732975715
0.151083643523584
0.160025714214319
0.151751936059052
0.147637314109877
0.148021465410059
0.152286222024879
0.151010445566029
0.144751489268373
0.157919209700278
0.151301633145638
0.145734342275786
0.146688366450542
0.148733525540434
0.148872207345529
0.147988872362859
0.150703203483323
0.15202715828662
0.152095844497633
0.15018361271765
0.147682091155393
0.156682714926497
0.14834133412889
0.143977812525937
0.146600961783
0.145599130936637
0.150194560005121
0.15311323508752
0.144366475908425
0.144588324110463
0.148653514223899
0.143195906122018
0.14498459041899
0.156226797848922
0.136331039748679
0.156206403794097
0.148176416558251
0.15060505273146
0.150687664021134
0.075962707706945
-9.15312942197461e-05
0.0224213314474108
0.0765124967311248
-0.0108444815432534
0.015752545837522
0.0815220603887211
-0.00601480596716759
-0.00481949462575305
0.0071559609467636
-0.00787327685268528
-0.000452769253957485
0.0746984408841217
-0.00178315197112919
0.0166616575376055
-0.00532032046165062
0.000813285077847982
0.0681901584933028
0.069111952321532
0.0677965989217484
0.0246347055349867
0.083886918244445
0.00327323617788804
0.00712658778652956
-8.67411247976208e-05
0.00537332022907705
-0.00883336742895561
0.0259998046978816
-0.00238374496332263
0.0267946991456069
0.0825092932490031
-0.00657711315264166
0.021475278471006
0.00730792915534583
0.0184990344011795
0.0221349005295225
0.0767044821209046
0.0303273358283445
0.0722990118469917
0.00930014237584702
0.0238696972752538
0.0822839829933701
0.00491616083383809
0.0844343466394048
0.0741642013799788
0.0284423418119153
0.0787567896708863
0.0700302235831159
0.0272035253823355
-0.000182348446567533
0.0769306041913951
0.00401042857066969
0.00882743704069225
0.00440219301523199
0.00994185537151442
0.00246043912187581
0.0746626462484428
0.00152803302332955
0.0780204235980334
0.0232981029975837
0.0814291005913086
0.0849781579288918
-0.00639070017637278
0.0859713052561275
0.0670976108823183
0.0232108039301348
0.00607283128629608
0.0275774821658545
0.0840924420361008
0.00255441542258523
-0.000700036153527789
0.072643950050724
0.0241495658579511
0.0663975866010492
0.0752582682147842
0.00202402070352676
0.0251961109366766
0.00082840653288139
0.0672584918263762
-0.00461984069496883
0.0713524199638325
-0.00910001771615762
0.0813143201324472
0.0264753384280274
0.0227076769841197
0.0705299630796667
0.0269286026902727
0.0168752743180933
0.0834119178310573
0.0752902434049029
0.0231283967558417
0.0290925060046462
0.00258977838303907
-0.00218632618030587
0.0194231591171869
-0.00361225853949946
0.018704471086861
0.0772970320879505
0.0234456841588333
0.0189960376835918
0.078336502163337
0.0756496808625619
0.00170852159457551
0.000522391347707672
0.0027598095118742
0.0276499811367352
-0.00189144519940691
0.0746302629731498
0.0257416211001707
0.0288898709821108
-0.00647548277122191
0.0221208968156879
0.000601535131720228
-0.00195005982658671
0.0297815486390209
0.0735584195390841
-0.000940799107364991
0.0754267887256387
0.026919753304732
0.0271454543307441
-0.00256850390997036
-0.00178572507745641
0.0749395702013025
-0.00290006412395796
0.00337268317377388
-0.00531954371967254
0.0269018075153913
0.000618493238714272
0.0246395605969659
0.0747180452376374
0.0034996159713622
0.000632313371747591
0.0678259111785356
-0.00160580625375214
0.0760868482337071
0.00338699057979188
0.0739526294361729
0.0230751231264855
0.0341031719015238
-0.00770183414769932
0.0716524952081531
0.0233519167870786
0.0245981882146444
-0.000692803488105025
0.0294349930848515
0.0716847586461887
0.0011001439784158
0.00359303246762865
0.00441780329635986
0.0190794696847489
-0.00488965932327949
-0.00425747874311951
-0.000909862946519953
0.0769003618610971
0.0212630895250752
0.0315271609471496
0.0835296190698502
-0.0051705493760349
-0.00438377718426319
0.0685953861072223
0.00960551846386866
0.0208048459073751
0.0785525215541681
0.02819785076927
0.0316493707398399
0.0771062870521174
0.0783467812921913
0.0275576344848335
0.0251167380519691
0.07504708693792
-0.00111483433087958
-0.013627120479218
0.0761180558984339
0.0224256884546486
0.0682659519893702
0.0717053253244827
0.0295431427433754
9.86028937125425e-05
0.0684922495314172
0.0747925788891364
-0.00415534307027947
0.0759254313954836
0.0715934753250285
-0.00473996990231817
0.00684072286435049
0.0309527000638653
0.0252413093696793
0.0185836948947191
0.00186360339670255
0.00487722131447736
0.0312896242645608
-0.0103557316013503
0.0717690247698317
-0.00471253348527774
0.0756502829557909
-0.00531937961598794
0.0724753844118768
0.0732875605406386
0.0281986650623142
0.0253336998696435
-0.00479515533499723
0.025605539175838
0.078442825214217
0.0222069329306723
0.0829808922660364
-0.00549001083541819
0.00379697706718856
0.0242926504417963
0.0750793475655065
0.0761425722205659
0.0197450683018461
0.00291611714113488
0.0290970535253684
0.0679032518899584
0.0824135657859826
-0.00567625113491826
0.0247675969798116
0.000539462530396043
0.0235957722015629
0.07214209634815
0.025333380450404
0.0282703958257325
0.0768210109029669
-0.00312220137642282
0.0767278042426792
0.0702560137978087
0.0166321667701236
0.0748309377808298
0.0239976931965955
0.0694640723882207
-0.00840883241885136
0.0114025985429999
0.0695697581595165
0.00525711855885106
0.0813816324527213
0.0783724567088827
0.0277882276350631
0.0246220601418914
0.0686668653569219
0.00182603048159147
0.0337321550213325
0.00702187731335698
0.00990795874327155
0.0236476053664512
0.0259772289196874
0.00011111141605131
-0.00503802411105203
0.00168891641113176
0.0773101837353008
0.0706491381789086
0.00135620997570185
0.0767135699442757
0.0749547465186231
0.0266031057438555
0.0755021456251764
0.0253898095060195
0.0751891448842628
-0.00769841781471742
0.0251064648122365
0.0781004399701462
0.00334926923204109
0.0806957042345687
0.0279937633346334
0.0704272855471887
0.01876950606846
0.0190706939214461
0.00322554588061267
0.0265542720819359
0.0773036671905575
0.00151687700100023
-0.00401327412813782
0.0687818882031418
0.0799748456281032
0.0653829138780764
-0.0106499727885929
0.0797367671189881
0.0629505026124936
-0.00648111267635139
0.0722010313054911
0.00290606120748953
0.00875943234924531
0.00087861126513258
0.0306432624367817
0.0205518266217871
-0.00429924204217032
0.0230347468507306
0.00144662570151604
0.00163273009180828
0.079269438362596
0.0656734060233591
0.027168218352897
0.0231568129948007
0.00380498915306335
-0.000709739648372488
0.0042308970763787
-0.000684759967040037
0.0183203165621509
0.0156977486990971
-0.00370281678378844
0.00114861739664431
0.0669700211123866
0.0832139217242082
0.000101438675187166
0.0372440974197034
0.0705476780795251
0.0747708252419419
-0.0091786763209818
0.0721357826018248
0.0212807545321746
0.0701338056651529
0.0323233585148603
-0.00299122010392362
0.0196275172369259
-0.00401659582728459
0.000960695778476449
0.0750774245463838
0.0821372211090427
0.0341051660408309
0.00144899944197615
0.0294030286898636
0.0167573267066609
0.00187365018857841
0.00509423450394359
0.0256382598584169
0.000130243318097343
0.0277175151990801
0.00655323007136779
0.000987947170244617
-0.00784381816448333
-0.00367554748101028
0.0766620784243616
0.0779160265430116
0.077682399268943
0.0256834006906858
0.0742603438004049
0.0725890993366287
0.0853706312664864
0.028377371854895
0.0214315980758666
0.024585043082772
0.0818046458404233
-0.00888887674350502
0.00839454930272793
0.0690336817385714
0.0776282475689941
0.0204958996414804
0.0698129228450883
0.00233463992077301
0.0104112150952557
0.0285819526495259
0.0770818102993728
0.0286236444136474
-0.00207467765954637
0.00155870461375628
-0.00535476797628297
0.0206494140640476
-0.0139866807902235
0.082465724984668
0.0777154810770263
0.00704338639562156
0.00170227029660816
0.0735537726186304
0.0226280053641134
0.00506848189979603
0.0349319892759826
-0.00162902467466721
0.0793555755630525
0.00301252809031444
-0.00289109505449533
0.00675484486218571
0.030561047304071
0.0825316530278504
-0.00559679538141567
0.0727609677042993
0.0288608091433697
0.0291889818161815
0.000818210896939013
0.00712933673816693
0.025498147705733
0.0750180178446929
0.00043298746726151
0.00530845059419906
0.0246280791310367
0.0737134483446848
0.0750243435423155
0.0276914235738073
0.00287762931510413
0.00349858255969792
0.00183166667590959
-0.0060493045505418
-0.00442043184092496
0.0735090930550705
0.0251665250019689
0.0658626172686743
0.0313640650675494
0.00503995089544416
0.00645787973715572
0.0275406601703017
0.0841552750409054
-0.00200402781034954
-0.0040785399597616
0.0746716830677153
-0.00353036238217407
-0.00222343455699198
0.000283624761314241
0.0346997774885466
0.00409802186305331
0.0227141357368332
-0.00961902818251859
0.0317971087322617
0.0744615202232984
0.0197796587354628
0.0786467321348193
-0.00485714334303779
0.00187064716865361
0.084263547823311
0.0692692068744551
0.0196776187784177
0.023012777464259
0.0287185029262318
0.0729617398683925
0.0283164420716199
0.0269999816642233
0.0751460345881013
0.0731857927573381
0.0274285624697531
0.0676507677377953
0.0755227283516744
0.0820660054744055
-0.00764671414312797
-0.00335248596350092
0.0755379018285718
0.0279024696964294
0.0204799455422266
0.00277592838125473
0.0797774208447457
0.0331942239325119
-0.000782538758210076
0.0278050246743725
0.082695655863095
0.0732534200298456
0.0311553817444266
0.0254883046221853
0.027428461400405
0.0199463114692449
-0.000441250643144053
0.005635280841475
0.00666256084294779
-0.00454540934602796
0.0229934314547802
0.0194671536160083
0.0309765383889227
0.0813924260010588
0.0758304868369941
0.0156462826250036
0.00458028402877302
0.00233629261615686
0.0714699135103699
0.0339954838532313
0.0718426039539363
0.0342337249820016
0.0747884567950648
-0.00178896417186027
0.0227519249908802
0.0710755404529943
-0.00380065107740085
0.0751088414568233
0.0690569759257337
0.026986912081052
0.0258048525254755
0.00466761352449384
0.0141112192853483
0.0238495196073234
0.0716592409511787
0.00476182743810894
0.0803639788737886
0.00548750010268621
0.0828561502951791
0.0696897380513395
-0.00421351424009118
0.00171883581985726
-0.0030376204317224
0.0727358717152215
0.0211491000521726
0.028199550563503
0.0680056413816897
0.00511353287056098
0.0366072399769949
0.0815356468719647
0.0256085388986059
0.0769995850001058
0.00122531647007839
-0.00177202365676693
0.00042023630833984
0.078834648599162
0.0247142488564999
0.0108392910367322
0.0687217258533393
0.00510236286227546
-0.00105248740099667
