0.221083575417633
0.176887068612711
0.179491940579724
0.166664868716514
0.180505626958927
0.229946204818487
0.180901830427015
0.219584243210486
0.22884454153647
0.22743765816044
0.174871241342956
0.170284489167327
0.170000288115789
0.229358373151365
0.172926788499591
0.1757526219757
0.176109504093751
0.217452794390249
0.228407151762133
0.170269114915963
0.221680408790712
0.230631165037725
0.17002817084889
0.221834042658752
0.178432683664942
0.227742373938276
0.175470738924825
0.22358933537546
0.228370761346695
0.223460328794255
0.176116009177572
0.230547580897667
0.18223048239894
0.220762966866119
0.173781641111876
0.175925478833975
0.21908282142536
0.233840683506412
0.227482772227213
0.222169436354524
0.181344846345331
0.229280467970851
0.218103632476816
0.224012689091259
0.171412627567425
0.170411471542168
0.177347472620446
0.236433189206895
0.175878504739752
0.226784988750154
0.225906393776312
0.230409806186755
0.181314387362261
0.230708430470786
0.177091260379672
0.178649218158457
0.175095756546768
0.171202882409158
0.176607730103753
0.22622492287553
0.180053244642307
0.222727060739904
0.218388282150381
0.168949746950855
0.218000864566532
0.227859589774647
0.17317106183685
0.21973762622568
0.223122415565869
0.227549335805565
0.18285365701315
0.171612468989312
0.172635385250093
0.21900161671162
0.176021951279843
0.173255208173235
0.226469756099428
0.220893464679037
0.225758261621286
0.178880112196861
0.225714965728152
0.227144036176944
0.172828414581641
0.230705926015186
0.168800252064156
0.234806715912328
0.16890587265162
0.162782611976441
0.174180485924569
0.175352077524129
0.226187231856848
0.172725461361755
0.227662801824318
0.225206944741434
0.222605908350428
0.223072750916505
0.169532144065145
0.177053936466617
0.170691566843373
0.228811283295574
0.223965412912002
0.179225305465325
0.171550183552974
0.172185793843144
0.171965123122402
0.172155988290028
0.232512506657949
0.18059870977459
0.180427267022888
0.232870609602731
0.177124704573844
0.225913847718506
0.222383523435081
0.224960507377021
0.223539640826179
0.221800709921479
0.178841129438996
0.173585487641237
0.217845078470778
0.223623575377754
0.168314750648919
0.169182293532146
0.170639390595106
0.226053873482307
0.169918611273025
0.169368993757922
0.218238683187105
0.179705987033634
0.219987749407305
0.239807983319726
0.228812594891724
0.22536999835889
0.22298432594509
0.223069113687594
0.167537933391845
0.220628407702663
0.174084976140365
0.170902732177155
0.169765912726886
0.229695345047054
0.18030813731959
0.178897757552756
0.215925497983872
0.175265557940526
0.224854424182746
0.242835993842816
0.170488814030153
0.17291498055727
0.177662997254553
0.177490125058694
0.181740005879366
0.176706781457794
0.233628389773647
0.226700308968041
0.225064299182281
0.213558763163131
0.227561950642622
0.227904441646661
0.229671794270124
0.17348470157706
0.171930923146407
0.174016768626905
0.176675348330044
0.212591549136066
0.221186258168885
0.221182627638385
0.183031867314656
0.177390953690713
0.170872847962779
0.227153028248054
0.180268515265623
0.217186151372858
0.226910129232238
0.187031085273858
0.173143622853343
0.226580778700157
0.221047998622361
0.230561111784589
0.187378962579973
0.21847147121776
0.215996261987144
0.175738065309669
0.227995544974697
0.234943413715139
0.182156010636748
0.221051425499998
0.177608818241136
0.176770573300009
0.2325420844818
0.178772930519533
0.224306517993606
0.214717542390579
0.22840559044922
0.230029106570747
0.176785650314589
0.168320256287549
0.172566985883774
0.224053342780413
0.214518500183103
0.175302438351592
0.181455191982825
0.18025834639092
0.175626382163423
0.229214740325459
0.215614402552808
0.219632836794179
0.166224367206078
0.218701182703645
0.172512447151927
0.22503526377212
0.230939168600822
0.231710149559689
0.219252370524537
0.22426083811185
0.224266105602152
0.185729924589377
0.174870189804476
0.169952025879749
0.228056291239951
0.163165659218478
0.179611649571745
0.166530033567094
0.225001995894121
0.176356068020147
0.231490027727663
0.17283869734305
0.175725066636035
0.176421785992565
0.21946786375487
0.222896822183471
0.163171545687249
0.178249768086817
0.221365495854336
0.184291455713052
0.220048497418321
0.228605509353137
0.22367238810288
0.171576451185243
0.227492754649648
0.175422415747259
0.229145270410791
0.229153205083344
0.182656061317061
0.2285462316334
0.227741727743369
0.171744536689983
0.177530471994166
0.178392756159072
0.167845127830342
0.229618164273203
0.277212982747396
0.269986325075255
0.273016162270339
0.150625479757379
0.20097127183644
0.26874010529102
0.149369031245261
0.196855640028818
0.147438903018374
0.276505519505196
0.271166951221134
0.206328161691727
0.145714609080216
0.190194492641216
0.146462914058695
0.272499616294138
0.153818674502914
0.274084859005217
0.154695573923331
0.27525085129596
0.195112612504357
0.198034952363149
0.270125681674237
0.278724658736971
0.278092380069062
0.185941333001497
0.269994249241713
0.278962202359921
0.276332076960605
0.200652102039472
0.140878507098131
0.277263960221214
0.207141289558806
0.200906905614833
0.149503017098596
0.271712579910029
0.196921285946047
0.19553169394716
0.27123015548109
0.279970676059435
0.265776096905258
0.206531884343358
0.271582619247725
0.277024464426748
0.283218292582655
0.284752251475788
0.276736517943658
0.276240807221277
0.269519953904862
0.194483470522233
0.205138971141955
0.150726758634987
0.2798163853396
0.151643754701492
0.195929424507795
0.206876185987205
0.152553419346821
0.204385463293763
0.153712879191398
0.275535603871136
0.276288388307993
0.203391227004345
0.197256427424348
0.143544147210282
0.281980283245015
0.277062524320979
0.144269024892737
0.15431945409713
0.279262461823958
0.143747714262784
0.276842693069443
0.274393011692767
0.14576481318853
0.279882210791972
0.279414204588266
0.273102572271407
0.151095542540249
0.208797317096949
0.278033331457074
0.283120591264856
0.156978726360834
0.280220919082061
0.156491142223713
0.195870134815748
0.276538354224853
0.151617226299186
0.152537061378593
0.273205664292154
0.2006145116126
0.203142783219968
0.192674449116643
0.151668228177142
0.263488803391376
0.200479784364671
0.270470890892358
0.265084123796497
0.159850639255245
0.144568078139945
0.147233146367137
0.277646770041197
0.199691675544476
0.153242065067593
0.148790411678144
0.270374782352817
0.264319961443059
0.266985659792889
0.206210160397261
0.267326421401797
0.199701570911158
0.193879026328163
0.152017697345495
0.152560247340594
0.278837080774114
0.277048799842164
0.275116124655538
0.278318334689663
0.278775334898198
0.153342820151459
0.153121802033504
0.278866590506396
0.204574551419637
0.156223067165613
0.198161223104697
0.156980069844002
0.15948431991402
0.204697506023338
0.273768129931379
0.156008411773114
0.269142503095531
0.265648714754186
0.194262124036726
0.274028907480404
0.202962996189936
0.152294989583176
0.28014704664032
0.266854519451132
0.198021005653721
0.274900784135029
0.197791610215821
0.280015187052618
0.27005879170184
0.187780326398683
0.202270730022204
0.27615728869622
0.201102995265626
0.198478602045118
0.27423030605256
0.151986288485995
0.203129495631902
0.277063246917383
0.276983810556713
0.205862365454083
0.196652270483374
0.273107256646369
0.272812122812705
0.204512223592986
0.274913454359377
0.197753617703905
0.271358388689708
0.278855669971797
0.152847371447382
0.278166278885289
0.203883717612143
0.27647503955462
0.156905213444134
0.216137268569732
0.147504338059936
0.277837805593662
0.20165412405045
0.269272813037247
0.272620482101481
0.273425517362234
0.28180132192989
0.268695329754095
0.265071715905648
0.195943921563386
0.20358283655722
0.271156241931162
0.204891286541613
0.271139229288569
0.276175676206661
0.281804865035344
0.2706207350343
0.148480840464416
0.276534843993809
0.27098700434063
0.153440845982663
0.148822849992275
0.156958544771923
0.267699448051618
0.193163573904565
0.202879333623513
0.27569554361125
0.279077804257676
0.273083672866081
0.262178366295065
0.273557707376093
0.149164671806449
0.20091341510128
0.28165981465901
0.199627896367536
0.276016530812814
0.197381074635014
0.276717917623353
0.145959508990254
0.27048087097312
0.152278997446213
0.147865742977643
0.275097095053737
0.152399901717888
0.206394026259836
0.152171282240184
0.202720401975361
0.264829390447583
0.27037165945441
0.20887762119942
0.147315621038178
0.270642970066743
0.271281547873972
0.208706976977308
0.279580552531079
0.157822611293262
0.15014464396948
0.28303486489585
0.273575461917268
0.148893851600859
0.27127909410965
0.158593024082272
0.147618734135666
0.202235236568156
0.193465911698321
0.265667784268785
0.146539500457948
0.199922523922383
0.15254069263619
0.271647827842856
0.14984049709392
0.204449813090528
0.276366943029834
0.154417275247034
0.281395418519174
0.151273509546057
0.20325394025677
0.266834619151473
0.27278894180715
0.149635062118218
0.269143729950902
0.266072380363122
0.280421097335928
0.148003757299433
-0.000980965718039317
-0.00160997253478915
-0.000823225948499699
0.010238324237289
0.0037089821804058
-0.00115668374896273
0.00646872547813419
-0.00758206228982105
-0.000618025100602865
-0.00496766775363551
-0.00607998350803073
0.0183754016590125
0.0021274931309395
0.0027415711004676
-0.00105893696882328
0.0236811982751582
0.00178999621886249
-0.00292528950668745
0.00403152171511222
0.00239861219791898
-0.00414608701969058
0.0157835641129635
-0.00562882340181664
-0.00354904053193194
-0.00423566561471343
-0.00361780943396044
-0.00636990892303961
0.0330447753624277
-0.000773125520707145
-0.00546036679448839
-0.00685755291188644
-0.012469646428293
-0.00164473552690004
0.00567216627820559
0.000533646976588745
-0.011647113824624
-0.0110318914309629
-0.00311533796248844
-0.00764110945494441
0.00320200404276813
0.00322317546019924
-0.00155481242630859
-0.00680867767815739
-0.0054315398621488
0.00077383417832309
0.0218144585577168
0.00214058144251277
-0.0022728572823108
-0.002320624211974
-0.00181677131150194
0.0112304528514556
0.00785929318020584
0.00216223760281005
0.000424592276132794
0.0207138757448806
-0.0139088564890117
-0.00242818728111307
-0.00757070277166737
0.00222594999097307
0.00400978974580626
-0.00783483107872887
0.0138708931671668
0.00484929814516834
0.00845876716580458
0.00258587401353938
0.00220080687864838
-0.000477921896839742
0.00219824932356576
0.0115876237965414
0.0237939106875025
-0.00785456864003853
-0.00395622164472525
0.00372205015143743
-0.0123935601134406
-0.00145494718825746
0.0270263085224176
0.00552626471999368
0.00511508176622561
0.00192687963446135
-0.0039247357592439
-6.69849712917749e-06
0.00720153851291049
-0.00832329166614702
0.00174480139888969
0.00399938160037463
-0.00541373952922269
0.0193167238188344
0.0266700413062598
0.00597632593767131
0.00693880679408131
-0.00895548583332849
0.000433390960411319
0.00387925188814479
0.030447108988202
-0.00346799677779972
-0.00477649931563535
-0.00126846362895739
0.000711745883121654
-0.0044145539544943
-0.00465922187558631
-0.00524367241138943
-0.00532634503867763
0.0205889399996881
0.000947218586687053
-0.00150294847288563
1.21061369015815e-05
0.00405984638290502
-0.00327506895551332
-0.00715127233396776
-0.00536412660325322
0.00515374918793231
-0.000116101336663289
-0.00595322256989335
-0.00307895756660123
-0.00324334879510625
-0.000684116249619587
0.00385991499348096
-0.010658020029729
0.0217893728407843
0.0028929307113272
-0.00109713743010348
-3.19695740608998e-05
0.0133051853424418
0.00401516926136045
-0.00022630709165661
0.00131082915152739
0.000123181983522636
0.00424061738536139
-0.00434381087123835
-0.00852308345110213
0.000873318906149986
-0.00398216742953905
-0.0133902112012372
0.0265292298051445
-0.00274043069095728
0.000151020418015039
-0.00735581068823176
0.0037377511860291
0.0182004095641996
-0.0036275816014869
0.00611215614968947
0.000624888610048888
-0.00160286916825616
-0.00134180469790243
0.00600355995774227
0.00405045035086172
-0.000760934296056072
-0.00830972630804525
-0.00238118992026992
0.0030497743723751
0.000141392399137705
0.00714464042695199
-0.00320077824436426
0.00834276762441024
-0.0115537401805914
0.00241860146956441
0.00538864149949708
0.00289776380918533
0.00285903941321201
0.00276654509063191
-0.00108697564547545
-0.00935236280422139
-0.00224303798032028
0.00505941023016898
-0.000597006348004426
-8.42585831035868e-05
-0.00192652933086797
0.000526336519591239
0.00204934682910736
0.00244235382939757
0.0230676536213249
-0.00313351773478065
-0.00611321941783084
0.0108994666275919
0.00260924447870599
0.00655919393565704
0.000761111444963094
0.0357453745879449
0.000614948186866568
-0.00246055506557774
0.0195852845792174
-5.82025623431254e-05
-0.00493976182764492
0.00401381899756523
0.0103325865970028
-0.00206580450987357
-0.00139847434582472
0.0251171521594525
0.000621832505596268
0.0226833718695081
0.000849975709576748
0.00565075979716206
0.00137210046726348
0.000329456147946403
0.0125884072771536
0.0015500769307743
-0.00262628367088569
0.000425104353854846
-6.90604740295802e-05
0.00254044029376726
0.014978752310298
0.00482105966942555
6.31986764537114e-05
0.00549355326993379
-0.00174050472837347
-0.000300758173240193
-0.00423289203056809
0.00622058978364245
-0.00305699883312696
0.00123959155150732
0.00300107366589296
0.00301115500128745
0.00334380598327437
0.0293612955034879
-0.00287778364326183
-0.00255305413159893
0.000204863138535927
0.00122278928131915
0.00168535317754186
-0.0021359333724175
-0.00161250922348173
-0.00296956967946808
-0.00120611845171242
0.00461142439681083
0.00575149567171379
0.00431519534194167
0.00199097657590743
0.00699833369926012
0.00602908019175611
0.000375255729609038
0.000103319868317935
0.0094236488404469
0.000926762122101554
0.0264883102684192
0.00674620358272348
-0.000234807283544362
0.00373661842291156
-0.00830895482005167
-0.00385470065566565
-0.00567081292038844
-0.0009054297566722
0.00898664595299628
0.027846675816506
0.00656593342752398
0.00621429405341678
0.00641687374986043
-0.00842857916545008
0.00321966849279525
0.00582762263231457
-0.0046468315646311
0.00149713833218012
0.00287228758592643
-0.000726228815282502
0.00843911303352839
0.00648558692878758
0.00138011046047761
-0.00104222965417386
-0.00335524762358341
-0.0108189532991503
-0.00208227590190106
-0.0016336880161741
-0.00435085937589677
0.0215345043328224
-0.00511710367127771
-0.00258442116779391
-0.0010489552124167
0.00449057631015716
0.000287968682504854
-0.00711859932471013
0.0138433742460664
0.000127736773958612
-0.00221297239524452
-0.000422672099806282
0.003435868950894
-0.00571894855443916
0.00546033438078071
-0.00793388110308312
-0.00800743925371955
0.0239123886948087
-0.00749801705762629
-0.000975141086232078
0.0184394943509505
0.00741614254245666
0.0222045445229786
0.00538906341757601
0.00296494807403809
0.00609421625604156
0.0267075614813876
-0.00725265092297547
-0.000106869072657025
0.00671546850604916
-0.00187071562375274
0.0030904427718234
-0.00509081456187087
-0.00146904995884268
-0.0039626486079619
-0.00502120099299572
-0.00169035277962385
0.00169277589773461
0.00338734511740823
0.00203438666395757
0.00608560280132222
-0.00735708697211188
-3.58559937794989e-05
0.000834054684686682
0.00551144477369535
-0.00864305103151624
0.000920463133326386
-0.00880540487145847
0.00558412259567401
0.00454554244509034
0.000849614410147592
-0.00150352987268126
-0.0023752279281722
0.0313358238056079
0.00293612225257983
0.00397341388639681
-0.00565692834324349
-0.00598926973204244
-0.0113353729279101
0.0291156397792281
0.00173818639634242
-0.000543326413106052
-0.00879345627080956
0.00100622515777755
0.00553889094568279
-0.0001347941447689
-0.00234067137588057
0.0242160987515367
-0.0051020669472173
0.00390798070082577
0.000166757490447558
-0.0101840381658728
0.00679798385412674
0.00266069016418504
0.00479032340921161
-0.00359862472017677
0.000135153120878717
-3.19667785687508e-05
-1.86543713671417e-05
-0.00535013995377293
-0.00706923288554801
-0.0127604765512813
-0.0085957400238595
0.00170734589897557
0.0101656273529587
0.0107123726879732
0.00364774296648026
0.00937268131049477
-0.00374974512867714
-0.0035626951356916
0.00204858202382352
0.00552913739045643
-0.0110772831343273
-0.00792359855855441
-0.000134364168676063
0.0307349945809779
0.0014121593593841
-0.00596595109102213
-0.00231769238147288
-0.00230353212082211
0.00460665966529373
-0.00442767870424166
-0.00365068146963827
0.00239439233190378
-0.00161713756231072
-0.00602051973433918
0.00465573170589643
0.00081441598168475
0.00178317405258331
-0.00539582281562257
-0.00825092701018966
-0.0078538918241005
0.00888183550145598
-0.00254482227309295
0.00330038191782636
0.0100962322544046
0.00457722222927967
0.00128314103363911
-0.00473611356826448
-0.0157439922647453
-0.0085686258287977
-0.00633058190277362
0.0114079911124322
-0.00096752046328037
0.00308454241323538
3.06610941700527e-05
0.0212978416380838
0.00556784411408735
0.00378419415467506
0.00650139558405247
0.00241027598298341
0.00437563309627874
-1.20329769144689e-05
-0.00792558592039207
-0.00289790799911721
-0.000186320601488982
-0.00386223296866703
0.00388143789150448
-0.00079798800408239
-0.00978039144918008
-0.00123050182861243
7.10202887570052e-05
-0.0010059748748304
0.00400061162195322
0.0351155961500326
-0.00535455709795326
0.0291923886247493
-0.000109025334689452
-0.00229700502471601
0.0230838078064493
0.0109525870588162
-0.0002809553193848
-0.00215658886144028
0.0209378118992864
0.0111429656965955
-0.00585102292513774
0.0222412847724055
0.00010661081875965
0.0239124496218911
-0.00373106679464219
0.0316690194015486
0.00352230602304104
0.00788364279702643
0.00400821795451737
0.0105696611278152
0.0048442944304834
-0.00345226595851343
0.00146728393057017
0.00133902915096736
0.00520333254288063
0.000889975569768656
-0.00711660406878675
-0.00565037797231526
-3.1743959762531e-05
0.00065311369228324
0.0272381915679566
-0.00281726523717468
-0.000615310838665112
0.000468875140122756
0.00184103351453367
0.00540139207170318
0.00832517851455516
-0.00177793521591497
0.0174259790318701
0.013799831891624
0.00567784304704782
0.00412716264021399
0.00578577864361024
-0.00169405221206653
-0.00253144178568615
-0.00163019438459793
0.00519622959700152
0.0145796409983391
0.00554283287165254
0.00379999773924538
0.0321309968904681
-0.00579573931303305
-0.00201492579234271
0.00458378401316797
-0.0106395472223126
-0.00742964917437532
-0.000181558790091378
-0.00486322503317342
0.000791417885078239
-0.000378532686733605
-0.00509542482791064
0.0352767625147443
-0.00296457397593886
0.00645583542382471
-0.00323078996668804
0.00201004236947033
0.0224649488674353
-0.00220397981464952
-0.00931761503492896
-0.00384014907290096
-0.00429191821671502
0.00125817940402679
0.00126306154103271
-0.000160081215650917
0.00517955054263297
-0.00236095729861658
-0.00131079008224503
-0.00224791700682958
-0.00106658944429907
0.0250552540076925
-0.00349273832201062
-0.00166548389795295
-0.00332743218746968
0.0130551459651309
0.00469398373871107
0.00407808702054931
-0.00409792284858235
-0.00303962467718716
0.00744952966877108
-0.00633724498218443
0.00353567880798735
-0.00406369641070877
-0.00610936222270709
-0.0004535348290015
