0.196494065979569
0.159744184504574
0.197210394681344
0.197441204045338
0.197540932231673
0.196576646349071
0.157748443948353
0.174845637804653
0.199774163556428
0.204255923078109
0.200069423019109
0.147873074544424
0.141147604623615
0.202628621492612
0.202228835579945
0.170348993049918
0.206007386158998
0.197875346824727
0.156549946814363
0.168752029489412
0.211017871137538
0.198705681351879
0.194639731266043
0.145553866747145
0.19476864678965
0.204168771695034
0.156273715308086
0.170911678658817
0.172676142610419
0.200827439395285
0.202353685678511
0.197115497152301
0.20586964789893
0.202935062299475
0.206730391021652
0.195166542051756
0.198166003690163
0.171146264151467
0.205881995020551
0.178816504980943
0.20221426316732
0.199647866321019
0.20147200739074
0.146926853690057
0.154503674392287
0.169416011294613
0.194111131710476
0.193210781447803
0.179682130819883
0.174034826353403
0.200456211951102
0.174376776905727
0.194729017027075
0.20107417218541
0.207334161682602
0.20190014598451
0.171989544050321
0.147885009646731
0.20104066558551
0.189280105308079
0.193974862680327
0.204086327279689
0.170771611708589
0.146240826525842
0.197684535639147
0.155893735538174
0.155300746421202
0.175801740243825
0.179435552897126
0.174017881929819
0.154173144661442
0.176442474430749
0.199927470458214
0.172811928562975
0.197860365496724
0.19828539091036
0.201479827165566
0.177291428870601
0.158379595574063
0.171596952733441
0.175950735163261
0.193715581634797
0.210452426908587
0.171972070059489
0.172065112539379
0.201642532564241
0.199100251074083
0.136178782256813
0.174918875597115
0.198578035966914
0.200729682081805
0.199029712009179
0.205563444403478
0.178658839679644
0.124224064925335
0.164085000768402
0.179713737322412
0.197265256182734
0.199223409198976
0.170990056179632
0.190706345235366
0.198421462790732
0.201958582793461
0.197164443086184
0.193661887951892
0.200683455322886
0.197838118850409
0.202133049983971
0.178046109026568
0.177577073752217
0.151447548752955
0.181134972457795
0.194728857775702
0.177255647309395
0.174563588144162
0.20038979214738
0.150769967746588
0.196337034703747
0.191862450051005
0.198541240031983
0.142903062218727
0.160433810633523
0.205239315298377
0.180671900111125
0.182972688695314
0.196386441514133
0.206955986266148
0.192970182692026
0.148678014938844
0.203354060014114
0.149633240687921
0.178355525996623
0.150910486354028
0.169966232262996
0.19360266549307
0.206820122446786
0.170649591794711
0.148421665490601
0.145477145430566
0.205525756483234
0.20077625727993
0.196563962885992
0.208128984284614
0.143678261119686
0.193943617957595
0.142069980622918
0.204452117191903
0.202303325394483
0.19957612242088
0.177472348905876
0.197587807657772
0.124945381399725
0.203617965449945
0.174183676801812
0.200287658492061
0.202602773690142
0.120737387242432
0.210949390895002
0.196995804578407
0.204161017623468
0.196153455654571
0.174952025787715
0.15447787526402
0.197339886746565
0.194711764570102
0.126532485782478
0.195969730171024
0.14345236217913
0.198971471204714
0.176363499159204
0.152214749751975
0.15172905886567
0.205113320075772
0.156003166358775
0.183663823408731
0.172835464006408
0.115412870325974
0.146260755107234
0.205164776610712
0.152692942925001
0.195237466127594
0.202654689357992
0.15302967070099
0.172041437059407
0.156711617151145
0.203764673490512
0.145807346748244
0.197548172846925
0.204491464320975
0.20657994288075
0.19918636232336
0.174232429193572
0.199558193551591
0.201498322093062
0.14904941328614
0.146274978030706
0.148020840771328
0.195551278924379
0.198860009156225
0.146928178534726
0.174746247030716
0.15420822400726
0.183507153404073
0.151382711370602
0.153470021708595
0.201011192887181
0.200720228969008
0.194449181168835
0.200892156944354
0.202521991671186
0.194079501181558
0.154572420769988
0.191633556612271
0.205398912005962
0.180419662326953
0.152142363437156
0.178508187982151
0.203537706168342
0.155824462907057
0.180737190784356
0.213437816445315
0.199792902144783
0.200437456509535
0.174421992565991
0.171120691046203
0.200489600536964
0.202643033921448
0.203386929743539
0.199238739189549
0.175015630115854
0.199365962257889
0.152583821127091
0.130423806628261
0.159486235807528
0.177653515727057
0.202665273922168
0.206947326730046
0.195268717858798
0.154210155443682
0.2062862869101
0.20697717300124
0.181135501814236
0.150189346131777
0.194077539344065
0.126237694912014
0.155189217858062
0.172392074157684
0.200216029551401
0.197104905132273
0.20349889845382
0.200458552156788
0.207504770833573
0.226065401636851
0.19221071199233
0.202843885675967
0.222927466892908
0.200341905945847
0.203821385881675
0.198046738744065
0.202463386913281
0.226967225178353
0.200463756047282
0.194556278781952
0.228596038160664
0.22343416561308
0.221697321397186
0.224164894946412
0.226092363930485
0.196501626143288
0.193317963192643
0.20387672615269
0.200448355520492
0.20123162448612
0.194220037155813
0.222790677498928
0.227676758103502
0.225617030623954
0.225029858291618
0.203030245108651
0.215727334741589
0.199591634478168
0.224938613568968
0.206569040323905
0.202192095378197
0.192137282325157
0.2077292916491
0.201923524248723
0.224383819992489
0.202142598944764
0.228840572543786
0.229916446026968
0.227163738315943
0.213454824111702
0.228076716013798
0.221897338605244
0.195581008177761
0.204123829330674
0.229823564892419
0.200015655586316
0.223935781052219
0.219159658105028
0.201669049242753
0.199501610554517
0.229737867424729
0.198414394023893
0.216324684799918
0.22164936425425
0.227706865926438
0.233747287801156
0.228637030031299
0.222678762959922
0.193641601645163
0.20997050709028
0.235631851031269
0.22390761913109
0.225833043095879
0.202123784635808
0.197300721808095
0.195604805418777
0.225339750258214
0.198634526297119
0.223725109640397
0.200096906349068
0.227136348332084
0.23119367898684
0.204957158407169
0.2197673907603
0.203543854794603
0.23274529341455
0.217470531603675
0.209172504767689
0.227685393004845
0.204137338497858
0.220270987844938
0.202343494815108
0.193943018230224
0.223097493561159
0.205606820933177
0.200516656771703
0.198660745022179
0.223399332578094
0.22259131148856
0.200547080507958
0.192527119938505
0.223164911126663
0.227618818018599
0.221559741518978
0.217947088218519
0.202473506145527
0.234583952417305
0.195173727617532
0.206711280629375
0.192768991558551
0.205512678869402
0.218643339826289
0.204283275300318
0.226676656825226
0.220374322624995
0.220149418661992
0.223936047974595
0.230079308831238
0.220989933516979
0.226417693048408
0.217294314848575
0.223609768329271
0.229913331486803
0.228411461645673
0.202249459160796
0.229731161599469
0.197861524518474
0.230039258964215
0.202797311599498
0.20628863781775
0.202394537047318
0.229774655756679
0.203201858904972
0.222678864643019
0.1896519178552
0.225025743599627
0.204516217883191
0.215197787556138
0.231912984663018
0.224710234729586
0.220708335585385
0.225406893764795
0.202833200294868
0.216517980071732
0.203310120766778
0.216980686621642
0.204808921366687
0.201475371957148
0.19665403311337
0.227586009503267
0.196964503478752
0.219855189340145
0.229710177766229
0.206121879927701
0.222339755887156
0.205508185873248
0.200009214217744
0.226089659804683
0.227767987391832
0.22634824373643
0.220372618943126
0.224660677481999
0.229477547293681
0.19829415044269
0.220986829400526
0.229849102325714
0.222328224319175
0.193333737334411
0.1963424066694
0.198700074076135
0.230614521789207
0.193961212907425
0.200840743163916
0.231534187804312
0.227965578665984
0.224231748633286
0.22345189206829
0.20485420992546
0.227551744487641
0.196435092804536
0.198907090593581
0.200304560732634
0.225081994556278
0.222169977752445
0.214840197142452
0.217408362424691
0.207236342650359
0.203358438316781
0.206842628377748
0.211190302432279
0.218069168055906
0.223656096746207
0.19941221933779
0.227750377043649
0.225759804649063
0.196319080849337
0.229460765075269
0.227488590600432
0.20076192586364
0.194804232391919
0.226254756249714
0.195378759323218
0.196708289969249
0.22925609561723
0.205799365429278
0.223473233878044
0.22099080743828
0.197647877572235
0.205800004062374
0.219616496710234
0.225542447583903
0.201633367659304
0.225387357598909
0.229625954897926
0.195498088040851
0.22224387202642
0.226424281306433
0.20284749555398
0.204575158386779
0.222728794184739
0.224386629560432
0.221003526027615
0.193604949147574
0.20050343423647
0.223664806469703
0.194741791107871
0.228823073253262
0.19825260154795
0.207161534227992
0.196303057273489
0.202266984351026
0.224624956094028
0.224750003352973
0.220941002876283
0.200204108493149
0.19602565116084
0.194556299262562
0.216162451403754
0.200078254634263
0.197517244492681
0.206921149865144
0.206708894033955
0.231046360675278
0.229171228293138
0.221742616349271
0.206675147642267
0.203269078056786
0.225646495373873
0.233932171731882
0.227129076003163
0.221675375756304
0.229810358319772
0.20549193544676
0.203241188850686
0.228998100549192
0.201644550262379
0.225873684818453
0.0569350295805113
0.0232239745307366
0.0294675831741873
0.0484290996723786
0.023722642840484
0.0234011102574836
0.0254872736212995
0.0253356984280026
0.0486034282381188
0.0126103217667741
0.0472188454046998
0.0238278690200407
0.0255248851220256
0.0247217862856435
0.0235009245735096
0.0320497907624184
0.0545626908648431
0.0267159446392048
0.0251512434431008
0.0194892069585878
0.0494716984771012
0.0233901391942689
0.0498731514903561
0.0730047993059625
0.0292740205905502
0.0306238098408046
0.0201546203876879
0.0526387625944163
0.0493546678238582
0.0313505924429975
0.022006743162437
0.0544763424838843
0.0261561452059114
0.017460343414834
0.0435222470460748
0.0274009147835685
0.0319065488973477
0.0510120701094425
0.0158694381422809
0.0455862057035611
0.0348314422724305
0.0786002522114448
0.0245960301530319
0.050955455702068
0.0476507696729495
0.0267603715915396
0.0465426973321467
-0.00763429013433885
0.0216540060921805
0.0479546429976191
0.0226290830338557
0.0135274232876708
0.0527447095033238
0.0289764361761593
0.0524889976054188
0.044126987568312
0.0209892224065781
0.0243374432553578
0.0547974414675232
0.0499183593918774
0.0543572793042569
0.0172453705938605
0.0298614137603488
0.05286883271894
0.0137997823890475
0.0513740231741146
0.0308030277330783
0.0331670029217327
0.0227972226152807
0.045429413697347
0.0550511049504197
0.028916647895397
0.0479474688843312
0.0274566811240795
0.0487317563630735
0.0228944224122868
0.0254172373059903
0.0299756160597583
0.0226880267156922
0.0251797859020278
-0.00439904836619657
0.0488367698900401
0.0240538177073486
0.0264649870112275
0.0482152308185949
0.0499172958052286
0.0220410189221381
0.0208022540985149
0.0151473148799283
0.0405256663252076
0.0605909407529544
0.0501107303989316
0.0268184436431371
0.0450360064493938
0.0542807389731351
0.0204879922882343
0.0204563429510527
0.0502550378094527
0.0510386518304127
0.0551847564516541
0.0181132964500017
0.0604392893120463
0.0266228402805173
0.0260505177332801
0.0301474520694787
0.0258110749618584
0.0271869348679892
0.0537689549914409
0.0281098606111408
0.0294205060373728
0.0652417357746268
0.0310636515279701
0.0203267021381881
0.0309829667497383
0.0222494807986786
0.0588025399626665
0.0236548606625214
-0.00465651428625227
0.0542740331604044
0.0463986718491468
0.0177001694720883
0.0492430272828242
0.0227534785521173
0.0442886928245216
0.0287182844539129
0.0302124566458512
0.040453858960946
0.053042081888062
0.0421765496480565
0.0209245449432915
0.0464062253135724
0.0519046367857415
0.019106577495474
0.0288682353688847
0.0159488589436738
0.0416739918209688
0.0571344216396559
0.0262159150319626
0.0551665861215081
0.0205824692462566
0.0224886877371245
0.0231285158542844
0.028543164506457
0.0302922906910564
0.059987290488457
0.0552762135106577
0.0510726645719248
0.0196745912627042
0.0519701954419012
0.103264748690527
0.0172918484066843
0.0344639921737717
0.0256375798022753
0.0541003600770124
0.0239636923756875
0.0232070423575093
0.0274399718332899
0.0218498203947916
0.0427005498431273
0.0538784542427826
0.0544856339577229
0.0578257976184205
0.0459518862701191
0.0479431247441746
0.0215281288837653
0.024486870924186
0.0186238704537913
0.0549734849757914
0.0534673814948963
0.0312668803619534
0.0299101654663058
0.0603062140397155
0.0291077539215217
0.0441015289578901
0.0235569676257316
0.0291978558519001
0.0492481257358785
0.0367162394922622
0.0292511259412434
0.0220697893451913
0.0532295855876465
0.0493752668502157
0.0458594828122772
0.0183319005106977
0.0187980133486449
0.0491937562791842
0.0351824655519782
0.0499804819573794
0.0240400482077895
0.0455831898038065
0.0300197281759346
0.0561493772775268
0.0319324788786462
0.0285737908795869
0.0558381809748114
0.0210850798504374
0.0207220028176582
0.0220888698122137
0.0478214910290545
0.025210049401638
0.0491131406790918
0.0304207263964723
0.0306675489791452
0.0245034036025006
0.0510564450027785
0.0172285141388797
0.0171971942212261
0.0443337520725659
0.0562329005103083
0.0172856747291403
0.0214078456009975
0.0502334616240502
0.0554349094877034
0.0186564379190157
0.0207842609791538
0.0475589861723542
0.0276942605775924
0.0563248975130426
0.0323228772933141
0.0245654009829179
0.0550230042061348
0.0544229563238712
0.0411018482259648
0.0425610783154033
0.0487233551669165
0.0224587614295731
0.0266840369554422
0.0477372389560266
0.043397693207886
0.0222641803131261
0.0525103832674399
0.0546318658377667
0.0199978501074583
0.042644492426576
0.0477148719423718
0.0481646347905153
0.0154812256304637
0.0462007385397892
0.0251651057360026
0.0181597189200889
0.0479130382996386
0.0489088507522409
0.0226830902127805
0.0177705938560659
0.0230936903655911
0.036888795167328
0.025194910975126
0.0422673954261301
0.0499675288759576
0.0332427415689534
0.0217762417276109
0.0565280427606986
0.0280381221105224
0.0489131370496328
0.0267188754831752
0.0287008823761083
0.0321064410687731
0.0192784825146272
0.0204193490539528
0.020644196083403
0.0533905526438422
0.0279175604587212
0.046352612457917
0.0324354308978967
0.0294597936764497
0.0512483470641683
0.0231503400225438
0.0254334749487404
0.0298630313880509
0.047635019098237
0.0543552001403431
0.0558722108103702
0.0150766947150279
0.0452409174766943
0.0286951166285283
0.0448700176408313
0.0246994729645667
0.0325931857748604
0.0258970051696605
0.051092314737115
0.0285754128762304
0.0251523870987958
0.0224231057489981
0.0283754201700336
0.0126318617938254
0.0488455596682234
0.0248634521232825
0.0488362251432846
0.0276981948044125
0.0526011822241168
0.0606975986225141
0.0466735694866621
0.046636806720144
0.0510099351967242
0.0300075746375348
0.0195826337664105
0.0286882565743026
0.0222454231129773
0.0291366257033855
0.0507620523737409
0.0282098134134929
0.0307080377673183
0.0254221653041751
0.0497959630289061
0.048421700452502
0.0227247037598217
0.0220326769876661
0.0266640117136586
0.0473585094589989
0.0456035202344818
0.0523342178055723
0.0506577681810006
0.0276679503128821
0.0495514833380964
0.0284817060177131
0.026154578401824
0.0282154018478081
0.0190502330568965
0.0458287346184557
0.0201115001057606
0.0327479919825926
0.0390323493632163
0.0251552877307337
0.0053632648128641
0.017533348364824
0.0259608913363299
0.0237742462783806
0.0219593607935793
0.0241599207186791
0.0516638624613959
0.0624943338882245
0.0247187849163398
0.0223751666256519
0.047171422027573
0.0535761014403871
0.0545455075545484
0.032097341713101
0.0442424418976062
0.0513317927704479
0.0452406857610205
0.0563999625489762
0.0496542421645353
0.0346173109113193
0.0460971552222695
0.0214405299970554
0.0161584797451068
0.0113873222572914
0.0564784222767376
0.0253551704808909
0.0519926375684436
0.0475111960614484
0.013929343298851
0.054344168239035
0.0209011949785479
0.0244422180883185
0.055808870567596
0.0215951089467169
-0.00230182067318574
0.0250263933700166
0.0516654521230657
0.0263336206558899
0.0290130867181368
0.0488362835827598
0.0284388994925099
0.0515812772480975
0.0548165885560726
0.0462698644399244
0.0470095574372393
0.0128719638295929
0.0418446480478677
0.0261727606940015
0.0205294640599604
0.0488439719120955
0.0520993854198942
0.0558244024093462
0.0519440354013673
0.0300033371349526
0.026292593072252
0.0264462586788563
0.0319575144807642
0.0419481011107384
0.0331431106383392
0.0246874016006977
0.0476061959746242
0.0287692010133406
0.0303098081610899
0.0222211907728667
0.0240777878064597
0.0531027708578379
0.0219269103347552
0.0255252192207974
0.0222516368428204
0.0255323871364496
0.0346970387864848
0.0223962289919902
0.0443421311232392
0.0277514671098848
0.0489813238684512
0.036336114011195
0.0301925802173881
0.0502837403144221
0.0176823089105672
0.0558821135507885
0.00122761865237459
0.031734945968056
0.0256502643887225
0.0716552077981026
0.0570240554701156
0.0338535476301905
0.0491784253311411
0.0218265383978906
0.0276447002174489
0.0256356780717767
0.0456767827656291
0.0456945164165243
0.014261600304897
0.0520024688155988
0.0265391449019916
0.0320747726692934
0.0259398807019592
0.0218901539358507
0.0449869013108467
0.0230899171156694
0.0483967877742811
0.0235506676594676
0.0226620160523445
0.0238038968477337
0.0224271122260181
0.0214049098528234
0.0470341343578708
0.0286962296702564
0.0258769518193782
0.0500676603061196
0.0266442891781736
-4.2965981520778e-05
0.0562382787273716
0.0251631119809248
0.0237367133579144
0.0560611947204396
0.0447256628423467
0.0511459287649247
0.0251120531405951
0.0410315964841569
0.0299920996218564
0.0254748106883921
0.0223517232793156
0.0511021721541465
0.00210668771956153
0.0257596930965466
0.0565298629258265
0.0508511890901154
0.0266986981859452
0.0287213728210181
0.0191282264762078
0.0320099568162123
0.029614354743419
0.030924077064418
0.0494075519829347
0.0534974602232175
0.0584057216177181
0.0210256923563204
0.0545481295665139
0.0249293295648175
0.0273746541365298
0.108277357076251
0.0295052795355485
0.0465562901832033
0.0510416429003412
0.0590817399385372
0.0320523489765854
0.0191185731991393
0.0343995874588729
0.0527313055679968
0.0461314054634546
0.0518973711966004
0.0518143786809954
0.0503146645224409
0.0292332532370001
0.0503098423011398
0.0502686975287951
0.0407215637320449
0.026421763462489
0.0570721559652258
0.0500473620603272
0.0224654150454052
0.047576024329424
0.0550518582719053
0.0227996665999257
0.0173808274646748
0.0452179161281724
0.0310660198782113
0.0279468147993991
0.0442075721808602
0.0509544778186731
0.0230381073028324
0.0280934217296208
0.0235396629250526
0.0452785318311734
0.0498900650158262
0.0282243679717725
