0.125490722946871
0.147705869122276
0.14663154607389
0.156791440437514
0.156202933714411
0.144855023846475
0.145306476657828
0.14265091627367
0.0650574005008384
0.142780937450087
0.138818414321451
0.148376065857891
0.127251208045569
0.0790667966083676
0.146934135824725
0.120349952876464
0.151466714020195
0.118211026943696
0.0777020546150872
0.0669245623525185
0.146348536604055
0.151503293285612
0.141999371283817
0.153111933220282
0.149100357869885
0.069465038241935
0.0785442937375028
0.071650222426229
0.159069364333058
0.143197529731577
0.129015718475329
0.154122002067775
0.147904858350929
0.16088224236079
0.0682429786046077
0.149690289872297
0.154621928014992
0.0739229141687344
0.148059783943692
0.153489933082706
0.121916741421271
0.146397773756482
0.0529886819942148
0.0654210618138898
0.148979265649651
0.151544752977866
0.151032572429528
0.147490457633654
0.0719977349159811
0.168053797946529
0.0661164397726337
0.130201173499486
0.0720270931363827
0.146801428412607
0.142905009770814
0.14766986080207
0.0703678531462083
0.077828079615103
0.0731915178247937
0.155237631119486
0.0705662357279011
0.161520532755862
0.046318588729552
0.156078173995254
0.149487084795511
0.142227220233647
0.148165518852264
0.152352369015192
0.151071380228234
0.145090693786942
0.0782571990182565
0.0695900889527233
0.079470384467924
0.144915233531256
0.0688636550947072
0.0775359648958663
0.150224594557479
0.158185138728099
0.143541564291658
0.0499335186777595
0.150108454974186
0.15100652846186
0.149261868403889
0.128195061531072
0.155142921690122
0.132672208291193
0.084874630441894
0.147989883514684
0.0700372019001012
0.149731500006305
0.149161956294341
0.0751616567592346
0.123322047375323
0.157579226513128
0.074502874144637
0.0659967387180574
0.0493805321444043
0.150610966693871
0.151855518507602
0.0720065279995896
0.072301854252484
0.122435722150722
0.150574965588105
0.143931464560868
0.144143865889622
0.063472525943944
0.142391086066436
0.0822516747466427
0.154142996861657
0.147638236072386
0.144621664660725
0.156095972262596
0.0792547665435575
0.156224522229285
0.137717487074351
0.150642925465047
0.140714909558116
0.0833957866843561
0.0710765667105598
0.142429201943107
0.147646013281184
0.0736136410765348
0.132214443587668
0.0528209018137564
0.0664316517418916
0.0765776851655818
0.1508161265863
0.0738858910161625
0.145715446046514
0.0704731216233041
0.141736681891344
0.0776309045498753
0.070379727142541
0.144762665324345
0.150284705685749
0.074679165416567
0.147917316226014
0.0731949596137002
0.0404224961873232
0.0773066336326139
0.0708596787330893
0.0816224968828901
0.139505177263583
0.0810074528004976
0.147500651377425
0.151509995508414
0.0764898204744257
0.0690417463310728
0.0752169245236241
0.147365142956685
0.0583280313414288
0.0582617360782529
0.150846960541688
0.148404206359408
0.0753995408367815
0.153230149418186
0.155275355924756
0.147806230119593
0.151575481989219
0.144209224162366
0.145677554719245
0.0747369179530283
0.0525481198830857
0.142590163499197
0.144365246423612
0.153006839265651
0.148858965824018
0.0765126488648226
0.145037328994584
0.126450510311335
0.160686321934418
0.157403936364128
0.0751133450167853
0.0470480949353458
0.0488540559837378
0.0687740657409495
0.155609359501865
0.0754913316796137
0.0741695778699121
0.145290025676572
0.158859366530326
0.0817833424126995
0.130977321072285
0.13015416530762
0.076788638409774
0.156093395015318
0.15393659047744
0.152988653182061
0.0691623886497504
0.157676411314944
0.145339743431586
0.148384485218753
0.152796713658287
0.0778344849873681
0.076698097772867
0.073874704975411
0.143352158172299
0.151393292505136
0.0746882871316998
0.155564848500846
0.120612483790732
0.146587327403018
0.062733356067969
0.132022716005269
0.0704006609490056
0.0764866276770552
0.0700541163659614
0.129245026820164
0.151656889270661
0.142581306316501
0.153178611039705
0.119385551677432
0.14358149786341
0.0753191967278487
0.0803056507279156
0.0757306395775714
0.152424977090789
0.145615601712977
0.076387976040807
0.0701999735758064
0.147309113979411
0.15045667943769
0.155748916243954
0.0469619269997655
0.0730400753634403
0.145233061960222
0.135685241942516
0.0737826420135881
0.125818854074269
0.0535746572033779
0.144674838138369
0.155349823462665
0.0692582435326888
0.0726334583813752
0.0841261993067009
0.152957304135769
0.0758013037594214
0.0769702514935696
0.152170043829427
0.143363459517138
0.0772652257217663
0.147248830924851
0.155058579892455
0.15654546619448
0.149220744232464
0.0740312431065945
0.0755542502185729
0.144735712997692
0.144783558497451
0.151336881078368
0.184014516042253
0.204953965674502
0.198105623174082
0.164682840973127
0.180425094324612
0.19758424550652
0.204105113443659
0.198085549624101
0.173177638681189
0.203687639094884
0.198240865354163
0.194983150083959
0.196966148585653
0.177664622235718
0.20375933596672
0.174298480790878
0.200995522726182
0.198782193466672
0.172082257931461
0.168845875974154
0.155119591298527
0.179386689664661
0.194916584401618
0.167225356287859
0.179315525564717
0.174296367390286
0.203534634950584
0.175671539700669
0.175539864008029
0.208557154066127
0.179259183022617
0.20250230172483
0.199940500422492
0.177072465739483
0.169661407314617
0.208096151078336
0.207685299190761
0.187695366755491
0.200586262054726
0.205069467928406
0.200568616626502
0.199136360769711
0.175976130068365
0.208736855999042
0.176344026737855
0.173130844651743
0.147783253467904
0.172330117652319
0.203417101445912
0.170400283250542
0.200732031079056
0.173964536904433
0.155755051318826
0.174494644596851
0.209580426420413
0.175955865421987
0.179823605570888
0.195856541856637
0.19718952472879
0.176738636574731
0.208248927459296
0.206802282122653
0.176779762405376
0.208877072460955
0.203268316073083
0.202430851249323
0.167163497108228
0.174275245990237
0.196039638214269
0.171910412937576
0.17367351722514
0.168086900139763
0.196419762795084
0.175900455931966
0.166087130224608
0.201507166613292
0.193901279728529
0.207207985397685
0.216298871589184
0.194869255247548
0.20721366885049
0.175501196858433
0.16616749032678
0.17771500305548
0.182193077039283
0.175529981699197
0.19628486272605
0.180349628548101
0.176968052460148
0.182749505727674
0.176211928216747
0.199065993279712
0.198285947477423
0.201244191121464
0.175205344338356
0.199405205718592
0.201314037791342
0.177495176271664
0.176287334233239
0.161888406548578
0.174070784655936
0.196598507845764
0.199785939380793
0.19266887102772
0.175503248415768
0.20091733333357
0.177022094464517
0.173137768453715
0.182041596511458
0.176522853642926
0.170298292099282
0.172086770134133
0.176972134296882
0.171958874755177
0.174954887711423
0.179053622190209
0.203327705343403
0.168341155118382
0.194062264696568
0.177222094348878
0.177923616935619
0.17244073458404
0.177927229893184
0.205537631793533
0.177193398749939
0.178198849090232
0.170191953101194
0.171432060664173
0.17338673114151
0.167953194742741
0.198289739607115
0.199130381569142
0.20028398437304
0.175235654669111
0.172016648660036
0.166720527141384
0.156131477810013
0.19906757685281
0.181463670689102
0.197198063427808
0.163160684806688
0.198173392584634
0.180081829701359
0.156828688443726
0.201144494915716
0.195170378626242
0.198819421244337
0.182955423265246
0.19244323211501
0.201337763076404
0.181014349333565
0.180404298722519
0.20094038936909
0.176755896355247
0.193758632829195
0.183903299024609
0.177273181546725
0.205127000392038
0.198582785820056
0.173804745716714
0.194256739424416
0.173751937247447
0.201380142827895
0.204652452351849
0.200149696835491
0.201186400063169
0.193640026650397
0.18209188260118
0.17455897657124
0.201681974746674
0.2028578379896
0.167757687822883
0.196960562298182
0.166711761883111
0.159905837781713
0.194481811353009
0.200495489161407
0.181822049053507
0.173736254204523
0.174991031213846
0.194884211223359
0.177587800381974
0.199976329302821
0.163872670107754
0.201070695009988
0.168890271808557
0.209836374883949
0.190733839515567
0.193424876929032
0.168264628607408
0.189988870080873
0.205070450749245
0.175085600490111
0.197248793801991
0.173428038792666
0.175531270371966
0.172171305016674
0.181853782679831
0.204314626073587
0.180157351194583
0.181546467200055
0.185612003857433
0.168999603403464
0.197708134500516
0.198319841734719
0.172954331180041
0.169240382511243
0.170272904632976
0.206482594877636
0.177536856304915
0.182059571216386
0.209884044889638
0.178230388060312
0.153542783251601
0.195087763566534
0.168336227938476
0.202655402443653
0.20395878884837
0.176725310977373
0.174133454091059
0.176646016655619
0.175474989684769
0.173398165032374
0.200602747740703
0.175529746560169
0.170896485576856
0.197112090410394
0.176915365491598
0.208273102381821
0.17885641095946
0.199980842428687
0.175107693993351
0.199217106801082
0.198543341927432
0.199869524223268
0.172749149713078
0.185683732280957
0.193041602836804
0.173957821128857
0.175627487934504
0.164367567489183
0.175257437948902
0.197662163684106
0.199320782801731
0.186162042963517
0.175207181807747
0.173605435853479
0.199162178054596
0.173728306573469
0.182429296713257
0.0542091903102621
0.0185668083945387
0.083519871482772
0.0731870638593039
0.0197849633089867
0.00902703995496544
0.0694876925237579
0.00143047646076553
0.016847516126043
0.0269819262497133
0.0274265469353056
0.0294785690469489
0.0529770613526536
0.07343298523617
0.0973011231301295
0.112296749289604
0.0365326634101803
0.0251944821496884
0.0179031576082951
0.070758822627925
0.0736996782152579
0.058425422365423
0.046231528910165
0.0504784915352995
0.0740794132248104
0.100337269023241
0.048211186397016
0.0521873700083502
0.0715370980394699
0.0507525462292972
0.00334128258139925
0.0567275393633879
0.0201798872296845
0.0501745887606618
0.0812458109661928
0.0483644309097005
0.0455075734213885
0.0261211592910601
0.0292027525494363
0.0260629373194597
0.0573842390794491
0.0202463770044881
0.102028432632272
0.0755002006637054
0.0331754658457224
0.0475827060084218
0.0522765870188816
0.078313336126512
0.0430304401306236
0.0758699009356458
0.00433389907438129
0.0476799397397807
0.00401164355152448
0.0496565519694371
0.0014710244065313
0.0953599379742619
0.0202560131389827
0.0500906174761379
0.0317682031809919
0.0187894342234109
0.00519380198130998
0.0591937009353562
0.0478286113163103
0.0482577190819901
0.0474008504092233
0.0757892530293957
0.024189416600143
0.0680226644276788
0.0440478542923262
0.0566804634095141
0.031456520400836
0.0753420743092762
0.0835287412044313
0.041589284664682
0.0451864288743758
0.071872210191821
0.0245703018387731
0.0817361870729161
0.0520004386233516
0.0255401147249117
0.0247789198372525
0.0791866833560919
-0.00100680643345631
0.0478206131098833
0.0489676265162699
0.0274818359198557
0.0353202971662392
0.0740681384950137
0.0326315082540175
0.0767020184841888
0.0158421655684225
0.0313291991108757
0.0738301476364203
0.0592327283705471
0.0214936495513846
0.00502724335595031
0.0255862278659247
0.0751673687862938
0.0022535621819195
0.0289198741762791
0.0457474557837095
0.0588919785085231
0.0461406247859451
0.0239594234569561
0.0602562116973829
0.0460941452505835
0.0214785235605474
0.00374686729057928
0.04880370295
0.0927339146372323
0.055383135145725
0.0973558369243257
0.0477278691644648
0.0709046925359429
0.0179815555341835
0.0501431693301565
0.052991332991406
0.0718833488783584
0.0557702858459775
-0.00216117066644247
0.0276328731199937
0.0783647095690568
0.0453004204509294
0.0780412138590528
0.070965294820645
0.0213312802205278
0.0518338070340272
0.0211094933428739
-0.00310268764282259
0.0452838279539312
0.024187481783017
0.0535335622383788
0.053317757282135
0.021917815449625
0.0421817812304067
0.0472076617773252
0.0189445647741927
0.0332790783089812
0.0288211921912357
0.0202808660293321
0.073961665862246
0.0699708183277437
0.0708711492706921
0.0214639675436322
0.0827707049702276
0.0164126791014378
-0.00372148982771658
0.0524657715370756
0.0416531075337259
0.0692614999191511
0.0492263265074417
0.0582596285723264
0.0289820695464682
0.076229365799974
0.102152811261801
0.0954842388240311
0.0762892456417671
0.000584022340972618
0.0228828035757732
0.0318156198381436
0.0769785664586392
0.0760412840876363
0.0452509571497596
0.0219979864986941
0.0561363735709685
0.0778387927471595
0.0685983792346536
0.0715196390601023
0.0482126990281117
0.0577031818925356
0.0949271559972833
-0.0163407731720334
0.0459646418478314
0.0471569885870744
0.0573032756227817
0.02467330939318
0.051550891983282
0.0511020617651693
0.0273427960514358
0.0518787367936053
0.00261662568771482
0.0175049519292233
0.0721576399242542
0.0184243774175415
0.00361275940371989
0.048838026810627
0.105049564130857
0.0372913822268476
0.0269603236030575
0.0672926253828043
0.0489696176679735
0.0763417304894712
0.0994431798531094
0.0717944143959995
0.0521229438316867
0.0261907270560145
0.074813574702756
0.0214226013191866
0.0132595794472292
0.0531078240140861
0.0426884862475148
0.0769368905974911
0.0206665419683944
0.0297213408250437
0.058787383665592
0.0523192473446396
0.0526421554684636
0.0445392449571968
0.0574761876153526
0.0146514727248184
0.0830061176751837
0.02670717796636
0.0951826564801981
0.0854981912114318
0.0463874970928885
0.0452348894354006
0.0284042592519796
0.0482800176786405
0.0745736686401625
0.0554445696482248
0.0245102623168554
0.0234568049228009
0.108746662033709
0.0268928197817617
0.0451857920416707
0.0275349173840824
0.0228203073750266
0.0550438824797251
0.0181434630419923
0.0258631035777175
0.0362381754281665
0.0234857263399129
0.00637747925469714
0.0244696304818344
0.0730363608963338
0.0295506632701423
0.0536966943533162
0.0547144361755813
0.0257746409851236
0.0297500236295401
0.0958519913566397
0.0172057928885562
0.0277339184968119
0.0239098914587341
0.0481265430933521
0.0970254109098428
0.0471806109951612
0.0446761949036615
0.075835236515341
0.0446130231843424
0.0266146279780083
0.0440773028143665
0.0693647527104934
0.0692509579793853
0.0495970906115542
0.0798714183772222
0.0609911504417602
0.0771100534530888
0.0723508779358833
0.0521530083474613
0.0219183978773798
0.0777179065725308
0.0540565225516702
0.0750788526489597
0.0505203946470508
0.0765350588142181
0.0323530036261426
0.0437152013739958
0.122380357389796
0.0489365024724109
0.0710212245128779
0.080327421293216
0.0215605195964597
0.0243724488634985
0.0760810597102516
0.0744615480045623
0.0236124169279857
0.0437028680571486
0.0673396539499054
0.0424674697088203
0.0540744736140284
0.0556449685112062
0.0216248496226513
0.0485586888239047
0.04684068450694
0.0490958416387923
0.0695000500203678
0.0325566987255345
0.0282668640636442
0.015091271263847
0.0768860409503103
0.0460473876155331
0.0280236766394802
0.0715398972472264
0.0234907358003248
0.0792672980156552
0.0809041015778861
0.039800828666118
0.0554578011638172
0.0607746139290008
0.0429671037813904
0.0183508120908134
0.0258852905883297
0.0453016792102046
0.0291206338414731
0.052511160457667
0.0241102270645711
0.0760023435709601
0.0289266313639529
0.0185488977548802
0.099265799267334
-0.00532548468230567
0.103401395259934
0.0573263918397946
0.0539318503261553
0.0772439638109271
-0.000641508743212071
0.0486542406492357
0.0569766538615694
0.0537050022735307
0.0278360988753855
0.0443605163444608
0.0256464084837198
0.0336318469178987
0.0519299530032305
0.125540664451382
0.0687604768561439
0.0515341635686412
0.074312389893863
0.0760204056588935
0.0342288713291973
0.0866096833071981
0.0377292000624836
0.0489794003181546
0.0236738168174524
0.0777691328999823
0.0407030987033785
0.075153662938593
0.0473555244268577
0.0756754014425782
0.0514055224333243
0.0987413264184883
0.0493309142660937
0.0437358661738188
0.0592996653210914
0.0255651513151451
0.061464110079579
0.00537219639381063
0.0247309008571625
0.053638278943612
0.0220526374780674
0.0598560067907502
0.050280697971193
0.0168139385634047
0.0520331783424775
0.049068949845979
0.00201638160660273
0.0204545033095097
0.0289707712259862
0.0790401608743343
0.0467963365079497
0.0279034957579381
0.0950527952416738
0.0249076626431409
0.0717229998381192
0.0754167488662071
-0.003789248407166
0.0562147173399131
0.0452272213712532
0.0479686116455114
0.0987304442132164
0.0442352128097483
0.0287221753006481
0.0542516912622281
0.0510801076702007
0.046473793393023
0.0517189527587697
0.0447770483065673
0.0570668972024571
0.051596079919604
0.0781673431369425
0.0288858591668518
0.0164985431558616
0.0304689884695381
0.0912930120963302
0.0153593716997283
0.0656280302686555
0.0270281788065283
0.0735569593954938
0.0129950628930234
0.0487950406925451
0.0744115562211112
0.0790375400345524
0.0826800194862452
0.0782890522681647
0.0787608052447783
-0.00953355021629068
0.00364409829953001
0.0493858243748507
0.0690849090271937
0.0683772763267405
0.0479288268622369
0.0721417917105431
0.056932072175908
0.0860181182340856
0.094702746078664
0.0512093530196444
0.0793449515970651
0.0495866890048035
0.0259051304749028
0.0486757782526694
0.0304014346720605
0.00821189705824143
0.0509211671898799
0.0801441028818895
0.0405803518894437
0.049246532973464
0.0499932741556143
0.0289977315493576
-0.00499225838166964
0.056457348692217
0.0765322468138192
0.0701925911863703
0.0550793735682567
0.0228408468940726
0.0177034115816815
0.0467011265813725
0.048723397296593
0.0373865671255879
0.0237388146120056
0.0491983853009133
0.0743020925071712
0.0459245116529973
0.0292602979463795
0.0568946950484045
0.0228388908889932
0.00735142021789306
0.0241408281136807
0.0787465779855075
0.0491850922186696
0.0491139242342603
0.0455859107254208
0.0476263196871788
0.0729463494365377
0.0498003833463498
0.0324407472902712
0.0537423105058328
0.0255799460949584
0.0232519792532295
0.0319440352050879
0.0507764417987596
0.0530594217733983
0.0202293511151451
0.0230256222644601
0.0513308464411481
0.0716280841431707
0.0715056841978905
0.0471191002578081
0.0504526357907017
0.0497254370454792
0.0561627934201214
0.0296528450271832
0.0796025165083813
0.0454969018251517
0.0766802303945963
0.0942031574321446
0.10770662142027
0.0246411870880475
0.0780154882853505
0.0314101367230599
0.0478980969600835
0.0317204489161528
0.0427291458315521
0.0468065229779609
0.0769135600133133
0.0790660229459741
0.0523264920462469
0.0260232820547882
0.0477827763258871
0.0538895987320799
0.0261487287780966
0.0240167063703572
0.0177612076984847
0.0437538817152254
0.0781223644045943
0.0255973415963083
0.0979350350498862
0.0394930734910243
0.0373017020790366
0.0628058323872138
0.100040031681997
0.0255131935835494
0.0983767104764205
0.0476074673023611
0.048196139090845
0.0519951197359786
0.0297867204960292
0.043830021052902
0.0443328047080363
0.0271909584719781
