0.170687181170104
0.180579066767906
0.148503568071914
0.182628192317143
0.173509019126027
0.128617270085216
0.123386420358256
0.169921392458252
0.170399851629878
0.181413172183613
0.168140674999362
0.142433099929382
0.121090045112088
0.0968219055417753
0.122055549394277
0.174264122448227
0.176725389927711
0.119070212905779
0.126644437712537
0.171899695082096
0.131761389291308
0.157883103672712
0.126254495956886
0.0971173421099257
0.128592979332372
0.169630774617743
0.124779913625946
0.103610495589407
0.15245964131174
0.107090398545297
0.0969955073142056
0.171960311384219
0.120308800714503
0.127809465518323
0.125920631255176
0.145520616746926
0.150517722314358
0.102378775067554
0.120724181063106
0.154511088174103
0.14859741250992
0.130953082612704
0.122227209135763
0.119860136031547
0.153717772662612
0.12957749930899
0.162045958426536
0.0951510402046944
0.12398390278356
0.153592435547734
0.123054623680763
0.148066416733134
0.11913684156745
0.167122566224585
0.174431340583972
0.152399770685111
0.1779324680897
0.183150608206386
0.104693223314661
0.126393641692296
0.125745428855977
0.0964739009973827
0.175669235389327
0.174771407103689
0.17110333497906
0.180691777837057
0.114098905961095
0.127998237448396
0.143634900733005
0.0733180014027753
0.150738673686748
0.155232436722674
0.167047974787358
0.099988769287033
0.175005711855899
0.177620800214664
0.151579977727957
0.153086212166165
0.14319670110822
0.171808301038859
0.176061068647653
0.179882092233789
0.183805198391316
0.119194843218178
0.124865616041204
0.101429589913787
0.144382352080546
0.107579390722499
0.179760930419837
0.117700773957182
0.126714342269922
0.122333002644211
0.17249917615202
0.146301720553538
0.125490955451809
0.170830810571264
0.127774205072416
0.125078131294166
0.145263601460084
0.124339443416375
0.176537385677309
0.117926034566535
0.144591666329686
0.130778582757055
0.176125357158787
0.172720400808744
0.123741452380714
0.154982537831029
0.174291420974046
0.143052665598856
0.125611620149992
0.0934354778756501
0.127848556582107
0.185142658032507
0.153250734585475
0.125959734644146
0.170494144722733
0.127824910932886
0.180544718238834
0.143873532172905
0.131940056688453
0.169766751685811
0.121415743732227
0.124382202378302
0.14884977746812
0.128633827684145
0.128481839980339
0.177751804556683
0.11046174486946
0.106588124154328
0.147127348005045
0.107690671806548
0.151104480023313
0.108405322187165
0.0644775861172601
0.168951056464772
0.124681760865258
0.173601012471901
0.100617773797237
0.102066592157865
0.148208194390484
0.160079671610563
0.17930598604254
0.181558030727638
0.130302471294396
0.176358236200458
0.178043562128753
0.177812963445969
0.0743648949938152
0.136320007090976
0.126919972592988
0.177355520711044
0.173909358303844
0.12273047436919
0.126773487766153
0.142670303479801
0.172839653066478
0.126063021442646
0.102063905886339
0.15061737111256
0.129252540019748
0.119805437319741
0.146891657339478
0.103402503695388
0.174718464154702
0.172020691165338
0.150552850223026
0.102697344668459
0.127703678780878
0.178321414504014
0.171281436833039
0.168266479551619
0.149722380448417
0.127521892902882
0.153202601703295
0.12194129643359
0.122621334698772
0.169382653004194
0.144000074362464
0.102792719456466
0.100711467666014
0.179204390579979
0.150868911811672
0.138781974625045
0.170722823418131
0.146717206787514
0.0965799755240079
0.172432316244985
0.145571396721757
0.172025942006844
0.167819493147528
0.103998761119957
0.123700045310889
0.166241754735126
0.124193398888309
0.177106696712606
0.17927281372851
0.128049630487087
0.0716105233313687
0.0991828556693964
0.1759889155612
0.124414532423631
0.182653845291118
0.176369560996548
0.122199234133061
0.10144574742573
0.18089820657386
0.174181097962664
0.102524690757578
0.118864451077369
0.0968522297044333
0.146540491413894
0.148807857153307
0.129207826232092
0.124613236550991
0.127682342141558
0.18524552920527
0.175437630470724
0.151126119892656
0.125913048914846
0.0988365230696633
0.17395828715133
0.128518622248258
0.182199427969902
0.148980584502021
0.0988096390529143
0.128116811441349
0.099609491670012
0.101276394746019
0.17515615283904
0.161555224377761
0.0723968409547591
0.125832422698872
0.173587518258952
0.159692225378075
0.170131389191357
0.174981631385259
0.130710735194658
0.175715458392467
0.106632489267439
0.169650106045144
0.170738208830498
0.121808633364837
0.168054714278912
0.179652253944931
0.148903250078112
0.115548483325076
0.160193869679719
0.167114796211617
0.127240083568879
0.124702923186426
0.147625986342807
0.151917178776276
0.147637592813552
0.123610722417634
0.140274407146952
0.1502277119524
0.124607830892787
0.124969675136814
0.135702242841051
0.147106265895504
0.124760859868396
0.153174926919426
0.147547351402203
0.152133907378963
0.121856540170369
0.155418012395705
0.150576810855162
0.144551184392331
0.146850381726412
0.12523671411408
0.134140388562375
0.133012154836344
0.119251190309735
0.150567794474837
0.153010986458823
0.145744723423153
0.125314524704079
0.147062819701754
0.149272827314596
0.11578333961633
0.154808425482371
0.127086148755717
0.118080056769143
0.142352175108375
0.154461036835525
0.126430749406049
0.124137856751383
0.142008337540779
0.127455068456465
0.122896877539054
0.134852635959854
0.146585021446146
0.12606962133645
0.117893118014538
0.146498801773663
0.15523805933001
0.12676172287828
0.117031586836053
0.142929932710044
0.11448788487322
0.12345893602001
0.141412205446442
0.131874242792118
0.155694806199687
0.11937076652899
0.14750410672548
0.129353388415415
0.12827083067262
0.12353529679495
0.128189515153485
0.153203502303838
0.129902693094887
0.156154630616085
0.161816878513802
0.121065399774386
0.145469525194655
0.125290719787257
0.12648233745886
0.134304876575876
0.153207904629541
0.122605739345395
0.127806120885723
0.154252671722678
0.132846614083453
0.136468966680986
0.129991361287973
0.122867656307046
0.154342152894971
0.15269752352772
0.148588018398779
0.156389900381962
0.117089431508675
0.125775994292198
0.139039416161716
0.134612533053622
0.140832864144487
0.154932825388803
0.121377954625318
0.148857800395124
0.120499024960463
0.126481815199528
0.147163537296587
0.121273653186295
0.116748693790823
0.14719229501239
0.119559679097805
0.147935177152896
0.129870696818139
0.127328809098824
0.128845183783676
0.122735386928532
0.124784017390337
0.118287586883677
0.148083392479458
0.144149882325783
0.151254536497827
0.121015748156155
0.124922818199288
0.124961589002061
0.118137447811735
0.149885723425664
0.117409227244234
0.121117657988684
0.124471441138648
0.120867382026539
0.113691225633786
0.147264400760311
0.107819469035607
0.148250128190318
0.154104818772154
0.131613967682198
0.125002078096045
0.127713153592112
0.129410384945584
0.14840654149242
0.12547989892301
0.1213932251129
0.122864983380327
0.119203499728073
0.125307094432748
0.140320475379041
0.155698203435693
0.154693361491468
0.155989012671475
0.147061996857421
0.146811569109445
0.147042045761712
0.127021046060058
0.148899145006518
0.126666177950245
0.120297590835205
0.12810282098111
0.130657804523866
0.152411756298765
0.117432176153226
0.139558609544392
0.125438737724305
0.115845350691948
0.148265832427607
0.133473885932246
0.16206146530797
0.128269333137807
0.119616361088561
0.152828439312564
0.123319221805492
0.157563067797123
0.12260045964474
0.148078933571926
0.129406749086154
0.145885358516505
0.156172486515695
0.144170947271016
0.154679101301625
0.147249219262655
0.124725530564622
0.138093311335297
0.153477840783824
0.152574827248484
0.136041204228084
0.12195235898379
0.156476658765013
0.117786922571199
0.140844986525379
0.120040414328597
0.118049395083209
0.123253728810728
0.148197669149137
0.153436141864014
0.124854149481694
0.121358223499568
0.126289860110418
0.119598173448217
0.135933789558994
0.121577313055288
0.121363482242489
0.140751508890633
0.128136653905392
0.118450584855048
0.125999497799622
0.128893898704538
0.123513988807071
0.146578357976284
0.148054270338897
0.145085169693117
0.116728327935797
0.146446687252901
0.150725231036617
0.143708632680656
0.150949159468375
0.149801031753565
0.121113253035897
0.152066638475498
0.123553797098114
0.133716354723214
0.125906042450266
0.148220150910441
0.154951317645303
0.127687644059986
0.126733800839933
0.147169579156294
0.148340257605373
0.141903970871386
0.122114902230265
0.151827915113899
0.127905712312687
0.153801090419382
0.126442335542712
0.145536959320618
0.119795461734636
0.153581060823279
0.118332255215808
0.152390643844052
0.15390696109705
0.121735899642762
0.122493160624881
0.148792720973857
0.124198570954434
0.125328824763828
0.127177145171513
0.146438914649603
0.154633048201519
0.138694627850098
0.128350073316457
0.143375395577044
0.133810708011092
0.134146919857871
0.130322426215239
0.125801432495969
0.148566947756672
0.121671937677897
0.156380314237887
0.148528134776306
0.131052123252069
0.163629869154149
0.146110927468374
0.127777311762322
0.145252804340764
0.117278436850283
0.132293893048987
0.0221829039732495
0.0479194111098947
-0.00143923072988855
0.0228664878923989
-0.00255568769261402
0.0245330925888636
0.075809842307267
0.0453539341087856
0.0218505012745048
0.0725982358523457
0.0954101706349074
0.0255923692911711
0.0520869465252498
0.0686369316494344
0.0993165074745467
0.0127326116980791
0.0771361017876711
0.0245846515671176
0.00487494062174263
0.00619861795454534
0.0703318054060257
0.0507109869036117
0.0506482883462607
0.0473776071704152
0.131007262985762
0.026118482596513
0.0421721825836159
0.0834692269874459
0.10820654568787
0.107687359519605
0.00380661502467778
0.0748810268781936
-0.007087174431665
0.0830220650031483
0.0457353951461172
0.0800833647400771
0.122153495597267
0.103752573866753
0.0162339809056389
0.0238826903430039
0.0456528679427071
0.0522597955771743
0.0506948532953722
0.0468879557642867
0.0242964174995532
0.124389810829815
-0.000581885970237875
0.0500264409249538
0.105413350592863
0.000113908043604519
-0.00905047579564706
0.0478527517646149
0.0774215116288184
0.0640065025172476
0.0972997887285608
-0.00279747900574329
0.0743182888994881
0.0255441723182306
0.101966087078159
0.0532280963974203
0.0524725609823607
0.0894442600950108
0.00265393290235406
0.0465268141032743
0.0239184569367259
-0.0030390684640219
0.0533471359242772
0.0768294750050049
0.065888235851197
0.0444444135014206
0.0952294681543996
0.0517047827907711
0.0204080130647555
0.0512790085397529
0.0926721202422276
0.0823147359993037
0.0790696151070573
0.0787112017911198
0.0869835421191497
0.0310986363223664
0.103764903917277
0.0193878593537637
0.00237323651963179
0.0540809068284741
0.0241527581479979
0.00137967287296812
0.0509604396903433
0.0277567007245426
0.0981901785434275
0.0945921028760499
0.0552611219466666
0.0288045393925847
0.0523097269891602
0.125282450302489
0.0499007157126167
0.0294184288128836
0.142223172359655
0.0312815536736205
0.0453927976017846
0.0981682105142924
0.0245869878029691
0.00227399058762878
0.047498649050549
0.0175623610013207
0.0827120066102673
0.00929929956756951
0.050716991712775
0.00437320502009283
0.050402916572791
0.0474182072912561
0.0333688302333044
0.0444089936176736
0.0568184509989053
0.0187653079972342
0.0514474418650528
-0.00407644690824168
0.0706368570540901
0.0953321387311852
0.0229233171659661
0.094875368109591
0.0512899010746769
0.0813523231836641
-0.00260175094125121
0.124156068148431
0.0458076754646937
0.0967786798821834
0.0484782906623613
0.103345663443128
0.105215263091622
0.050448196012245
0.0747918852024958
0.0703790660953523
0.0790047709574388
0.0720070889002347
0.0713096609337488
0.0797701632068357
0.109027787958108
0.0999664367360575
0.0567319039063314
0.0575744166618441
0.0479652624962303
0.101368059036564
0.0438925693055567
0.0704257100785065
0.0319567530462669
0.0506288940976761
0.103523273041575
0.0530765646816649
0.0461925525616911
0.0413518583577143
0.0535620654574197
0.0333707521074548
0.100552958457795
0.0987759268942824
0.0226482484760544
0.0667916212306322
0.0518889672923375
0.0237773593691672
0.0539955736345212
0.0792576190382088
0.0943288814362113
0.0457259105908869
0.0478885498322932
0.0276175812829789
0.0566700048703118
0.0780979496252006
0.0460666899257797
0.102858162487205
0.0265298489422835
0.0791619280583059
0.0485841254121598
0.0721525030454249
0.0252249701042349
0.104630137481744
0.0249158800831784
0.000393581352595968
0.0473807817196991
0.0179344368626528
0.086681487338001
0.0652801809312972
0.0080968769635389
0.0479800777798512
0.102811307302541
0.0783364537868337
0.125316926010254
0.0294985229815204
0.0961560287771875
0.070271548601596
0.026717813941659
0.0314258607495857
0.0515329361895928
0.0630812144693679
0.0728418821440589
0.0288866510886326
0.0472713499629812
0.0446589230387137
0.0480761322587409
0.0257134287168274
0.0948596990414399
0.104974348842643
0.0686534969614658
0.0813278603235803
0.101757209733688
0.0941313344583522
0.0772292849209891
-0.000561344099394996
0.0487140307313852
0.0392143830051082
0.071077678115015
0.0633946907424936
0.103389214858975
0.0794435867308235
0.0754760478444382
0.102919979461107
0.00208723355809234
0.104670800134464
0.04918563252978
0.00247837585118644
0.0744351431954712
0.0588139426225432
0.0687830113269863
0.0505684647079552
0.0749087017693783
0.049725307317019
0.0461996456343292
0.0759750366185627
0.0740859382356928
0.051118221762666
0.0597007512685325
0.0294793253403513
-0.00053002457017357
0.0557086452966103
0.118517344360831
0.0558558939097766
0.0320289870446654
0.103771389346371
0.0242083392600429
0.122527628382458
0.0374353307332131
0.0819667313843754
0.00022234218305464
0.0748132252642154
-0.0148156637575156
0.0154679362377733
0.0539500750045473
0.102712998026373
0.0221825939140414
0.0665251400162538
0.0419691507684355
-0.00328022446017712
0.0783176946640214
0.116358770465301
0.0733493023386708
0.0448756163865547
0.0950659188938333
0.0201533651961948
0.0503443193794077
-0.00303541714601751
0.0313386424190924
0.0970665995019075
0.119648628515772
0.0509801740900918
0.031072653973588
0.0017639301959025
0.0978413894344501
0.0940681471451379
0.00496662438600735
0.0790344685967059
0.0489282338115915
0.149851245239238
0.0752484148706871
0.0942589832995557
0.106403122903007
-0.00527156207003843
0.0281545582761608
0.0760934369858592
-0.000797395122235667
0.0453548958227388
-0.0075035945722401
0.0808498006596884
0.053842638083108
0.0480409493844568
0.00321827498753416
0.0481432838376249
0.102099539786681
0.0429295995856511
-0.000814560716766263
0.102707940282453
0.0452196648859125
0.048263776906005
0.0317880541293385
0.0938424498824104
0.0218669627139682
0.0996835498361052
-0.00372063900948
0.0520769119811352
0.0725594018902347
0.148302576814464
0.0748876069701803
0.0984505237367023
0.127834412517275
0.0499361399436053
0.0463920202194806
0.0208546330958219
0.0715707000625115
0.0485953855025968
0.121546394251406
0.00302512303509545
0.103282698769355
0.0190947616821613
-0.0074014860910624
0.0175290424278316
0.0406300072094955
0.0654893473508045
0.102038068917522
0.0725622246356165
0.0566132736755917
0.0295490913053146
-0.00054926569914142
0.0357787033663705
0.116628431325086
0.101706775887632
-0.00219574939286595
0.0257368461858742
0.0512595253013421
-0.00452080122171233
0.0216862354647445
0.0320583420990342
0.0467852294376525
0.0486338936964334
0.046724851242593
0.0498298961736123
0.077260485881885
0.0693478651842304
0.0540299526479311
0.0219497860943574
0.0693393131583754
0.0994264653933945
0.0312178292187393
0.053505719178153
0.0510230364282901
0.0601859012591721
0.0503417733420557
0.0267012549257742
0.032012763902268
0.0221814323825985
0.0489310094624349
0.133168233952017
0.0237037698149312
0.0292385634911185
0.0761831155463471
0.0287868894204456
0.0787097714164306
0.0312234784814433
-0.0016336142266616
0.0569846075680803
0.113729152632521
0.100574205104834
-0.007212425226966
0.0253524275472559
0.0451917107541118
0.0495485512829419
0.0312550797636426
0.0224750841197003
0.145193113684017
0.0783465949026099
0.0241479762045766
0.019175596962627
0.0581856780514539
0.0716424273484807
0.101747447323992
0.0807276244068366
-0.00158517521672697
0.073712481638798
0.0458774857999312
0.0483335961559083
0.0588127491885053
0.0743096939033004
0.0250348902562224
0.0708779985258807
0.0723579924301257
0.0727384423732486
0.12045069681658
0.0245488250824085
0.0511168037919184
0.0577438726197939
0.0722266501977371
-0.00298038489578893
0.0507954369890295
-0.00048526235310971
0.076518977097046
0.0235947671150035
-0.00752569732589113
0.0965294082704624
0.0194916831117047
0.0933824415550717
0.0450575387564606
0.101612370499008
0.0278808151991378
0.0695827442289631
0.0723376352130613
0.019770132323638
0.0704599026749144
0.0221949242594389
0.0681381759097646
0.028210993564219
0.0507735922642914
0.107628196237405
0.0704573643970044
0.0241387533809961
0.093276692684586
0.100978936523739
0.0247420519980778
0.000699240559429946
0.0222006695120225
0.0516622237304349
7.58972227537637e-05
0.0652973337026646
0.0316988144567018
0.0281175497463053
0.0994046554759167
0.106071574942161
0.0728309320838426
0.0320284751215456
0.0506563252505338
0.0194801636761112
-0.00360937225724489
0.0907703816110585
0.0796446033584042
0.0746191015501532
0.0797783821882971
0.0537068543747769
0.0415960437567666
0.08035806739872
0.069584995391056
0.0335925865233798
0.0516412722407701
0.0824974983897806
0.0764518736778998
0.0531767397416939
0.0139371915499399
0.0516511006677956
0.0769118118429708
0.0599121308368506
0.0705891889456808
0.0065051073204239
0.0493699666208368
0.0203839909133976
0.0754111940617348
0.10140797180843
0.102280585360881
0.0816782068977971
-0.00581923896556986
0.0267616382806737
0.0565693743585037
0.0702584069326704
0.110086462479157
0.0102264442841019
0.0706288767750469
-0.00381376083859305
0.032598827269936
-0.00444820642564747
0.0511071604034825
0.138089944118385
0.0331950635951461
0.0214621623370121
0.00148656412018797
0.116011426359112
0.0797337591031763
0.0512697380484987
0.0286748500902321
0.078782605888416
0.00426742450442079
0.0757869975212769
0.0684265714804755
0.0745570549645919
0.0245713226354187
0.0257590324920361
0.0438622016568213
0.0205193043384947
0.0828137536375027
0.0482473478053481
0.0179127964862611
0.0680312820700608
0.0834386475207479
0.0708671888007447
0.0369655816439502
0.0932904104440504
0.0777940904016713
0.037711579026066
0.0423234891956692
0.0918853471482594
0.0804366675487047
0.073008795943585
0.0206226255956647
0.0195551288113824
0.00559136339849708
0.0300910261934595
0.116370991922609
0.00138981248335723
