0.156290724532398
0.176426819132503
0.177839021539946
0.168288332704323
0.177704752531001
0.15007237291517
0.144932999285345
0.171146069558794
0.170797472806624
0.164916335747038
0.183032427955751
0.181230747661696
0.149660776353021
0.178521744666649
0.17690654526506
0.147124113184313
0.177406137028917
0.158642444631207
0.169841878348619
0.169942354955435
0.152286361042221
0.145588599228643
0.179147938730504
0.183418970858039
0.175022294967577
0.175275549750989
0.169489899798518
0.179627268330993
0.180424676110463
0.170195944623207
0.151934778656124
0.177907895256133
0.180135862688118
0.168835768259069
0.170212234680744
0.175122682597214
0.187072991059207
0.175539966397207
0.175768631267835
0.152324649173269
0.168985678025012
0.140417497546552
0.158312693957837
0.176460073702352
0.170123569470068
0.164844871214773
0.179599183998503
0.174213804279708
0.179110415919327
0.17491140064592
0.18602232766784
0.178953909450242
0.169807216139159
0.168717289738272
0.149277569368757
0.177564403401748
0.169798133411453
0.167822940964063
0.170553097551081
0.174600814831786
0.188016222089598
0.178008864708781
0.153554395997086
0.148059184492399
0.149745855970363
0.176976057168813
0.178588499280528
0.174903923024121
0.149140710283447
0.174212670853227
0.176289450028047
0.176655677101522
0.15089709240938
0.178939530696337
0.162876784339257
0.17100785336497
0.177025361363993
0.149337532972162
0.17089204285495
0.15029188559652
0.18139183996008
0.169636783295259
0.175792484563859
0.164228357053351
0.171831820017671
0.173318421111578
0.178936105357838
0.175744678583375
0.174194818268764
0.180913385453108
0.17655657968266
0.173752035252351
0.152191978776607
0.17529610078327
0.145745926722174
0.172666849669857
0.1736308579378
0.172996945570345
0.169297237611934
0.173753994832732
0.170250056467776
0.176843691588727
0.171340731526344
0.178788631205497
0.169672592295455
0.18019792699249
0.176249524588242
0.173447133560767
0.180244403073316
0.150010403286469
0.181492611108875
0.185664575509379
0.174800642517652
0.177976818827707
0.156312459506889
0.167897408787293
0.149677650982393
0.178526163512237
0.167558049848564
0.169854878508687
0.180386713515905
0.171527902720043
0.180187514353866
0.169784070804437
0.174376750612116
0.171597840506924
0.157806169506228
0.181585253128277
0.174509559944296
0.171232309361872
0.177802449084144
0.147379352706906
0.174738387206176
0.175167287397311
0.175790445349995
0.14437360161881
0.1776706426158
0.155730150105109
0.17546793542687
0.184814730760694
0.177199743045275
0.185798157870423
0.169506475804206
0.174119930882424
0.153614769063985
0.169754975247757
0.170620767991652
0.168720961287753
0.174772540745289
0.176187175395805
0.168694337429716
0.153562831509934
0.149635653519239
0.171539235129343
0.184659266541629
0.175297547037742
0.175221438290079
0.172605586687435
0.177798150254824
0.174238202738847
0.147498443358439
0.174398687177494
0.169390024791389
0.176998316072599
0.18110798921829
0.156818020588572
0.161697315031516
0.154662946006696
0.178346307736287
0.187101279291161
0.175087193030423
0.177051116578671
0.178816675469094
0.180179723584889
0.17807687369196
0.170405569699963
0.177653271263591
0.174658282834772
0.174013264699245
0.184132595351258
0.173309675773208
0.182612790826135
0.17603317006484
0.170367627608749
0.149239337189865
0.177845711387511
0.179572300403239
0.172942147791662
0.173686373364268
0.17937557557321
0.177948597517918
0.176768122892159
0.180741128015559
0.180349603776877
0.18471446495177
0.15378505172424
0.17985057223946
0.183899037965109
0.1486496057459
0.167877308315521
0.171078311985274
0.180738935749938
0.173602260843579
0.177948846739671
0.174159138978924
0.143557332872836
0.171362152416774
0.177362550650386
0.169390965521427
0.180178954341867
0.168450008986113
0.178303750421459
0.170291889310657
0.172980962151416
0.173797276150625
0.152169815707343
0.172319761698341
0.17543785902068
0.177636246962536
0.172170735318535
0.154068242444952
0.170921674527625
0.174512985350313
0.166706148265808
0.176288594440527
0.172344771883132
0.173585269025344
0.174590309972128
0.163908532602326
0.153762895135274
0.187513984123063
0.176688365274738
0.167185041028156
0.167498784429607
0.178854430849261
0.173265788211906
0.175923488450369
0.181778100956901
0.17467556753257
0.170081489431235
0.172613832959805
0.17623530638648
0.180254956449982
0.177908362830563
0.175363339813156
0.169215055992374
0.175157359609561
0.134866099596464
0.17914236155901
0.167029370290686
0.117964248779053
0.139992907895149
0.0401412123609339
0.0698503319766153
0.101699451139915
0.0403823233237479
0.125361264608473
0.0765863274812589
0.0933970850851563
0.0713509292290741
0.086114998440779
0.12718188339888
0.090879148667635
0.107499020112581
0.0756618234934112
0.104668071573855
0.126746075011085
0.128652530843226
0.124770727654026
0.0488021438508261
0.0843117919640351
0.0993336285341951
0.0493498437182888
0.0972259916292415
0.0527467791803679
0.116602601372061
0.0805270735775266
0.0491047970659895
0.0990926554693674
0.120770663949904
0.120646616827029
0.074181648569956
0.0497262562595434
0.0531424604342981
0.120120949344731
0.0558727584773311
0.0523069108807941
0.0503323352763971
0.1243502532149
0.0494075279709342
0.128789857501263
0.0712976184243505
0.118920278050439
0.119333432291194
0.0477781132552897
0.10732562898904
0.0550170975389532
0.0507377317211166
0.0730826831370157
0.0790791927276641
0.0675564727311494
0.0517566380613301
0.0778792095218483
0.0919930136809653
0.0503042328356949
0.130988205741994
0.10266285386161
0.0786789423667573
0.074184219471794
0.0502603469617713
0.0478735911258945
0.0539063595831241
0.0466905355369137
0.133030629206522
0.10149588687334
0.0522845204052929
0.0707309563669518
0.073075861851228
0.0818180511751969
0.0519689708092416
0.127226053258709
0.128009090644494
0.0459175342303758
0.0453801985502621
0.0813036288857434
0.133574582713635
0.0545411006434345
0.0516466187447255
0.0980633886154875
0.0697151468582918
0.0479963962013858
0.0824281308614045
0.0917035225621887
0.0704767137418103
0.04589950620237
0.0952778793910888
0.0496458076781959
0.124402925870664
0.129139295704307
0.0508668148466527
0.0967559100631039
0.103614744172892
0.107553643079742
0.126524593683938
0.129503959035008
0.066158294574892
0.100940406440597
0.122751981769178
0.0486417006767631
0.079782422014948
0.0596968228700885
0.0984328178439285
0.0827784614862288
0.0556223141478785
0.0776972038088763
0.0986202276255485
0.0906045122383594
0.104497251581403
0.0691234583785573
0.0420289850881816
0.0500382561264534
0.0924258173000299
0.052444552133752
0.102438035885153
0.123514746954898
0.122806498719339
0.0712236486187002
0.0744719998365651
0.0777224298957924
0.0473666448529817
0.107868796689021
0.0473638607184721
0.0586135414194974
0.0548132924801637
0.0921349421374972
0.0745080265256199
0.092212757350813
0.0735586771255474
0.055492292341823
0.0900984295979132
0.0439547567331169
0.0711958077208023
0.0437753681566367
0.0487169703187895
0.0500307560073884
0.0789844845339107
0.0435675433390663
0.0781784596776728
0.0957432911387183
0.100843619029386
0.118290755474525
0.12426599184126
0.0541425405327042
0.128171705206597
0.0848287171921658
0.080777413121019
0.0413921542926516
0.104454330369133
0.121829711232326
0.082467535465235
0.126103716440034
0.0521809107916642
0.105445083616453
0.0970641229273102
0.12288536371038
0.0724790058867433
0.0419668439206248
0.102766132348281
0.0509747144512707
0.0437553568656693
0.0463929970064419
0.0803894020239805
0.102440048546064
0.0483081452675718
0.103142247717828
0.0454879104021067
0.104595792327722
0.0698906101869223
0.103546907464308
0.0695528615962812
0.0560535498851692
0.109180211760213
0.0818175283260114
0.0390081252149664
0.046730357745251
0.0687382428704443
0.0557978600175094
0.120179683778833
0.0610054042146657
0.0410244742248355
0.0676904042080557
0.0990443116660226
0.121304523728532
0.044064761028863
0.0722957564394894
0.0710577710641873
0.0484772796228972
0.0994097422415348
0.101102124114236
0.0469448008933296
0.106105809982733
0.0982943439617024
0.0441277197458505
0.0731752012735079
0.0718908885085314
0.0791946085264436
0.0527454454299208
0.0600823297553769
0.102823631850663
0.106536576049587
0.046623499121852
0.0939167435697871
0.0574439059009463
0.0761518500169889
0.0944878532542851
0.103553862673364
0.0532891695740056
0.0720043738650332
0.101229210393404
0.0526772043308465
0.0727608420191325
0.129280678305142
0.0485775091480822
0.0502722164041651
0.0512660056981252
0.0955516415545822
0.0526584615112858
0.108519564895301
0.125435335504477
0.102220976025576
0.0756602615315549
0.0711236283723709
0.108061426194188
0.10214803699783
0.0663510505720767
0.0723265921664428
0.0540512761931898
0.11891487700565
0.0523936393952921
0.0987626083318957
0.0492739882445878
0.104553709630651
0.121289915140603
0.0521264789073727
0.050928462062941
0.0518522996925002
0.0446967358289627
0.106999477397269
0.0586947922286143
0.0997610137382669
0.0750981571160605
0.124716610652435
0.108274891686538
0.0512977135999985
0.0563557719194349
0.11901051436829
0.0833802994120964
0.0784800939430372
0.0970644689218989
0.04682216549334
0.0571515911869819
0.0217514993271236
0.0258883305327112
0.0586912568826458
0.0835634978125393
0.0717518880255499
0.0787966897796339
0.0315794964781183
0.100155470782182
0.0487612487701282
0.0438997249101802
0.0204236132398582
0.00173825080632916
0.0490070079863369
0.0179684170830717
0.0483626941844129
0.0959472465545711
0.0450625113952569
0.0437414739874433
0.0240116565914547
0.0800518806088791
0.0799366793613754
0.0502897856222971
0.022064638162744
0.00283544844725872
0.0235070747147894
0.00856801305810661
0.0196137209647513
0.0802135647873365
0.0549589284745711
-0.000262896947989222
0.0569007879648434
0.0240430894859059
0.0717319894624523
0.0450974524216939
0.0243444997252159
0.0505838764950759
0.0434256290430101
0.0463318868124489
0.0048515191585848
0.0571245888022825
0.00127882492920463
0.041905871114388
0.0701015230855151
0.0472540598248648
0.0551091952855812
0.0939206819804654
0.0524140166384155
0.032607359128316
0.0789630213701725
-0.00712755635138506
0.0543870322545219
0.126543662868444
0.0557741267707493
0.0578338165106795
0.0247132064993124
0.0742909517983499
0.0679577369265205
0.0738542358455226
0.0443528225672049
0.122350200784014
0.072135550346473
0.069792518964594
0.0481792484856547
0.0244103893258816
0.026634682613827
0.0183408139515548
0.050906546897154
0.076930006497804
0.0388378410980278
0.0464763234843552
0.0703742310810508
0.0964006260877759
0.0199330132719668
0.0489724139170692
0.0267263439844682
0.0541948682834336
0.076304153162949
0.096992494996757
0.04906533501387
0.0792540949497664
0.0789577315646989
0.10296382658522
0.0745485534584096
0.0391239767090226
0.0318246129422701
0.053354151003813
0.0818780055749554
0.00588740250076955
0.0578535580221678
0.0721719839859039
0.0298247626003783
0.0678431219243873
0.0820048686171855
0.101063059656005
0.0549068200874093
0.0282035690407743
-0.00279873781461917
0.00327802301023512
-0.00652759015019938
0.0388434821368191
0.0205957999061917
0.0206778094912242
0.0720672623146002
0.0439432653467796
0.0490912575760391
0.00264654859663907
0.0485115521847632
0.0284197316371129
0.0211615576603207
0.02645208533902
0.0545762175582993
0.0550436911494227
0.0203820548690734
0.0797954106057539
0.0323926192395932
0.0256656821735392
0.0548652105672093
0.0978024674566151
0.0292196546754671
0.0290173161389243
0.0135251081746694
0.0276726314454958
0.0534271315532545
0.0311654803330648
0.0711030363643101
0.0329827881382746
0.0708829257996071
0.0772147131609577
0.0449897476476253
0.0975179677727958
0.0968212406407643
0.0711327068449757
-0.00357203058695234
0.0530702622490362
0.04491777101983
0.0748522525130418
0.0203175599040789
0.0129805174484729
0.0731463751028991
0.030433068653825
0.0508348451477983
0.0292486850447098
0.047758757024443
0.0546743849703694
0.0428324445877896
0.071020098651814
0.02946858209974
0.0240309271843165
0.0512022764673192
0.0434445206061074
0.0483478879783316
0.0819377029864191
0.0760184791940318
0.0910637320176568
0.0973859886918957
0.0255651261812441
0.0202019576171365
0.0457464926387072
0.0748111431468331
0.0931913068194922
0.0507426483258463
0.070018208596041
0.00185227854135889
0.0475683136663194
0.145849160823607
0.00738276299697129
0.100495981070373
0.00511785986415182
0.00211049347211657
0.0648391061313283
0.0582543509603162
0.0297869736459081
0.00927794498060633
0.0500235767869004
0.0956254121641003
0.0321499809096126
0.0311687925859768
0.0283411830144148
0.105449988061964
0.0307840481507445
0.0734738008468563
0.0967084422195724
0.0718559056077872
0.0467265568900274
0.0493392771301085
0.0444500209585081
0.0549616796137335
0.0202587731887673
0.0845333067314975
0.0281166307769873
0.0237445799009024
0.0564262429940466
-0.00587876585574437
0.0520315548987552
0.0464120562669354
0.0467008573963253
0.0754341972838744
0.0458171444663511
0.0789901774056616
0.0746618731093935
0.0420916539476726
0.0752001464407329
0.017123155744677
0.0966871700034735
0.0493828395049986
0.0222623868282763
0.0579584190997784
0.0761706129329157
0.0204110096619035
0.0457222226318404
0.0173011932262812
0.0482314636118696
0.0553558751174625
0.0501885122777837
0.0148906717437138
0.0580361173623079
0.0235834577185109
0.00336989914853712
0.0283261462682999
0.0466897910086199
0.0568635963124368
0.0649518787824743
0.0285661520891391
0.030120898033472
0.0795940375400464
0.0830043129338049
0.0498311012258689
0.0788881401343648
0.0181585974369473
0.0276179876442027
0.000512927220751304
0.0284353807285762
0.0242956910217705
0.106831713550272
0.0291872722561527
-0.00710186310480333
0.126026401823192
0.025673815930087
-0.000839727905507231
-0.000919093901528585
0.0716357482494404
0.0774469995751433
0.0494451622265773
0.0739303405501417
0.0749248419058866
0.0274638809332631
0.0787304737026073
0.0538965010897177
0.0371226315362723
0.030922765404687
0.0244188266220779
0.0523331446105704
0.0540695935510089
0.0477370265020673
0.0697696475586094
0.028027736666279
0.0707326728364643
0.0403269647472854
0.0818176710296577
0.0417949678019356
0.023439203270544
0.0503217299219012
0.132330875235967
0.100805186759792
0.0258002971152582
0.0762384042324871
0.0219855381408376
0.0198574074263736
0.0501800736500331
0.0251276045783809
0.0741602814164878
0.0507957065285734
0.0711072330450938
0.0225646793976035
0.105648786129217
0.0173166127610938
0.0747043095656474
0.0496447015561735
0.050364925189374
0.0257338276128228
0.0991408382405758
-0.00148319582898567
0.105241532678958
0.0547347106566222
-0.00403995036963199
0.104891200073495
0.0495958113785301
0.0498809136878154
0.0249090716759383
0.127548016337503
-0.00466036011966083
0.0521124639004219
0.0274012892109337
0.017987261673726
0.0715919638048902
0.0464099406523614
0.077948191164267
0.0985941425659138
0.0472339140688028
0.0662222851448507
0.0520891718786257
0.0331656752513031
0.072700996291468
0.0239588208178355
0.0345754765461255
0.0269787538791697
0.0229394331249205
0.106829055807948
0.0066381575617184
0.0772782570343662
0.123659314095835
0.0514450191267809
0.0165033722858162
0.0759759040695289
0.00734370654054927
0.00742227926629256
0.0948615465249797
0.0725045435452874
0.0959153898368984
0.0447919681619152
0.0496293131025944
0.0253346791303167
0.0697092536547689
0.0532819076934099
0.0573328098765579
0.0989759414973733
0.0237553211639962
0.00410799373757433
0.00219676008847218
0.047938506057982
-0.0052747979560551
0.0547988803328029
0.0455329598275377
0.0503529045207863
0.062375582609135
0.0769169982487462
0.0589514551604837
0.0814964317533908
0.0539230857640121
0.0132921781027534
0.0271475075193412
0.0595683483014783
0.0747006953127342
0.0947317918572711
-0.00254680891532347
0.0489937550640735
0.0509401562466252
0.0491682267829578
0.0345235435895559
0.0541046561474785
0.0786627591744776
0.0218937526321413
0.0677635776762612
-0.00753562202669399
0.0988138007560538
0.101189509031872
0.0856635504103454
0.10395225627756
0.0576085126615143
0.0168540328317121
0.10604553001055
0.0710943191870262
0.0262862414435848
0.0543842925409951
0.00552472880534608
0.0494951604232232
0.0195221808612837
0.023375915616941
0.0753183667979363
0.0322456449321283
0.0720512439288168
0.0084137275966205
0.0265711927229362
0.127520854808104
0.0200861093221544
0.0832321967680627
0.0536334888399789
0.0281347124372076
0.0489740684003815
0.0655136819317058
0.078411315985881
0.0483118973626837
0.0559619413240424
0.0503557101644039
0.0484704348025038
0.0476677329451045
0.0568571858829236
0.0676033861539638
0.0981144400214943
0.0556121570326926
0.0426738054963211
0.0592032600454237
0.0949178040417112
0.0264230420442799
0.0729662384258031
0.0233854001343841
0.0540188621742717
0.0747321895732948
0.0816547734395422
0.00207583595777647
0.0798832762875839
0.0454317250623501
0.0206872638878199
0.0721129844456447
0.00350380246690811
0.0893315228695606
0.0229433195494632
0.0458864261699538
0.0462783422929872
0.0990577913883638
0.0520482435053619
-0.00629412204644801
0.0593676684760383
0.0463458097010258
0.098813007074575
0.074625266644703
0.0464645009436789
0.0240018786851737
0.0500663435144194
-0.00179744985614997
0.0728940047376292
0.0239481062702225
0.0788540657937764
0.0240236246250911
0.00221139345365159
0.119209801797278
0.0517047264457364
0.0230997471688648
0.0505932590296944
0.105483290531485
0.103010466182219
0.0551111967391245
0.0512492085479063
0.0236855485807094
0.102793838675797
0.0375634230257397
0.0759914647903389
0.0182892215205132
-0.00270850294815629
0.0484623359668644
0.048943457256243
0.00335029475549139
0.0562915561683115
0.088753456913753
0.0557849156223402
0.0190459927258165
0.027624497043558
0.120737175593389
0.0237179255681334
0.051853431641293
0.0456819532811189
0.106345547818736
-0.0112041560021265
0.0181430684347837
0.0880529806054783
0.0120724273434717
-0.00389233704070123
0.0486684123947655
0.0748233467032943
0.0456986168828234
0.0704585109241947
0.0246290122799116
0.023014483837823
0.0278130707353353
0.0491583481536591
0.0664701640813183
0.0959000575056794
0.0266269544427759
0.0571387266155017
-0.00643135864103768
0.0472940562282464
0.0297921996273028
0.0168825656530428
0.0257643502746055
0.0198757610262084
0.0563187716667785
0.0259475492672223
0.0729344448494762
0.0755000224709582
0.0518962552259887
0.0681292514890158
0.0825598795546785
0.0464665508889144
0.0766443251174483
0.0261598199430873
0.0279677453848899
0.0277959319022516
0.0451366053626883
0.0267048450340015
0.0231764254286652
0.0236032725141195
0.0513813937990522
0.0289454953222042
0.108152105285657
0.125604562044198
0.0571668755465146
0.0197812202613734
0.0472889965069904
0.0301501212881026
