0.173880202665391
0.169386555050408
0.221517626226791
0.174223928412556
0.23010353300592
0.216593012335239
0.17654333296066
0.227347392704071
0.221693611776111
0.179379575867484
0.177128565057977
0.219820206977976
0.163950151091081
0.161573214333553
0.23061454044801
0.229906594435251
0.228231064629781
0.221218638278618
0.172513265902316
0.224641801977981
0.219080066728105
0.229448948636673
0.227497441123909
0.212891534837002
0.236956875491986
0.177678950936168
0.218262528243894
0.228768417278431
0.223947575352971
0.175648913965301
0.170249633684198
0.165499691638898
0.220918181108351
0.17888452425058
0.172815674033664
0.232758705333524
0.22532677571337
0.220323587233009
0.185210653873719
0.223282533173541
0.180408418364632
0.169624499905861
0.226688251127938
0.182229249750194
0.175124154582175
0.236360168197131
0.166366561245956
0.176527131819609
0.231441469655561
0.16809606908955
0.22852582538191
0.226004793581524
0.222353568681099
0.177975693081358
0.175744598940885
0.228380546201606
0.192775807602857
0.225113866967331
0.178472267915496
0.215004873936716
0.225177729308805
0.227929906294946
0.225089095663452
0.226961711278981
0.22868062669444
0.231741110470699
0.228682116094883
0.216549997818221
0.220549414973602
0.181858802890628
0.222043485480637
0.167481064364573
0.171619922684819
0.214790950417633
0.230881558797492
0.235145881876017
0.227749524495793
0.177456367724428
0.226478830250878
0.232316156741522
0.176347893500721
0.177689736998608
0.225827511454038
0.228850653531943
0.22605379909021
0.223749972410452
0.181483923240173
0.177187281766817
0.22540672399948
0.223060821963284
0.234179693238756
0.227780436181304
0.224280645950338
0.182631832878267
0.228308541101438
0.223621416380379
0.224393085013042
0.222102683845368
0.231401697409614
0.175637071007184
0.22773293398788
0.232958368419525
0.219142775754099
0.220176407488981
0.221069912554295
0.22752401348301
0.22190894557542
0.224831206059211
0.222835649311089
0.224062089461295
0.225498171165589
0.221627331990051
0.176835610961998
0.167402763533968
0.227994612497739
0.219458044372406
0.171919482402396
0.220068702888047
0.224212830251435
0.225012895114425
0.173702606257493
0.167869211486413
0.173286455513122
0.180347489501186
0.221509232808806
0.231288099961375
0.227640668390168
0.22957648969464
0.223679878603311
0.225545031878328
0.175479104341978
0.176818731973983
0.178927910200764
0.227862789893705
0.218715607434429
0.228603720489784
0.169101104195256
0.228863262238153
0.229092969156675
0.17200550347242
0.241259205196618
0.170659193163795
0.224136339928045
0.222299935526395
0.168954857377515
0.233262748760738
0.224565028793044
0.226050285756423
0.175227268610562
0.162175776754998
0.223582169877569
0.230395049822274
0.232022973625864
0.229085962296428
0.167750163370798
0.222741666068795
0.223472315569209
0.166888779940235
0.22925466953508
0.225956043966966
0.175631453419549
0.16839179966524
0.22449325563338
0.215623774939013
0.229674840126957
0.226026812461292
0.228730441306624
0.219521382362334
0.222162457481374
0.2248216703977
0.170123112631568
0.220851207315209
0.171518778588661
0.212893252951348
0.232079439466236
0.226768664213147
0.217039995150688
0.228217139345878
0.224384300804498
0.223200670551482
0.226012517518359
0.234522062033063
0.217949399189417
0.222980028689744
0.221722972595739
0.179911436344719
0.227101885906568
0.221673780698002
0.2228564410434
0.224259710400606
0.234593418101171
0.226089001836453
0.226121987236407
0.178752598228755
0.166068607752313
0.230534288349574
0.225070194392372
0.176892843623165
0.227057661412457
0.226076645039915
0.226910495573816
0.177724757277081
0.232176675667255
0.231228263295211
0.175596390572326
0.22732762698145
0.236176563907391
0.17288561895078
0.229870928604028
0.214174447257673
0.219146684953771
0.225190282499197
0.228335202702635
0.218804765338678
0.186199355197886
0.220852296954517
0.169936563493087
0.224158113247592
0.215620052901332
0.227631289041094
0.212277198600535
0.175931239589735
0.218271560547517
0.221340610135663
0.227313078973142
0.169834881059257
0.229202881077056
0.228134380918663
0.224859774660203
0.230005704303372
0.224879486061794
0.223793614479194
0.221971042281356
0.175404166236776
0.174837309517249
0.221478602845516
0.229567588131055
0.172822057385953
0.181497278805666
0.226470735911315
0.225341304770461
0.234471038680339
0.218764372293031
0.219620810160298
0.228187870568095
0.232351274249643
0.180219505458653
0.227484578748896
0.219192772201972
0.176356311831417
0.177915186965312
0.149393056105257
0.174231806110828
0.20155504608842
0.183511532070803
0.147764771687129
0.151946771214256
0.177927094472202
0.167824464346291
0.182998849936071
0.178765393725632
0.206130899153482
0.146229580928601
0.158592243429705
0.159667277173273
0.167773470823815
0.170362241483038
0.198189094591962
0.151316767543745
0.207725257998982
0.165239795152544
0.198905319558856
0.177091057135568
0.171150897880035
0.155916576575051
0.160262634790286
0.205612353375545
0.175403303922871
0.142325206787608
0.149920242049985
0.200217278714454
0.155924596779406
0.177142003807695
0.20365260518283
0.209356194768417
0.175488815871803
0.212393342564267
0.148382503369376
0.175923435892176
0.176565870771458
0.19803812566702
0.172897378672674
0.201682623549922
0.197202715131093
0.207009477246361
0.147121058402125
0.177531813687189
0.152685049209146
0.17174533542151
0.17494000178473
0.206943492151547
0.178117636463856
0.147117276156643
0.160151064447872
0.171848284199362
0.125046584850215
0.208091241703591
0.200718291084469
0.204561161899137
0.203063933573521
0.177486306505591
0.143892863421488
0.1766228591473
0.174690818061566
0.163780402785904
0.201607038392854
0.156896726231394
0.148649116925076
0.183597538106064
0.191315394460342
0.198424363841067
0.172905443490961
0.149957110559064
0.174406693373039
0.147697403685721
0.174009756137964
0.155655078305566
0.147938167243288
0.202713435735078
0.174990904385442
0.17520034772053
0.20096109881166
0.130035027442831
0.148992708255092
0.171937805362279
0.173060908770717
0.174490760212986
0.178198227755557
0.169447323722432
0.152870133572656
0.176697734364046
0.17461422861526
0.211473124565786
0.145665308118052
0.205464338177214
0.134438663651713
0.170329499020806
0.154779140839361
0.187105779086441
0.207895177174662
0.174524919102901
0.178817041618629
0.178357266676925
0.176160488730042
0.153757013442029
0.180677650810156
0.177411409652587
0.153955735740061
0.14835335635053
0.195703667370501
0.20145363830125
0.191920036535391
0.169725325271647
0.171483274023498
0.1548817072288
0.153888896328833
0.205056148862001
0.174775093981199
0.17333278570109
0.169575128890074
0.14924696600221
0.203121981049685
0.178775955791643
0.206087936905945
0.19607799687603
0.151723222802807
0.150006591364915
0.171857696315836
0.147052756479371
0.160642341543501
0.139687806576315
0.152333192111594
0.198046909952553
0.178889992356084
0.179985477740815
0.147266618745378
0.179204151848457
0.154093594492993
0.167001018892253
0.172801673979903
0.195917545427022
0.177624067490454
0.151288215267174
0.128920929327558
0.172660395544081
0.152259212642062
0.207295812068367
0.15403674032846
0.205040931581809
0.173781973717058
0.16846330436412
0.178657012333478
0.193684063766143
0.187203993027013
0.154482452957656
0.177360113084868
0.17399981336958
0.182100783675826
0.147836807209355
0.150672615866236
0.201056144194761
0.181212534426758
0.150339631371498
0.181270100071759
0.207330534440107
0.173745189710127
0.142537374548513
0.141591184797
0.174703123063909
0.178346167547544
0.148949367420078
0.192064945845701
0.16862937528574
0.183907059902371
0.201587582950264
0.174915093681152
0.170748419119792
0.178377184247918
0.205790144214752
0.16428933717455
0.172785847861907
0.176694196727651
0.148751259152719
0.175955960345688
0.155345678766216
0.200051519996622
0.196505125296364
0.178788617756154
0.180735283773866
0.174579944554881
0.14494436293793
0.184687264012073
0.172159043489988
0.195613352219006
0.185758663584926
0.156847620753149
0.171527267564291
0.20018919891589
0.175014871799881
0.165104132563371
0.129107940885914
0.201019219444018
0.169407115715895
0.151883747687249
0.143447995207786
0.201832729630002
0.173217323629977
0.146199193407243
0.143740456641187
0.12317355664638
0.1464412189593
0.166974309415701
0.151672121498932
0.168769518803649
0.17774587829617
0.171163031849881
0.196020987055774
0.182239397718844
0.174933862778583
0.177572902865087
0.145353334702525
0.183880700719295
0.17769071399985
0.152975517384842
0.169950555900456
0.172153512360913
0.139158208660037
0.204298529163056
0.122983306368303
0.168912323834082
0.204478174308223
0.190057138973642
0.15073703163448
0.181570371294662
0.147753529883856
0.192372561664765
0.196969711969354
0.193908960714126
0.182949844314897
0.144634976004772
0.172783215675284
0.173305286403089
0.127152875311526
0.169502922860099
0.146840732446804
0.153290187347186
0.178380093799841
0.200144001170915
0.145374367478654
0.147258402370138
0.0214784813679143
0.0506119232430879
0.00348933314516921
0.0145345864655809
0.0263600310849745
0.0279467252216767
0.00605158657095275
0.0274760923057239
0.00141741604321618
0.02432761673933
0.0260927800837107
0.0258045025566955
0.00117812151281699
-0.00592612527044722
0.000479684176195146
0.0307804922603321
0.0528698296511159
0.0260846827501801
0.0278109038789698
0.0564058154901077
0.0495596299477176
0.000883245754894727
0.0218035967316769
0.0242173056784063
-0.000906169451364425
0.0545437386202793
0.0209099055008559
0.0457555705663731
0.0149112148017092
0.0183634684716472
-0.00334282491575159
0.0328959564292974
0.0499932560029852
0.032990832490257
-0.00623592320439481
-6.26831031196365e-05
0.00405025469498206
0.04781685310367
0.0336770157131546
0.0224465019811529
0.0573780315499679
0.0313293733126316
0.0466218972287695
-0.0035449615027217
0.00139417377375383
0.0125775047736882
0.02291362292444
0.0207474014979009
0.0217973661006351
0.0306938519870704
0.0284250130591334
0.0228744890918382
-0.00409680476063833
0.032986229467676
0.00161698830647065
-0.00881417860247237
0.064414513036119
0.0221810539214579
-0.00517790739322065
0.0490444357349662
0.0281234121318292
0.0235998089924839
0.026095830833376
0.00334217409460468
0.0510334696842487
0.0190525653715717
0.0317131945628197
0.028844945091059
0.0311616739788292
-0.00778957794057338
0.0456302862278214
0.0714922962675141
0.0335021732964008
-0.0073961037800413
-0.00469171411046667
0.00406374047576026
0.0437140764733447
-0.00491376934495407
0.0207863117773246
0.022756803513311
0.049862937954092
-0.00814021238306451
0.0213525337704254
0.0578090776647182
0.00660964965928771
0.0186045575874775
0.0753054333334044
0.0569937968040793
-0.00444019304734955
0.0275594558258755
0.0289487088775689
0.0283495758147873
0.0198463503126319
-0.00509204639271633
0.0510091986750937
0.023669022085405
0.0479730537936013
0.00481464090798395
0.0183661461517303
0.0504663290132603
0.0147609155998644
0.0248510886014298
0.0319176728360803
0.0608258854998822
0.0699857363536803
0.052567791801568
-0.00103454738767829
0.0306520625785488
0.0228812927274292
-0.00441389244192465
0.0610498968416965
0.029720861371622
0.0555563676536785
0.0750884775820168
0.0520219801568386
0.0253721244658058
0.031195538250886
0.073056971246252
0.0226921385730445
0.0489815474675119
0.0561230499819697
0.0275196965115773
0.00353068670206492
-0.0020904187792575
0.0440628199197058
0.00118753504678225
0.0261134343920516
0.0506490789151156
0.0413516756374385
0.000131689657957873
0.0337197288004525
0.0265155694319153
0.0274656333958249
0.0457923696093069
0.0197582835356166
0.000954887563736652
0.0500273126551742
0.0155453021611837
0.0172086226935912
0.0281681995598406
0.0626432636102722
0.0232486275528657
0.0310058156388765
0.0233487962412033
-0.00285287882824116
0.00544589540070324
0.0183707215472945
0.0276312306163706
0.0247965004990941
0.0184708098708123
0.0180306140573808
0.0205447172360435
0.0193648032829541
0.0235954956789675
0.0237607461008732
0.0289767904705278
-0.00445304819501927
0.0468902978917793
-0.00884701130825671
0.0549237481862811
0.0726776126716601
0.0435496276521803
0.0290404091626096
0.0689539651502564
0.000747071019118004
0.0333719576660691
0.0310451856327185
0.0538276698046079
0.0511381438748617
0.0577384073488139
-0.00836509501357828
0.0492646569927736
-0.00681849014542111
-0.000169672294951357
0.0175145861853271
0.0761190311624147
0.0342872577645268
0.0233524502233198
0.0216030385262275
0.00195997665875966
0.0345448468919063
0.0111480737542742
0.0511142428163693
0.0475802000241417
0.0478129277717289
0.0457255650680552
-0.00173194777617225
0.0291446299727674
-0.0119591150529465
-0.0031452866837213
0.0313560735904933
-0.0072137769745689
0.00468062824636178
0.0242506589899414
0.0284580783925691
0.00736570532569457
0.0258660445693123
0.017528647686062
0.0483259694189344
-0.00149748932629141
0.0273835575039319
0.0127809967294705
0.0496009663612719
0.0192908087897735
0.0239529807073206
0.0257353631643813
0.00721779772336066
0.0240153151712608
0.0519006377457539
0.00342145847551594
0.0200166108774242
0.0232384998434104
0.0207616321823045
0.0589108363515978
0.00130268565977316
0.0531864496678438
0.0263973102271729
0.0275450123817774
0.0280327016344928
0.025019241700191
0.00364862080945745
0.0268388401439176
0.0608540585750664
0.072763341087083
0.0248952208124563
0.071179609526183
0.0529391290845703
-0.0070104690516992
0.0251631671206609
0.0252288598172792
0.0305330524320686
0.0487784243151968
0.00347638033824414
0.0281361361579218
0.000313439173491276
0.0274778859529398
0.0258080378351213
0.0424239256833565
0.0467501865167928
0.0560200334952297
0.0517073072400365
0.0323778522208177
0.0170798513547892
0.0308953435302021
0.0236804951310492
0.0281810150074407
0.0228779929353891
0.0188934022572221
0.0286664418985379
0.0313209002472698
0.0239105307845393
0.00430372888602978
0.0275312129811672
0.00775761579163589
0.081186781401609
0.0782132799867262
0.0343425920337006
0.00655646856366902
0.0214591679486565
0.0068589389395719
0.0259866512306522
0.00149724522376045
0.0208861695240809
0.0240008702789139
0.0274125307130102
0.0465377524504581
0.00491602502643146
-0.0010808670599372
0.022572992890861
-0.000604617461769149
0.046220994781743
0.0560595076571591
0.0358676857536887
0.025767036306455
0.0541012869748435
-0.00473173141395958
0.0558470217293794
0.0191568073709815
0.0540757038152893
0.053535068197183
0.0244371769228733
0.0172173027105271
0.0287221911632279
0.0574893563828626
-0.00534991457197176
0.0188110280233311
0.0355123852640028
0.0253368331841195
0.0243932092670154
0.0436925845785676
0.0184964054377182
0.0820309426834891
0.0181527705240174
0.0274335927714728
0.0316562508971819
0.0299899215233395
0.031878823850703
0.0324646043934754
0.00437608808688839
0.025212189512203
0.00930537123566551
0.0562421303117435
0.00425580517684692
0.0203292739011183
0.044118010712042
0.0288071652374482
0.0218326311997715
-0.00322555532725306
0.0221133181965784
0.0479545085100067
0.00452346861923641
0.0252430949302098
0.00641533793245713
0.0205673281845587
0.0488477005821552
0.0211961536897733
-0.000450240532472294
0.0254438099882844
0.02082033026523
0.028087043122272
-0.00685775221652698
-0.000742641410160276
0.00470773669868446
-0.00356198111565276
0.0238548202845833
0.0224761839923535
0.0473325454959191
0.021091140970618
0.03355326083338
0.0212421073950636
-0.00467023042870507
0.00830635317337982
0.0168704451066468
0.0168202792125463
0.0736857170137025
0.020797521065663
0.0476129786817998
0.0187084267442585
0.0447677959997193
0.0585378862873314
0.0260349571020578
0.0219161314342118
0.0767059751289513
0.036711198953905
0.0293855321123949
-0.00325166472451312
0.0160749553451367
0.0274337663798568
0.0317189593202296
-0.00193359688570417
0.00222674546866646
0.0277278420263036
0.0523847408045582
-0.000372425474718601
0.0223497875400355
0.0368645454439458
0.0312357114134695
0.0277762425322804
0.0428879416150924
-0.00145729983882442
-0.00342412031108345
0.0240995742521999
0.00311352157020552
0.044285408183975
0.00540298325374563
0.0544709972766072
0.0689652681748827
0.0694588435050685
0.0571458116286125
0.0503238747882127
0.0260229664086929
3.78772491143999e-05
0.0271729234706368
0.0239861964636908
0.00584943701601078
0.0229271705575183
0.0041910115590181
0.0231081400422447
0.0562971063864229
0.0175841125667833
-0.00560328061634758
0.0252910966454631
0.0505365623630832
-0.00810650253924487
0.0541411554849559
-0.00084778501524068
0.0190971485744354
-0.00649117345673247
-0.00225034121783536
0.0228731605758035
0.0504376205527485
0.0278041191480567
0.00508578694093044
0.0214181258192108
-0.00699733987696465
-0.00257287160449589
0.0213065384328168
0.0492083723815919
-0.00302816089003658
0.0208559851873335
0.0132053338118094
0.0204120722474442
0.0420050505540128
0.019439013135396
0.0256027489470087
0.0804585942696169
0.0792027379564634
-0.00236036905648353
0.020322856586684
0.00209489160022383
0.000605757621843507
0.0188782054673849
0.00117451787853023
0.039645880543861
0.0551980528320471
0.0517918245896433
0.0494113374739045
0.00273507399810583
-0.00633428687842443
0.0298749242207169
0.0484517956690515
-0.00722024148792022
-0.00157672790669068
0.0233520896176561
-0.00414692078668035
0.0250118824327811
0.0498023844908663
0.0208210245611984
0.0220000949239801
0.0103160968386334
0.0505149720842106
0.0464727164539928
0.0246103673578903
0.0297221999955463
0.0521935389451266
0.0859302301875226
0.0325421925699256
0.00198488237322484
0.027157788718498
0.0222868293294161
0.028215543598575
0.0280561822720763
0.0290428293694432
0.0291244178802769
0.0545423515499864
0.0270454881816579
0.00104673973231719
0.00103097673981239
0.0266601958612517
0.0200339146951304
0.035057941109465
0.0249954595410269
0.0463190502378151
0.0193350431413741
-0.00214001902340376
0.0510843133223044
0.0309272565685618
0.00691572637502528
0.028340731128256
0.0259274378967318
0.0737628298977951
0.00523037159271067
0.0235253336210062
-0.00672881324697508
0.0204689682842382
0.00353298519309021
0.0595650426173965
0.0222700262125932
0.00151446213454312
0.0478124004841145
0.0271585514900161
0.0148686328513318
0.0732538754405148
0.0692303278809609
0.0211207386786635
0.00243179192118231
0.0170673128278259
-0.00106444801224421
0.0338029520432239
0.0449332493552846
0.00102437195075256
0.00209826899802535
0.0283614345963574
0.0276139200225585
0.0213083736744447
0.0203002401770871
0.0205794738442468
0.0748831741890227
0.0479324300341777
0.0407474206348164
-0.0039423555309357
0.0467484779169799
0.020970712898083
0.0523665913672264
-0.00112834989578718
0.0348814205343351
0.0161650610019713
-0.00537944152697735
0.0325364521848431
-0.00459251424109189
