0.223058123532795
0.164029427675994
0.172698542455897
0.218217482174676
0.230429761045341
0.224726502817596
0.21839162232903
0.226873271595079
0.219105300477176
0.176978333269685
0.174471322365962
0.233376262339624
0.225262639359454
0.224673080778641
0.23000730562797
0.182471090872692
0.182547989680624
0.169665252075276
0.173894740816837
0.165836467938718
0.216645525505122
0.214846110339708
0.175306955513423
0.160471636087224
0.230562965328525
0.221087907733013
0.179773406192193
0.179571190159188
0.180951100493839
0.22542590333691
0.222276276066492
0.226799272824295
0.216981169183384
0.226965370266507
0.220350813363922
0.227598828799139
0.226403765519171
0.170646511542028
0.18256290385122
0.180527228257302
0.223114371162731
0.180449734085759
0.222480897573664
0.215242819709109
0.225780600593615
0.228061926922464
0.218268732538308
0.223912273582271
0.17379269892837
0.221407182584882
0.223512530559246
0.219693168216782
0.176656542140861
0.172277626766637
0.176200281832554
0.224501527252964
0.2348934617416
0.173728179583453
0.216373242987903
0.232158617959984
0.235584287794011
0.230350467910918
0.168492152999648
0.221636913295998
0.224221685522911
0.221608110066745
0.173610014105984
0.219314916254177
0.223425145228479
0.225874825235558
0.228352440772699
0.17109801041266
0.176889232049848
0.230362247168384
0.172099763321385
0.214648599757739
0.179089515505801
0.219990434572956
0.230279179317506
0.1775922708048
0.224239388157104
0.233182582661378
0.227066077983238
0.171301093735712
0.169215008826807
0.222629128467143
0.225505236813458
0.180413015860555
0.173489867786074
0.174053164386738
0.233893280542003
0.183273997644727
0.226042350338104
0.227367934417239
0.174826177044545
0.182914479041751
0.178658398129588
0.221278762122452
0.173126073165506
0.221090678707886
0.230518958883367
0.212434998229923
0.223968003487807
0.175051363579048
0.226040761652986
0.224566513163595
0.221045026159992
0.222102098233005
0.17046576182516
0.223977444725255
0.241815262345575
0.230757096720317
0.221771779939788
0.21695929687819
0.174455538992984
0.174592050038809
0.178427817929261
0.1725038853858
0.231229440253992
0.218397356293999
0.22136267919647
0.222429874475041
0.178554627238297
0.173452426321453
0.228970587522743
0.168439573144724
0.224891158820373
0.172799679984569
0.231015717078352
0.220263225179226
0.223449517719274
0.224489470913845
0.214400066184134
0.234572786005894
0.170782098753078
0.173974663110169
0.222599047813932
0.226716628167037
0.175777491696624
0.22217774882356
0.210302761349806
0.222039472391346
0.231142885430715
0.231286875193314
0.225752820248639
0.171005487277451
0.226836794712411
0.228027764034647
0.164694708197117
0.179004360839686
0.234211607172358
0.216580223757833
0.230658682695754
0.169441410434595
0.225700430948185
0.22474182564274
0.22733808763486
0.23374536783973
0.231271961913433
0.220948327692337
0.224629107327002
0.2292493045051
0.224958544892251
0.177547586999804
0.220235555962903
0.218603681276143
0.229753861869156
0.230404362979141
0.232899156173577
0.21736063544434
0.231275737809862
0.224936349562087
0.230070179161153
0.232591096919224
0.220428766856162
0.231925307577134
0.177963782654832
0.231628446905518
0.164328637054862
0.223554138993318
0.241243312780459
0.225398230640102
0.220576556250159
0.175705459440395
0.237827136286352
0.22953668389236
0.166633899781489
0.228768175926589
0.227639030330887
0.173459496102034
0.222722749010434
0.225412636424531
0.228367061117694
0.228788253684177
0.229642596016023
0.179278286362041
0.223997453147074
0.21898581085823
0.226163778899464
0.173159816117669
0.23259941328694
0.225988766734999
0.233786611553077
0.229420371793744
0.224462702710463
0.229592829884511
0.220574383991085
0.228845467845002
0.218154633437088
0.221351431512822
0.182104737469485
0.169095592119848
0.214988831838045
0.2295522718735
0.214579945612237
0.221260889772136
0.176790769255656
0.224695706186925
0.228642270606095
0.175420486479433
0.228762923941789
0.228543538583557
0.180230733848647
0.21806210921905
0.224417094552398
0.178621837901635
0.225330508516765
0.228586755393541
0.233873693360505
0.176666216105014
0.178514176917958
0.171361669214049
0.224402895131987
0.217275180401887
0.222629440621002
0.22438552292657
0.227050513948251
0.179782296624926
0.222031777198461
0.229598704905302
0.222056625548345
0.225659245250284
0.174637554728497
0.173773590916056
0.222282680943365
0.169443655861085
0.228033186727913
0.181698575148883
0.176213746810295
0.225472384819947
0.0982634341598428
0.127797617741534
0.0978481271032759
0.129093943076218
0.137770238668903
0.132680972394398
0.125398883250146
0.0951139521053053
0.127147845669927
0.104885144641365
0.0990054259134504
0.102404788177227
0.123402043058898
0.0949788489745186
0.0960282149764748
0.114247760328301
0.120614957234471
0.133140459204339
0.0952691537674391
0.0977920558131101
0.10060357108111
0.0989877570998919
0.130129809088276
0.128361907803659
0.0995136374789688
0.124890950175806
0.136287273148202
0.101675445361436
0.0982217983175386
0.127795796879397
0.131803142058133
0.122082077419528
0.123754826376656
0.131670727366161
0.0975800441792569
0.126870654860059
0.120939671984115
0.136765938852951
0.127716411909614
0.126498015047705
0.0996516793803558
0.122694714718849
0.101808458489038
0.095705224635158
0.127466156909736
0.12091994737051
0.122618874256755
0.0948119920607888
0.0967659706261679
0.115468723420648
0.129704436908473
0.10022581658945
0.0948765746601994
0.118350853362957
0.0966426355557841
0.119835545569252
0.100328075700795
0.131930148797287
0.096752008138378
0.0975382261670206
0.0988454739708844
0.104470262699655
0.117908991062627
0.0993261737096376
0.102583226788942
0.124189793692984
0.127253735332031
0.104073601426757
0.0954224878115426
0.0984082856077646
0.0967232566507984
0.124840189670037
0.092945126266195
0.122417676465012
0.131752291262859
0.124200461674175
0.128443467068079
0.116759558737343
0.0957279976918651
0.0963230857374616
0.118156979724977
0.121665063139877
0.0992812976250754
0.123329910999508
0.12891888700958
0.132150869151744
0.124489823152985
0.10256645066194
0.10926406082326
0.124030287050623
0.0997131285086995
0.116267698420377
0.109837564957046
0.121771282042688
0.0921030942965652
0.0952162354230475
0.131757603509971
0.121091510558662
0.10408231432028
0.099674429566414
0.125058254121673
0.110854688207999
0.126636575201623
0.121710239431509
0.12576282358349
0.0992102369018129
0.129986490280142
0.127024913261124
0.116909081250651
0.132038116253039
0.103786099084117
0.104293354148318
0.106223068136599
0.0903276504986382
0.127725806227369
0.12480495763276
0.12216898901989
0.123328808014558
0.100058729545488
0.122813550161032
0.097734990015142
0.110106539446235
0.0961504832385692
0.123523047418696
0.122745536321663
0.125506100769093
0.104531444582005
0.105520741732477
0.127238311730141
0.122590128604157
0.111455952985001
0.104653040176971
0.0958088321857928
0.107253686019722
0.103959587015482
0.108665692986626
0.119585466915012
0.11999847927959
0.133516962808467
0.0889874929716435
0.102484410944903
0.0980975240916906
0.121249174178047
0.0994617152327308
0.122637701742831
0.123450705671772
0.127670291378214
0.128166025964991
0.133392220411872
0.124996210002052
0.0955706216124345
0.0857959169805021
0.125679386825274
0.101644118698748
0.107901152478649
0.129109281430967
0.106226300293666
0.099947630354427
0.0975807359765416
0.0984003760817088
0.107350131430248
0.100600783221854
0.126130280269895
0.102009515096811
0.107469097715898
0.129827543488143
0.0973230582248699
0.0997585360894638
0.101098940939519
0.107825383571523
0.0958938207815565
0.127834875399463
0.122981765528685
0.101567243248778
0.123906654956395
0.126732002484092
0.0979557283404517
0.100362287458356
0.124928000016899
0.106492862803311
0.0984191677645906
0.127529900172345
0.102315045270811
0.103677254307225
0.128104717353453
0.0992374119704303
0.0924323401031262
0.0986456157462576
0.122799050460867
0.0969210057218177
0.105924134670177
0.102724331762048
0.0927555768878058
0.113975347486651
0.121934642998986
0.0966913577808979
0.105907869820923
0.0893254397991289
0.104438421889528
0.119881619716123
0.13338113771166
0.0961587808582029
0.0958190334890469
0.100052077376505
0.101497635589695
0.10251682676416
0.0954557441470441
0.121696845946944
0.0993756591084225
0.101846589402543
0.103147016732583
0.128206782484893
0.123436589834344
0.0940639889907834
0.0924295271670918
0.0930113079337714
0.0980488707783108
0.104845610429042
0.100495246060969
0.0995101493405168
0.0966806653372891
0.105509198196479
0.0933668949761333
0.0975496895804413
0.126533085820786
0.0954164951362922
0.0909634676622615
0.10183960418997
0.121167997292165
0.114787746435899
0.103712942627147
0.10799466854232
0.0965109046063393
0.104120106724013
0.110407363825128
0.124724813947992
0.0981621930206825
0.095935535322464
0.119354565731482
0.11724574272955
0.131725033987168
0.116870369079997
0.102014179201474
0.09668654223549
0.12470252918506
0.132303242574523
0.128703204469156
0.125440601822746
0.128175398076378
0.0941178265353428
0.0508165180340479
0.011059546794173
0.0198144106840078
0.133351254671125
0.0352808783158443
0.00255958077974145
0.0109801143433227
-0.00342481870001671
0.0463548816736283
-0.0108806239158658
0.0328612580129869
0.108178987234354
0.0531895474126845
0.00953817531105599
0.0522098143644179
0.029617799600988
0.0546288460253772
0.100396970526874
0.00131523160085834
0.0744650750050714
0.0252082587295615
0.0471808846621621
0.0225877825843407
-0.00184674906857636
0.00721734786434173
0.000124034891688117
0.0250099014297505
0.0376543192456269
0.0456639717451699
0.0251556792365721
0.0521777121770083
0.0689041798589654
0.0402760437034514
0.075965527145113
-0.00331626856289754
0.0987069062082114
0.0462802299243303
0.0214689972445576
0.106381277318073
0.0523991411295538
0.0217834211849744
0.0230075817310546
0.0314312220317569
0.101698252804777
0.0311150938670285
0.0800833641148507
-0.00193209020959212
0.0228211368232426
0.0449747049286546
0.0540496077377855
0.0217624988524792
-0.00362123678184964
0.055628404817833
0.0471363095727311
0.0468802808933498
0.0278565770685836
0.100167022104011
0.017978054798334
0.0712410995178467
-0.00650754437876072
0.0274667042230311
0.0993458739259524
0.0124046797460931
-0.0095673636074067
0.00370075591361742
0.00094108950216383
0.0507681355804915
0.0564547255431417
0.019061730982628
-0.00381346370687616
-0.00499544735527069
0.0576232739089078
0.0481812534923735
0.019873863593058
0.045665399441529
0.0498865760241993
0.0491988242279161
0.0208965489986088
5.81044461225412e-05
0.0244824381323312
0.0977750271478836
0.00292952322142357
0.0279310126794844
-0.00253720087934132
-0.0010844529618554
0.046668137536711
0.0970622460040051
-0.00399955834610061
0.0235286566068969
0.00414543104361569
0.0508973009229444
0.0506010244593942
-0.00325186970562649
0.000425128198574075
0.102784833325702
0.0443374936353983
0.0695553612935802
0.0705862312278298
0.0502514583406684
-0.00650311652743416
0.0231461028228608
0.0032341137589801
0.0198516254606369
0.0456916992080229
0.0282683001166984
0.043905845098701
0.0698461463748815
0.0475146090208185
0.0645840140341803
0.0714329250068826
0.0941925873905946
0.0741587206395848
0.00320762306970017
0.00199683719310705
0.0660971793500744
0.046968038959484
0.030118775429566
0.102550705052811
0.143943962928549
0.0290006181634515
0.00988979184963172
-0.00588832397189192
0.00498422959759106
0.00568059065590323
0.0736577982465998
0.0524308728875755
0.0435111012162128
0.0199725384123049
0.120002315278972
0.00997132482112595
-0.0043538428720889
0.0796337721949306
0.0512628078014219
-0.00298883786441574
0.046223043873887
0.0526004252124989
-0.0107564750505463
0.0935448918973859
0.000854683837437946
0.000424096977088012
-0.00310613493054703
0.0389543401429151
-0.00790965900334353
0.0434811035203578
0.105885930836937
0.0756482439138058
0.00253211331790752
0.0897944380546342
0.0652073911207285
0.0761768104285143
0.0185931831479628
0.0419343878871048
0.0775425982172039
0.022709423710852
0.0664424775074361
0.0666025898723271
0.00570955445981766
0.0488818246638291
0.0522344058402879
-0.00538774394959709
-0.00468766205546414
0.0458709084405328
0.0766379342832148
-0.00762932171886096
0.00380138544401591
-0.00457092750804994
0.00312507020175936
0.0494113914015135
0.000324348451395359
0.113651910659331
0.021986425602141
0.0771361591440606
0.0440209045329894
0.0244384423212122
6.79470759315379e-05
0.0536198971944453
-0.00260497752638471
0.127252532243318
0.0249837985420944
0.0743934962032438
0.0788974884726276
0.122574280625376
0.0477894687720647
0.0497158915513491
-0.00336164613390053
0.0707957947374392
0.105987274743667
0.0113053901927028
0.0725558432825417
0.0785457450571511
0.046868892969847
0.0527859557126537
0.099516821333792
0.0191475825700769
0.00366268876950349
0.0681375785418511
-0.00194025226930789
0.0616143163409829
0.0289125394898651
0.0795122679368473
-0.00992351656960531
-0.00527811318438045
0.0485973987432912
0.0273134801351399
0.100844538867489
0.0466012583046227
0.103044467597393
-0.00462219433466033
0.0496078241983775
0.00223812213654246
0.0532436081193986
0.0219257482632841
-0.000861709531574466
0.0766913890983735
0.0509394479984412
0.049167966762067
0.0982145186053644
0.0499300749515649
0.0230676109716662
0.0767070853699873
0.0315045620900746
0.0576358469001539
0.0576777673350816
0.0444484052831736
0.0776389229771345
0.0509996457383275
0.0726764766442815
0.0700117698540173
0.0214847166901312
0.0744078352711147
0.0764410133858597
0.0540477106424202
-0.00182048014328331
0.0724183860204091
0.021027462733538
0.0665273929960775
-0.00101298036045907
0.0788233897821332
0.0530338312884323
0.0463850068336204
0.13244288404494
0.0701734365849877
0.0815843120619393
0.0079720934734829
0.127345782807887
-0.00297640731319997
0.0561498241681154
-0.00159018417979079
0.0480727953601305
-0.00101959097399483
0.125315009413688
-0.00663653525726985
0.00654215440525316
0.00102387466597398
-0.00749141325368242
0.0184513476070445
0.028305486235135
0.103109763397206
0.0754959859485831
0.056889172653319
0.0233718414315055
0.0472813081007918
-0.000427003769221177
0.096319598454911
0.0463527505854731
0.0581624521266592
0.0287692556360172
0.0441468339790221
0.0920643260991794
0.0247469146587741
-7.10335938509706e-05
0.0538892868427767
0.00388612412146678
-0.00181858204968057
0.050978854337763
0.0636319726720379
0.0301994602270704
-0.00112089464871553
-0.00278783553692659
0.0163859261461495
0.12150829440725
0.105928794456306
0.0278264339824137
0.0710502586023885
0.0557152711489351
0.0266985929553098
0.0317150274540976
0.0728056669390064
0.0474579932019217
-0.00896794080031633
0.00830730995526838
-0.00291655593380529
-0.000466727311606381
0.0273744877189331
0.127062784400535
0.0451980647902831
0.0440010591870684
0.0466289198193674
-0.0060209515375504
-0.00574849114104523
0.0819363269030643
-0.00300182496534492
0.00867514894640177
0.109351976402035
0.0456624937604794
0.119303363057991
0.0209299269357683
-0.00322982688636221
0.000607011721905389
0.00292224935621005
0.0249013944391566
-0.0053400150066895
0.0107740463613739
0.0486901970527337
0.00146568557842185
0.043233118291486
0.0544884915776415
0.0948226409013532
0.0469546599639678
0.0487792885158387
0.0103290349336339
0.000558375064377546
0.0927705528010171
0.0780762021096444
0.0946588587287005
0.0513460425025787
0.0847000302763017
0.0771792298396451
0.0237650613353224
0.0791130665237705
-0.00143865200853089
0.0486216181904606
0.0998639482580667
0.153242277733984
0.0510440377099491
0.0559961120915764
0.0408359612030591
-0.0013130026310186
0.0619763011498356
-0.00764544228394255
0.0234149835813904
-0.00450342828665648
0.0224777396798737
0.0483680343573731
0.0738806442903818
0.106863701067175
0.05591967963103
0.00651657693030059
0.0531346583732394
0.079618233059837
0.050493537639769
0.0519429978085214
-0.00751245391506439
0.08268436803639
0.00440740071191155
0.0834251323164187
0.007470048490133
0.00269549269029309
0.0515303264580056
-0.00379402677142751
0.0438995204594962
-0.00574862843142678
0.075810325342169
0.037565580972706
0.0264215048247189
0.0740620431829526
0.021304103105335
0.0269731162241592
0.0729244432164828
-0.00479175237677519
-0.001805651249992
0.0540919750171299
0.0713271641916
0.0547896152708856
0.0551994905054803
0.000432050613962743
0.000727023853376632
0.024749616739766
0.0314196326720013
-0.00236550675011475
0.00114669076524585
0.0447528735008394
0.0692946828254159
0.0467351017674637
0.0040956825940251
-0.00557958015588378
0.0125924515069116
0.05164830371382
0.0250303194916817
0.0242473326478975
0.056307388576159
0.0749823864218476
0.0311316641061379
0.0705411326603112
-0.00104759476932232
-0.00690030713895324
-0.000985753301672521
0.0696388511608304
0.0580186074864149
0.0539818144983293
0.0482911109560238
0.0443933952063801
0.00503184228157563
0.000534065140173681
0.0756069282270672
0.0249929553271031
0.0840980388588807
0.0484654571057396
-0.00207494465895667
0.0499768344320351
0.0526859236109644
0.022162619857055
0.000416144101298978
0.0818500577262859
0.0212699606813393
0.0278662605651265
0.0979796725620275
0.0398980690172164
0.0304960121057261
-0.00590168896238954
0.0383988785577262
0.00775403990953537
0.0503790387389002
-0.00336128343715127
0.028540511985434
0.0707311762521776
-0.00107974274676964
0.0513684665874772
0.0470665877196349
0.0316384227514009
0.127008926525234
0.0267894525246969
0.0503959210841897
0.121519104495124
0.00108826044670491
0.0789444096773658
0.00444219207878388
0.0362496285070223
0.00475335502116768
0.0478998767564103
0.00901891566521991
0.0055268662181981
0.000442463852228604
0.0500901209188162
0.0280726417265845
0.00686159315206366
0.0235664799260387
0.0197063673596427
-0.0032802964428329
-0.00479322375094758
0.00532065817505111
0.0185304780960248
-0.00300515568484471
0.101299941587171
0.0494718092624159
0.0424829537552197
0.00335368686935837
0.0476015038736231
0.0602247296075012
-0.00252359752936549
-0.00337302272326126
0.0987686157375538
0.047950569693572
0.0727540516696216
0.042942827101326
-0.0060693599094591
0.053458672518334
-0.00549083940102086
0.0403240715730315
0.0652893237308687
0.00144766817228047
0.0252651167229801
-0.000159412335873868
0.0533082455770079
0.0483155040769028
0.0704841016331821
0.120583375949707
0.075513446878133
-0.00730606259055469
0.0783061298609918
0.04543037094111
0.00479636438764663
0.0244954648593713
0.0389463040820116
0.126943431182137
-0.00659496370420994
0.0729172503210258
0.157938017352699
0.0666560385775871
0.0565783280993052
0.0305193450869664
0.000611163322768564
0.0743792037532731
0.0471241670284018
0.102859215781327
0.0501775403268071
0.0448972279515491
0.0166221766244498
0.00160772344260373
0.0166755110705891
