0.297906640587429
0.298391587249428
0.274139837841721
0.347945184899507
0.262541631678726
0.351251407384754
0.359545906242894
0.268563040437419
0.321744913199403
0.323702401590744
0.296270724595549
0.345807806025585
0.271429157238168
0.329096185498852
0.300884817272392
0.321241772975435
0.300418400695832
0.323230181317597
0.318091302672005
0.29789221101557
0.325414463180624
0.299884778893743
0.299892148323598
0.27214420345061
0.276508547256682
0.330956507227532
0.295227091761687
0.318948924381654
0.267721229163926
0.302384858697673
0.245727546702529
0.324512602588849
0.270331921372367
0.303248329174698
0.304431966814346
0.352902439348311
0.313121201100679
0.27464053415261
0.294079548757812
0.275219570522954
0.250943507929268
0.351308516601972
0.302587594125152
0.29219998349373
0.305529269115373
0.300030189539192
0.352903052439937
0.322817945913056
0.294208748594362
0.324724704814922
0.322472948086066
0.309060281822353
0.270188620775389
0.297413575733411
0.321579871653154
0.327529381730467
0.313294556826962
0.301585075678887
0.270558550927551
0.274276041848491
0.289575504507538
0.331176581978253
0.274071296417698
0.32742307452266
0.314725783472443
0.299663838589155
0.316197414970315
0.326786721219882
0.301755442676848
0.276234311834811
0.327258222747653
0.300108006912716
0.312053461925937
0.315541737503405
0.297947695568999
0.302597870901727
0.328731361321794
0.310604269895725
0.303844486197228
0.321235245417439
0.321943951671786
0.32280258053414
0.343489073993042
0.297010205356821
0.298884144139942
0.273357025208345
0.294959179269002
0.275535307045565
0.319445778626347
0.326757421567449
0.321657394032619
0.281489597901137
0.318870540341384
0.27855621344143
0.32364746176475
0.349136144235614
0.323981891045151
0.350311212437037
0.301688573396031
0.296517285524883
0.330028511634335
0.279499342423287
0.307399378689439
0.272961058782891
0.330028494594799
0.330375393935372
0.321562122809236
0.329883641953115
0.302273418006804
0.354683132578853
0.295584526672602
0.273388652512688
0.328449162233415
0.294686869135983
0.302484573154924
0.275038954139786
0.317715318400135
0.330058180889061
0.274567360556775
0.26689048389206
0.327276489067875
0.301443114111186
0.272961185825602
0.32792739107484
0.333020146710385
0.293165178230092
0.270529450121456
0.304733344760369
0.279060337697211
0.353503962023861
0.292635702108924
0.324287931589626
0.325063201723624
0.318335349500351
0.348232095368135
0.324166482277558
0.304629588268137
0.28698234173487
0.276496677880945
0.297806030341601
0.299696316445139
0.27350485171855
0.298377014783343
0.285422417227547
0.323854232171731
0.323631248744815
0.344286791818607
0.326542930058292
0.300471573218091
0.272624258455799
0.326580811378212
0.302243851042703
0.320500856857393
0.271918614751225
0.276248993445297
0.330928771050473
0.345057002090787
0.301465475225914
0.322246561995287
0.252856712714016
0.30069345129908
0.31627878000744
0.243021851793785
0.268859867659711
0.322286037808756
0.348966706665192
0.335569522615459
0.302379752971776
0.30903611951733
0.267726206795314
0.299109684396689
0.274564467884182
0.297804195056038
0.291782437401294
0.321713119732334
0.298383384175607
0.326645407774675
0.32519765366921
0.297866627972328
0.25959424365493
0.281749915052452
0.264840606023537
0.327334630426861
0.306381995871755
0.326690611104238
0.291971973932874
0.299054725612396
0.246292474369525
0.300471206530248
0.276993440523192
0.305596199096385
0.321777691246081
0.325116053783025
0.32877742172706
0.276079068758306
0.329215882384381
0.326447648744208
0.269980640377645
0.309880894518417
0.335040957536938
0.274315826078207
0.327311611450065
0.274656412865804
0.301091588762506
0.299275917334329
0.30265115527473
0.325800197934549
0.329822804777844
0.318424652246627
0.293106542305839
0.358505566011668
0.274348764870659
0.323426405684469
0.266065981785722
0.278714511705829
0.301551536765735
0.325206311439599
0.293082036778977
0.329794567160597
0.275736082857735
0.251058529589703
0.334108459518621
0.324500825442164
0.252400402590236
0.279485108398019
0.350176548931144
0.296005269801172
0.291753002323625
0.329524928030139
0.275150087183685
0.294713091659097
0.323190281009624
0.320048795564357
0.346713350898673
0.327328956091534
0.325018284455633
0.297625775647402
0.326048027857778
0.272489515613332
0.299819892132742
0.322557362361622
0.351691139933221
0.321364932363253
0.326746823352445
0.323398501992712
0.301503193015284
0.264874452629001
0.29307469318804
0.30426749479231
0.331334937212018
0.105202129876702
0.103026039965653
0.124787221188159
0.0983864170125038
0.0961826346624837
0.103920956706809
0.122586437806315
0.12227720453786
0.122278887683106
0.124336694865347
0.109730853450191
0.121801098192248
0.0955692700867261
0.120742123420349
0.133620247789392
0.123382644674245
0.101856353285834
0.123894460917881
0.134173011713611
0.0892271150785755
0.102551079020781
0.122094073094509
0.124872885740592
0.120640452532818
0.121798181359435
0.124034680103223
0.126045450402019
0.10245145348241
0.127306286107571
0.0931141907734438
0.101078229342876
0.0989561190026032
0.0962752982686079
0.121542459652508
0.126847304929856
0.105369266726612
0.0904479422860056
0.0947437029311612
0.121947556693499
0.121834550305007
0.0952622658455077
0.0927039682877405
0.123234571327639
0.0999976977186568
0.123250460007549
0.127732363879435
0.104765684252311
0.117564582027639
0.127456957524764
0.0939994709088406
0.0989238410418333
0.122356782539671
0.134238116703599
0.100479351739144
0.131155178428133
0.0930699041674266
0.0929893593138445
0.103540350692341
0.100983027868236
0.125677322194025
0.1185150653863
0.125156403228026
0.104740811693606
0.129239451194895
0.124170228981798
0.132722461998783
0.101474466614462
0.104212414838909
0.0984660649734241
0.123857678550574
0.12623429567494
0.129030029035668
0.0976683887118873
0.136138465625623
0.097548957732328
0.0942032321730231
0.124120538353313
0.129739108308193
0.117716316945731
0.10955754907982
0.126596824258251
0.133524935860339
0.0970422450388854
0.133666117709232
0.124621181394411
0.119691137231699
0.132828706365109
0.0999764767721104
0.116828280184902
0.120745984490695
0.102298746716364
0.103696511469958
0.124803370194015
0.101493603467725
0.127268291082391
0.126905436406973
0.0921099510363851
0.120988637873664
0.0978648155891421
0.122997631469096
0.12882000051943
0.0948030375369296
0.10269706900143
0.119101798567015
0.106797151132262
0.126549135801787
0.0994980690218598
0.103940186637986
0.0943858265264123
0.127080130973498
0.10498306939497
0.125917047453428
0.129577457353916
0.124320587549757
0.0940170921303805
0.0964151677189425
0.123879179736499
0.125215785922072
0.120365642270856
0.121143707460736
0.093465944184397
0.101682604093537
0.134036649982914
0.0984635700622204
0.125108967059072
0.120423056472193
0.118543597293774
0.089783650641642
0.108519894276718
0.0998949988080672
0.126551611815526
0.0972600805466325
0.137287593448934
0.0988797917551275
0.126660281665241
0.096291847411148
0.118408246832522
0.0936188044556585
0.10584812268927
0.123289438862463
0.109143848686061
0.109416461341143
0.1167063089539
0.0966637494774533
0.0947391230764232
0.0983727990753526
0.127481251284203
0.121568933996751
0.100316150549911
0.135699288003324
0.123396484406008
0.0998472633665752
0.0955598087288934
0.127213788537522
0.107950497803076
0.0985383515386848
0.128387442126624
0.127582882944491
0.125151315286219
0.119443887896992
0.0955353709286141
0.135548159418258
0.0982202690719761
0.128189989486903
0.127960353758073
0.101370089650008
0.109474299034254
0.094093349528748
0.130989904573634
0.104948550436953
0.10393751069832
0.102336537604184
0.0951093126287516
0.130495125312458
0.103886551285608
0.10345136703225
0.0996468293529119
0.128476143229904
0.115328812978783
0.124729531696232
0.0956585939925527
0.0973961078318652
0.100592233640391
0.099152469986053
0.100666994893655
0.0899090430968625
0.0994038149183666
0.0972711603621168
0.125369221495928
0.0963925742636251
0.124107073443443
0.0984858527276467
0.128738657170559
0.128059668435547
0.119205442897703
0.0998803671366061
0.0983699982023529
0.0975910060262878
0.115087050389097
0.124899163783396
0.106598094177336
0.121829553973151
0.0875359480221112
0.126578431479918
0.0989904768593847
0.102656480215516
0.119754730121838
0.100449782354845
0.12681351188971
0.11509366980857
0.0903956940002195
0.0964754158783303
0.10085226569355
0.123763573284311
0.0921709523975754
0.13194365314896
0.115769737705312
0.096943819937227
0.118692460842923
0.102795242485836
0.100631900405982
0.0924210411775518
0.0983486500878393
0.127357877279492
0.125610097588171
0.102121133052055
0.0921709337239917
0.125452414398983
0.0962660854376778
0.100818999628501
0.12278948915477
0.129249877748175
0.099945896285417
0.0993388260613818
0.0993747689803032
0.0965494344029301
0.0961557304619985
0.128151688122395
0.117518673566578
0.128099616708115
0.102447175270101
0.105130308974082
0.124714138500488
0.1203741719417
0.124133946633969
0.109103519029129
0.098936318782432
0.130692680297359
0.102787276889648
0.122345997291675
0.0265404554764495
0.00130744724994257
-0.00612322627598456
0.0121243547493071
0.0361178445527323
0.0251314517576047
0.022584689339853
0.0271590529895352
0.0285275529985566
0.0322884208192822
-0.00485677656704109
-0.00604038154911444
-0.00568781754970532
0.0179234997329181
0.00454228269795036
-0.00385145772094623
0.0271952496015072
0.0294781180944345
0.0156989249982786
-0.00219044758591131
0.00200161625327125
0.000167485708433764
-0.00307242752391256
-0.00194853450876859
0.0239464736063729
0.000493924469638592
0.0784400197865
0.0106689393348705
0.00739458999943005
-0.00733438026178814
-0.00446938197767563
-0.000657829795563995
-0.000177161910515073
0.0298475747261058
0.0228383339365188
0.0131737084892657
0.0170258152698721
0.00284172747560686
-0.00752644970253112
-0.00593495935058804
-0.0084080094949917
-0.000610034419463929
0.0090720015703912
0.0230989547382208
0.00513157722995467
0.00347202365070796
0.00192561581366136
0.0279558996111
0.0252259498954705
0.0332798812852465
0.00128495906153687
-0.000615790805661101
-0.0062151413956476
-0.000193116383293493
-0.0107515986904438
-0.00822777749953834
0.00259832654925304
0.00427431510413338
0.0260848303913594
0.0300082228556617
0.00808800288278072
0.00018134439505396
0.0314512228106436
0.00154244971454436
0.0273115355757672
0.021678373041176
0.0074057408862205
0.000251966624353125
0.0222603927835137
0.0174466386538663
0.022965537509465
0.00158152851379134
-0.00106065038124627
-0.00335115674903061
-0.00781186493665774
0.0370789709333596
0.0257788039634258
0.0267887759673587
-0.00221805127792072
0.0313407188553417
0.0054800380612738
-0.00202368302076569
0.0107472235253659
-0.00665070001842726
0.0217206381419485
-0.000253508354361361
0.00110928156581429
0.0227635887973226
0.0059551432557533
-0.00377475452578964
0.00415243591365667
0.0256828818854943
0.00350342169528776
0.011210944411787
-0.00299654490621137
0.0144009554451434
0.0282554301021433
-0.00346482223241642
-2.372944328914e-05
0.00946246795415622
0.0102373209279342
0.00396998254554624
0.0151933121467551
0.0336827819124039
0.00320379833479798
0.000368513111302504
0.0137427657237442
-0.00392844197555636
0.0387453109080776
-0.00926790767345225
0.00201355372263442
0.0202423246970506
0.0201074109241855
-0.00681427170673443
0.00131569051844693
-0.00540464857397974
0.00442116702375764
0.0310676572475255
0.000780574947762058
-0.000192785719066821
0.0208390059693402
0.00716187527181961
0.00130738032406031
-0.00603639435326011
0.0226930473709819
0.0247284807438735
-0.00480199746787578
0.00275091405796562
0.0288849237813281
0.0218233833258479
-0.0043487280640179
-0.00986762894585222
0.00634067555282967
-0.00762341275957759
0.00161598543070289
-0.000918066561859394
0.0207407483366649
0.00364974005272893
0.00948609601827032
0.000895980141793761
0.0272561604341352
-0.00338976775210606
0.0286052786848214
0.0202282547006954
0.0196903069265192
-0.00211544187073576
0.00221992928953267
-0.00449205324059115
-0.00500048425548496
-0.00481929080409188
-0.000180379291831809
-0.000817963925531879
0.00545518790950967
-0.00835633198126616
-0.0110592193218283
0.00815417661068083
0.026655283406676
0.0323299450813756
0.0206253331017103
0.0197528352744711
-0.00525331560130711
0.0113778093993459
0.00609672992176935
0.0270446846852528
-0.000791152161135655
0.0261390920648385
0.00125903220403052
0.0121717480467807
0.00509048766435492
0.102350253361658
0.020371775957346
0.00243338253131863
0.0232829561794714
0.0211876786022608
0.00163735087908694
0.0134127036841889
0.00254937430135186
-0.00299341302435008
0.0217798657896105
-0.0075890462529836
0.000801491881863132
0.0026190201963084
0.0287385409575567
0.0250564780885918
0.000975545526647696
0.00468985699608525
-0.00881406690319022
0.0260744151836948
0.000507065388337766
0.0086107136411564
-0.00236652440427547
-0.00638412547764684
-0.00181060311584984
0.0297180362539551
0.025351262572518
-0.0048216716594947
0.0215341271381304
0.0293447534272142
0.0229437235044684
0.0566738179637411
0.0082844864739793
-0.00114064360809783
0.0191962146775889
0.00239084851369361
-0.00307605984926238
4.2196851229299e-05
0.0261503326337322
0.00114627934281186
0.00170910603817246
-0.00560757474089004
0.0218250929708002
0.0069972063278742
0.00338712285832999
0.0134356633952362
-0.00100959069077295
-0.00230239877216265
0.00328008881665421
-0.00395031671723396
-0.00471077826913298
0.0160909620556953
-0.001179185040091
0.0218863066626239
-0.000667925696961979
0.0217935338677155
0.016427761295663
0.00154103731910476
0.000518183809914881
0.00200471750896822
0.0178719637031958
0.0301709106933612
0.0279984160216902
0.025204837199548
0.0023737039305534
0.000242842361753295
0.00480885226223098
0.00102663466152018
0.0149153286509871
0.00200748797225709
-0.00289847201968604
0.002298909981772
-0.00667894068524685
-0.00393086569474722
0.0270631037073068
0.00458059462764275
0.0164478757609606
-0.00419077316389915
-0.00149346152034855
-0.00458638866429578
0.00607535504188702
0.00833232443191617
0.00315392745676077
0.0284536315400056
-0.0065071561259498
-0.00522878562737847
-0.0108711037757402
-0.0070942852228062
0.0291275363547302
0.0198760149199355
0.0352097012882549
-0.00318374904252739
0.0239622055286503
-0.0100089179821612
-0.00310698256045452
0.00257050972780705
0.00321731435255247
-0.00498176160516062
0.0200716393439627
0.0270865107755451
0.0250030366609301
0.00254232324148403
0.023006562371454
0.0697118485871451
-0.00471476630628609
-0.00396415690107659
0.0289133612910917
0.0266783713047891
-0.00241215499654017
-0.00296730269670543
0.0203114353195863
-0.0016546374889265
0.025659339800105
0.00411740005398546
0.00597686244153697
-0.00841255796832761
-0.00128023534310935
0.0037581010495244
0.00121126688585264
0.0172568207566537
-0.00368703490030627
-0.00165629658645961
-0.00612425348085585
0.022833554587605
-0.0025451453108574
0.0298149148555001
-0.00107129404767105
0.0241362516298932
-0.00277368341449448
-0.00239837024532739
0.00120077874580012
-0.00586709515543064
0.0292160598731193
-0.00202737225490449
0.0153410107928394
-0.00278587108704187
-0.0057120618235552
-2.77517485275421e-05
-0.00209258272012223
-0.00464238526581596
0.0252108290297612
0.00535494976992172
0.000452449991785709
0.00389861782294778
0.0284336529997789
-0.00405195912050189
-0.000234654966795685
-0.000162912744052055
0.00194186031922169
-0.00600978020336143
0.0284783663340014
0.000522975357849903
0.0257166630372392
0.0210243202266336
0.00397253044996118
0.0265878931747
-0.00159023678301179
0.0276761438755701
0.00400029465538442
0.00983034552944569
0.0202116450796426
0.0179974047295559
-0.00825409753081769
0.0267751051070153
0.0287855199235743
-0.00167471819873459
0.025297576578805
0.00577278491303984
0.0065281436192216
0.0220312412835386
0.0207440831536797
-0.00941622207178901
0.0295225598372954
0.105180902828152
2.00373580160517e-05
0.00357386410231086
-0.00541878164974373
0.00206413660610554
0.0245636779000935
0.00760938157939934
0.0315746987337625
0.00580240072267101
0.0265402304594146
0.10589426027635
0.0245222248116448
0.0255582969183135
0.0244883009989773
0.0228986889165287
0.0267410220754543
0.102738705653111
-0.00350115039430514
0.00270324663796383
-0.000488184827539073
-0.00585850553531205
-0.0122451987268342
0.00464553615242798
-0.00395879410965139
0.0319778822678241
0.000684598422210867
0.00188902909233998
0.000419903163079999
0.000472852394684445
0.0306140403974144
-0.00416108196620839
0.0211264673416903
0.034299830913963
-0.000816275790752012
0.0268109298542612
-0.00981750076472298
0.0127518171519101
0.0308382425234859
-0.000890666204975265
0.00219007760409497
-0.00343140793696041
0.000789253672576904
-5.66387583572803e-05
0.0215154785913752
0.00475769644478494
0.0385647024770421
0.00292812348467246
0.0254224877868847
0.00899610477079247
0.0482881967236951
0.00154123855634688
0.0103296262040113
0.0145356267135663
-0.000189963549985815
0.00978602161944061
0.00361770890721345
-0.00343848551874499
0.00378598765760875
0.019550715159088
0.0019255089833841
0.00169311186590816
-0.0020425718611002
0.0250192373405452
0.0240239308527924
-0.00191186198331538
0.0252990463229102
-0.00900663841246261
0.0009309761262988
0.0800663261561077
-0.00314556250277176
-0.00283862787569825
0.00428861121633426
-0.00403525145622046
-0.000514517629917926
0.0806191815717194
0.00194021252362521
0.000283240311202929
0.0224336023604933
0.0227658800384879
0.00208170226282669
0.0244904619327107
-0.00305381492536989
0.00406127062319649
0.0116760441086815
0.00749935701139532
-0.00141990778208377
0.0277059931034668
-0.00463697463669674
0.024499075339152
-0.00787400366512563
-0.00417560734300281
-0.00241919114609472
-0.00119743888078422
0.00850333096699533
0.00498899357030392
0.0180779288867059
0.0108560011799232
0.00634002608532889
0.00368649284209446
0.0219440231178862
-0.00443424563670273
0.00949105665669282
-0.00333207648634847
0.0252985734268541
0.00679083539454565
-0.00634571715544394
-0.000193724135916807
-0.000432341751386676
0.00367719550744707
0.0251450579948764
0.0212695661928631
0.00299843976973112
0.0277931857482222
-0.00355042789377682
0.00191861701434963
0.0144566977211918
-0.0013537792994998
0.0374979760278311
0.00972643646640761
-0.000967118211982072
0.00147163117234093
0.00289115612341192
6.96722378491502e-05
0.022400624191922
0.00463277541589558
-0.00835743141798263
-0.00319769982326184
0.0296931562207291
0.00667514445943974
0.027597006806161
-0.000559450433572574
0.0193955121097905
0.00615680990450838
0.00226766152414258
0.0290930410021098
-0.000986505772230707
-0.00462332560620502
0.0774500693382257
0.0057198222615192
0.00709333819057741
0.0131091039921176
0.00667521269504455
0.00187240875586598
0.00425222606676083
0.00828990893206343
0.0683584313847241
0.0213999979041117
0.00295469075096279
0.0030351402995231
-0.0023536056534118
-0.00568372279791535
-0.00747868459224514
0.0448742387063935
-0.00192128774632554
0.00770506335792949
0.00122454377720333
0.00429834945656954
0.0281914911108573
0.00275602951731858
