0.127545390600857
0.125019347243959
0.130233392187846
0.124521483356548
0.124435923675329
0.116870245344428
0.11989880256745
0.123378689824355
0.12690325093345
0.123723789357331
0.127541798704805
0.124786840248166
0.117661889322753
0.129335395994175
0.116564737954048
0.135561022213775
0.132412208012832
0.121556061547974
0.128014932180007
0.121421042706834
0.127949589055716
0.130145919441689
0.12790569254347
0.127091892129646
0.124215220918276
0.118333713576436
0.12837125868491
0.126238031609917
0.130336731919153
0.125641076031832
0.118896769674559
0.121967011761408
0.124686704447429
0.122744195549427
0.120860852025672
0.126059555922119
0.134919101458156
0.127347580232837
0.134950481191999
0.135301289973554
0.126556897213931
0.137352512146644
0.12882400572902
0.124567940739899
0.126301844608251
0.124565251918846
0.128462188463582
0.125297858631557
0.127987513483982
0.125169975850943
0.124685055328717
0.124826187788303
0.127578001896739
0.119387190649408
0.123393526971857
0.131538008789342
0.125907677495486
0.133212758675924
0.11757509735184
0.119247858978902
0.129217644769208
0.129045452693298
0.121056347889301
0.129111898445508
0.128439878354533
0.128851770475484
0.135866934066373
0.121114617106615
0.127991296924545
0.115351004015893
0.11735959340613
0.123840612999067
0.130370602226075
0.125381570259045
0.122467636712321
0.128033452860661
0.126855469058087
0.117624167683142
0.124512908039
0.12898929317787
0.124659559961552
0.122735169922076
0.126464357563277
0.120633536812277
0.127549690407627
0.128770344578417
0.131132186173442
0.129265421020355
0.119191918299107
0.117421290862961
0.129464791643024
0.11777275943131
0.125884093307724
0.126520977701487
0.121218725209761
0.118402148085402
0.126286546256688
0.124291219309396
0.129755826761796
0.122539059293859
0.131957654347143
0.119977087838726
0.119385331709668
0.125832317717923
0.118433621656736
0.122921267440617
0.120930556688919
0.130712404997003
0.125929604673884
0.12773793858881
0.129305158892089
0.123158415114617
0.122732503604653
0.125517740015526
0.123237213836979
0.125749078984418
0.126173519262178
0.117081528596482
0.130675428342308
0.12883744242923
0.117826799981854
0.123004198910476
0.127927725286396
0.13544805878832
0.134490997737677
0.126370557877643
0.126537223577062
0.130188037973117
0.130562914018711
0.125560161528211
0.126841277646332
0.128779340275696
0.130941707042454
0.130158597527029
0.114209506265791
0.123253958326233
0.12385323585647
0.129562300293397
0.127794205545387
0.126363988767093
0.128466759975444
0.12764804490714
0.126520654773356
0.143249468985752
0.12411480435616
0.126036007016937
0.119476491593272
0.1167071383166
0.132387750688987
0.124604846949231
0.130821175235584
0.130947423308788
0.125085163018607
0.128403457589438
0.12987148845788
0.12550431572548
0.123181577684342
0.121039672092619
0.13016453011031
0.127477646424537
0.120860626817165
0.120331174106223
0.129655028866494
0.122474521345243
0.131883035054065
0.121082583323283
0.130952412264208
0.125382388512837
0.124295472844716
0.130641205935485
0.127861676746518
0.13707644833986
0.126214789336358
0.123259086950262
0.122626673654745
0.117533159821342
0.119165344857035
0.126068694813122
0.132649348743765
0.127032728735806
0.128428693799659
0.116875155139087
0.129330949943255
0.126434880703197
0.120190992653467
0.121030859030976
0.126010576385007
0.124677154941175
0.130440664467133
0.126451819506083
0.123871307661271
0.133024196737124
0.124782089138849
0.119490991281802
0.122324092016624
0.123519681305626
0.132318242516188
0.119124158273402
0.126903726961384
0.130031017641696
0.124108674311165
0.132078460597752
0.12008317309664
0.128133288519908
0.121763906622259
0.126388119671884
0.117578469977497
0.125468696440911
0.119679062304984
0.128107947464163
0.129734684559814
0.12358013918518
0.118703403864198
0.129294268599802
0.115726469608469
0.126978719532028
0.121584233324685
0.127896872127709
0.122652858013499
0.128681636857205
0.12370531893165
0.1267685326487
0.129420722861206
0.122242884979301
0.119438935433229
0.117868919035956
0.123489574177594
0.127546993082835
0.133880175648777
0.129539114771383
0.126184192293142
0.130332183607943
0.120343671032031
0.120908595792531
0.135456096152555
0.134315449188809
0.130567992960557
0.125456759914394
0.129056704554356
0.12842435185308
0.132111446449899
0.122443030519739
0.127100887294742
0.122108808567005
0.121608444445693
0.118550783618826
0.128594035928184
0.132729109185744
0.123407145670803
0.111026774983304
0.0542720580084335
0.10804892661776
0.122422109112616
0.116942382655263
0.0823121029612371
0.0457481976761798
0.126490478620063
0.0468665645932218
0.146339526038894
0.124855111672461
0.0986511183828089
0.120578432658052
0.124480328386217
0.132783744466009
0.101386839044342
0.123665697416674
0.0737892259290088
0.0536144884311408
0.0725446372825352
0.0382207692495166
0.0536981585858046
0.155595012235212
0.100121746278805
0.159234137730688
0.0835806888384837
0.150973668996764
0.125115427049234
0.145804887944813
0.0755250824251386
0.102526756206904
0.119469527790052
0.119978422361564
0.118970887607706
0.0975847437611016
0.105663947802787
0.0752421204146506
0.119358209301287
0.151586180519895
0.152840482304433
0.0922924739695416
0.0741927979236311
0.0949439868531541
0.107198166324537
0.132132936056408
0.128020113770751
0.102881653809667
0.120819454137683
0.10068533730041
0.159273750478948
0.0485430666436696
0.124493711056142
0.0467159279601978
0.131828371221309
0.145512212476185
0.106060152006939
0.115174394662656
0.0518772212978436
0.0937508297379103
0.104532767917616
0.068653274104672
0.134790532433801
0.104043814221496
0.131236362092689
0.0798912325754025
0.0952298273905329
0.0991743058079319
0.0833067734881415
0.154829888401573
0.0980149323234291
0.149796619817568
0.0959556067312831
0.125680616683455
0.101641421062084
0.103985997737454
0.14879319189131
0.0447288904365079
0.0982056907247635
0.0764776668400715
0.148256616807716
0.0921436938718689
0.0967271009455909
0.153031368455286
0.0728401984495405
0.127378024813151
0.0994885470302372
0.0785805945260067
0.107903189994698
0.122385504294333
0.100857448988463
0.106996850460381
0.0724368518407416
0.127186195646398
0.0725991839232573
0.102850334692574
0.128445153754622
0.129761925484343
0.145866304961873
0.104024737392232
0.12668111145954
0.0661532117993837
0.154267316792648
0.0691123393949601
0.126591299812878
0.0830959935376957
0.0967516150847208
0.109958684595735
0.139393148977636
0.0549983871701692
0.118121073652381
0.0954935602952572
0.0779487866601357
0.0979299497095195
0.091513082044739
0.106427944140507
0.101689102577562
0.0731078289684615
0.0727981959076921
0.150665712198316
0.108969905480661
0.0781395681886616
0.0907698274983558
0.123867887136043
0.0701586790680435
0.0972801489340941
0.0932052571664065
0.0999959873103231
0.16015765902601
0.118548151063257
0.119284865866456
0.124256582076322
0.101722347872761
0.0645530250278751
0.0968559395618367
0.127233235994076
0.0962448880533774
0.124466040845234
0.121888405355898
0.105471956350048
0.0966562962755094
0.072571953275521
0.126651641545807
0.0756717379754873
0.0465339217600803
0.0751948036512157
0.0939704353955325
0.123430535932365
0.14306902382346
0.158184440804406
0.150688634334308
0.0707499547618929
0.125783551839789
0.123202116234979
0.151892159352216
0.0966350598209703
0.122962281020103
0.13700014092167
0.104089183762656
0.121533786514629
0.0972891800584295
0.123338926468537
0.105472698613043
0.149840940662852
0.124086189202481
0.0955366793529384
0.10240120571042
0.129148882293908
0.127749349424218
0.0992362535488607
0.103655971440839
0.156249477757626
0.0971531391118969
0.0608605685319726
0.136991721899563
0.121078796419406
0.125337192645258
0.122607762931801
0.0727100787706656
0.120572565953123
0.0816295244327983
0.096673345399266
0.145585393214294
0.0459390660386454
0.155066416140126
0.0959412216819054
0.121447951718692
0.0502549299503684
0.14541483471442
0.126013682089298
0.121136764281679
0.100383042403121
0.148558259970034
0.0723069914594807
0.145022111170574
0.0980150134650112
0.0476038276078179
0.107700200872648
0.0523994564424126
0.0691504884291473
0.107720828537625
0.133364740197256
0.131314281282234
0.121735846220083
0.120118462710685
0.133902286371287
0.105431639022523
0.152667801968668
0.12751761566839
0.122122389494862
0.122585225530795
0.100788301613306
0.0753072288977885
0.147603211553845
0.0771159792080294
0.115971721949392
0.0735935248152021
0.157337487300569
0.130356677186322
0.129764347643137
0.0944632810051266
0.105385803434872
0.0954593773417887
0.072504419719363
0.0916747896873305
0.132086952901757
0.152458935374286
0.12392878989643
0.121045566184656
0.102224941421575
0.124833995174006
0.118037001586715
0.145503687677738
0.124597748105283
0.156873272080795
0.118775491523348
0.0757526916975392
0.0743726154316209
0.123625561649377
0.0769368542398428
0.10341874957695
0.121483706757899
0.0521093044954592
0.126884763527461
0.0460969640781822
0.11785845293541
0.127902532056256
0.130008517652173
0.125746755871495
0.13146031901717
0.0500394012161185
0.0809955370604781
0.056938911210772
0.0501222379071268
0.120686081877532
0.102729356621735
0.0729922921700816
0.0454894482872126
0.0549400429367513
0.0759900811656095
0.0275784142023332
0.0242048333674271
0.0532461055080036
0.0945291704385775
0.0761336388597829
0.100166317923271
0.0542828571661706
0.096328052172238
0.087617802138315
0.0750081279682595
0.0213663813536864
0.0920230677283887
0.101705148670043
0.0742799637978315
0.0450303179005219
0.0681580956125671
0.0493902233462329
0.0816782551244336
0.0708078668904692
0.0226214676007856
0.0477639161419901
0.0206098964696811
0.0795653532559751
0.000299995784774083
0.0278107557618581
0.0207408195419576
0.134963933846717
0.046656828593128
0.149947771120408
0.0516737661965497
0.0827054150498094
0.0454445763229775
0.122865452879564
-0.00771178017570803
0.0239752145265623
0.103245436404348
0.0780679237273693
0.0245814626283418
0.0942631664861884
0.0579077682431703
0.00638045657022788
0.0671063996311369
0.0576056632039938
0.0498884952982584
0.0439838167830812
0.0933751236535758
0.0765833219862456
0.101405959172578
0.102301445599089
0.0670857792545114
0.0790092785291349
0.0424310804372708
0.0292932354131994
0.0239134679165224
0.0283399403272486
0.0591121243759965
-0.00254864847280326
0.133724980570975
-0.00182173474196087
0.0466624583352331
0.0219282505467694
0.0970151966186586
0.0704564128175018
0.0980588719026603
0.0403112258678847
0.0628602877659683
0.0336713425148088
0.0540283848416464
0.0958928358597541
0.0486026388994782
0.0271035385008108
0.129211841442616
0.0491252117410469
0.0195788119891066
0.103114602137795
0.154094207972129
0.0212151033902865
0.0285732511519013
0.0463432993774501
0.100393223987348
0.0516761662158114
0.0504487647626505
0.0680237596349581
0.0823183073314372
0.045724561365843
0.0698116194257524
0.00154912548377449
0.0220522307756338
0.080911342657599
0.124038277816052
0.120758687887632
0.0572099438081081
0.0648242228943377
0.0708810116319873
0.0712255278267022
0.0120435439541521
0.0288731564795537
0.0475950969261863
0.0319169697706972
0.0850416751683701
0.0972909701081763
0.0948955249535374
0.0741201408076851
-0.00116838124567537
0.109331794538426
0.0271453734986239
0.0735027302345348
0.0449810401917023
0.0495433480285376
0.13099428314541
0.0768117591882439
0.0549133216765449
0.0502644457618074
0.073083969179663
0.021404171607006
0.0931906916792511
0.040991987349062
0.103839674355251
0.0504449522762368
0.00644110813995646
0.0200948265932674
0.0801897576183856
0.0781550657830372
0.0499645845881646
0.0999115303561643
0.0551863179941009
0.0441196399907064
0.0676339445707989
0.0790265373399146
0.0284893664981488
0.0722595310107432
0.0513845083376924
0.0639119205468487
0.0738541300096634
0.0273213589414505
0.0560500094515894
0.0672172283150534
0.1314451746045
0.0986652258416152
0.10453614263063
0.0833227052605018
0.0718656040050032
0.120568553235499
0.0204444845426937
0.104104630089208
0.104270886051071
0.020572120007816
0.0424435029855407
0.0517475508341787
0.0232199516390589
0.075219342647973
0.0390164670878387
0.0527326920229413
0.119853143298049
0.0768889511925064
0.0854586312182161
0.0239807364188638
0.00330409574292042
0.081703678896915
0.0463056497904908
0.0263614661421818
-0.00310383234388143
0.154184512543627
0.0281817051204021
0.00799389051499739
0.0544003345551605
0.0276356456774078
0.0542125300247021
0.0945871456117496
0.0244437197930536
0.0534868913536094
0.0794140115463911
0.0808462570249118
0.0706692757161468
0.0517837244666007
0.0765987449598601
0.100046117959374
0.100768293792453
0.0228422653022983
0.0427297422385858
0.0978334905022776
0.0792754832819176
0.154067999559154
0.0340771637442651
0.0567571730244037
0.0303011372077387
0.0803336344540959
0.076350720931271
0.0819528296474245
0.0253393924987578
0.050896900074842
0.104379097632222
0.0512163458264402
0.119739644368927
0.0567121275643116
0.105414447213008
0.0411228194640489
0.0447000273680439
0.0233613703635703
0.015445653846382
0.103128377467032
0.0243987576133264
0.100878160165452
0.0508493490876765
0.0341676523594619
0.0545183674085031
0.0173114398869515
0.0775373587316504
0.0451892507034035
0.0752809832674971
-0.00585471881131653
0.0985038029035102
0.0717800003442237
0.123261893989439
0.104589039445002
0.123596239236942
0.0754014892190541
0.0764675305975788
0.0186109006612709
0.0561160277026141
0.0841624835758547
0.101394243569203
0.104974925879053
0.0786389963774787
0.0287078192484411
0.100617229932121
0.0644483312253295
0.101848194823979
0.0889015258790902
0.097567233379463
0.0785860385806301
0.0994709586001466
0.0195248659294615
0.0758449484896045
0.0236963270138232
0.125162273406264
0.0481253998304264
0.09592429637915
0.0745248390997433
0.0987730990923975
0.0791880791938612
0.0778477755829686
0.0531665029327758
0.040103253503949
0.0562559972578113
0.151188762499171
0.0270181550519892
0.0300502372310907
0.0502151656286736
0.0203761328531416
0.0430866440635837
0.0940942976782232
0.0747375175573398
0.125933967039427
0.0756651666309556
0.047880633401503
0.0516055947400221
0.065232756053336
0.0656849809564409
-0.00386851346196237
0.102453815699634
0.0292149809796979
0.0241908555696409
0.100908065948047
0.132456860382282
0.0217934039404281
0.044996406316627
0.0208656001686854
0.100954166538673
0.00249333292027332
0.0977909419263843
0.0722295149375119
0.122736598539384
0.0706272635852008
0.127757467516083
0.0236582128107478
0.089643280091443
0.0583995376724744
0.026116961637785
0.0463528332759922
0.0490673532593151
0.0755173664483037
0.0703640353089802
0.0807712322186111
0.050044304058334
0.0395227770422013
0.0356914688489932
0.0723894334585622
0.125323487456659
0.00405027431407617
0.098334038567604
0.101458643901478
0.0980916278267496
0.126007958466208
0.0721657138246069
0.0456568884246032
0.103074014232986
0.0971308497087209
0.0486841971079641
0.0661113682170012
0.0663746550542191
0.0726883149298559
0.0828382279687163
0.129004166698447
0.0517678168269795
0.112651665091512
0.0268882455650246
0.0697129354598033
0.0618408248357687
0.0268327970584603
0.144354232615083
0.0251920727014008
0.0506826800038547
0.0510320878636107
0.00498442545488124
0.0536299853081653
0.0638715353434293
0.0758496712300408
0.0748518085069671
0.0215065167483723
0.0185594125368152
0.0471837089931506
0.100274085530623
0.0841861858844048
0.0679296614942218
0.0836895372817732
0.0743621020015034
0.105882128661353
0.0428549294512864
0.0721538014974266
0.100529186137906
0.0735914792308238
0.0835138081851835
0.0740174670534307
0.107459647292684
0.0767522141994094
0.0462064897302197
0.0986935469196571
0.0259691285633147
0.123084267293817
0.074109687500136
0.0609699418661001
0.0433886236344078
0.0496807687459364
0.0253839129576959
0.0725193164103824
0.0497023081092917
0.0772788930090885
0.0539942366669236
0.0249875620914995
0.105974276596058
0.0627973939300026
0.0290943169696165
0.0517729136337462
0.0506614542544387
0.049025123155249
0.103624578851812
0.0823908262723363
0.0559172209754093
0.0234091984756356
0.0949713095777451
0.0293494395118556
0.0710741533013428
0.0513297719870097
0.0453257719273817
0.0986497051417163
0.051248269231743
0.0741665144427192
0.0286800652190575
0.0623810120903071
0.0232860505220708
0.0403068751520842
0.0784377935613792
0.043508048865704
0.0238079720753234
0.0521146546005502
0.00441506940701462
0.0234718671582291
0.0497911643227632
0.0478716550820341
0.0985422972581985
0.0103193793109518
0.0594805547791085
0.0758249895549429
0.0182125612036881
0.0568778052439881
0.0541128990002538
0.121565093742841
0.0533641113631572
0.028147624122896
0.0244314672906272
0.0804285615263263
0.0485614304790674
0.0687763366106725
0.040764691023267
0.0883477941732087
0.0682256408206525
0.057370165572201
0.0336686789114574
0.0710727885070862
0.0434139851519862
0.0468605416166888
0.0272528114636462
0.072118638896423
0.0488287177966481
0.0767932509593954
0.0931657237406931
0.101893213073465
0.0732307772471115
0.150007733337182
0.0720057291403275
0.0187179797070296
0.101727814201536
0.0751235219507068
0.027628081388026
0.0258421318344225
0.154963555226362
0.0559239181841334
0.0757805463458767
0.022658422268572
0.0207321476822342
0.102776243231733
0.0481566702320358
0.0708677258579694
0.103428291500816
0.0447285369200912
0.0783170548572159
0.0208022593439751
0.104002076344702
0.0692448582956874
-0.00140193843112277
0.0539280957494568
0.108458504786202
0.0533940286260954
0.0465588361890722
0.0244313990353414
0.0475806870751663
0.0740370609365555
0.0432798618242494
0.0526241609340194
0.151385145415447
0.0528276016003837
0.044985189078499
0.020139299940183
0.0219577334357279
0.0523418874525736
0.0495506783633167
0.0439827186035525
0.047220938953157
0.0981985590521698
0.0730654359452022
0.0508763909346038
0.0471758940930369
0.0512182512542697
0.0163143789678875
0.0440383425761081
0.0258738195269392
0.109154446443182
0.0774009685452979
0.0457882708919929
0.082003703673077
0.0309804042696959
0.0427387182523151
0.0530206450427003
0.048545840649315
0.0187525513385354
0.0274986399114774
0.0482218271088142
0.0484029833153279
0.0252474223446661
0.0944190884884388
0.153055486498982
0.0754853962659162
0.0739410125920673
0.0989879341211782
0.073871143527231
0.0723168906112397
0.0809521601842961
0.0834050556942683
0.0540411649758332
0.0713008548392492
0.0515627225535634
0.0721696970530488
0.0230009447625976
0.0238429197136074
0.0962112899895164
0.0385698844433214
0.0755052464757968
0.0668215134676667
0.101082606460771
0.0981598426377205
0.0411629996495193
