0.298768017238997
0.296100150702377
0.299997125918283
0.295936909765205
0.298554141919292
0.303829816495645
0.300171051746641
0.298133475543458
0.300738761181014
0.29940574674921
0.302793732358768
0.312944890224802
0.295507939060865
0.302981030323602
0.307026916115676
0.295077586418447
0.291965853737537
0.298059864258807
0.292120031979737
0.308415402072677
0.295549406818091
0.304622576864145
0.29939614619178
0.301194565266035
0.292228098908561
0.303397191675752
0.303545228994907
0.302022591024984
0.296453559059655
0.294797012327067
0.300472148663833
0.306376728564597
0.306165218964691
0.301661469679338
0.302071844302737
0.306027969819982
0.299453666293335
0.297439457299421
0.300527467949979
0.300756541544885
0.302095800467371
0.307011449131818
0.297544649184083
0.298812051082527
0.301033460399093
0.302335326331108
0.307016106365024
0.30406862858767
0.302264981550307
0.306298974602847
0.302989954222553
0.30226491835904
0.297181358771727
0.303457947971403
0.305706734836099
0.303333244502383
0.296267013139114
0.305660702413043
0.293265868725017
0.288569884559919
0.303600564370784
0.295474104278586
0.298232333248366
0.29565931257291
0.29304772501421
0.290041601623528
0.300227135265854
0.302267588078126
0.297795417475676
0.297911514482951
0.303214113055615
0.308620494328503
0.295209350141696
0.293451733687757
0.286570354854266
0.298978932576138
0.307333289769257
0.304012822054232
0.298375076923731
0.300923588496833
0.298866861429618
0.308624675687782
0.306735583738551
0.298001832026042
0.30968508732068
0.299845537599294
0.305774838567582
0.306103958763574
0.294274181412002
0.302750747568658
0.291997939923403
0.307187058283116
0.303361167263621
0.288746386811414
0.295802352291857
0.292849573883435
0.294135425601389
0.287276409342808
0.304239530705356
0.302953421464956
0.294950970598384
0.305600001940296
0.288676852394828
0.311085019268742
0.302330913639182
0.306788856918989
0.299582738726724
0.293481008994664
0.297566146484776
0.30689365842901
0.301527259078809
0.303401567313881
0.304567082950495
0.305716641384892
0.294389177660114
0.291474488097632
0.300001476353381
0.301630143867509
0.291350817120969
0.28831076834126
0.308224228666844
0.291674425189971
0.303262008114215
0.298902193249775
0.295778962973479
0.301410553060674
0.306425545740488
0.301445426586687
0.302675774792917
0.305307091123557
0.302652854230473
0.294404782121501
0.294526984469629
0.299476150211697
0.292651723835335
0.297291247183697
0.295305290616628
0.30327470557724
0.307503358452212
0.311203437248236
0.295262887974605
0.303456005721827
0.292192819004781
0.301607470481564
0.30369298619648
0.300763366643234
0.304826231163647
0.306613880506088
0.296954792752231
0.302272248112497
0.302813536016393
0.299548838966162
0.301001243160253
0.292852868621282
0.297999231421061
0.301463684721971
0.286908519692354
0.304637243073131
0.294555062788806
0.301146839908379
0.299157870807922
0.300060802144546
0.293290282015279
0.30516298108435
0.29922524549781
0.303770572343581
0.309281960194053
0.301703684059621
0.301429594380226
0.301744033960065
0.294223873872342
0.299952034190321
0.305365462480098
0.30116224535649
0.2963674963001
0.301602797259733
0.308661522014788
0.307071866770992
0.297365848358231
0.297377780337229
0.307572046485684
0.297863682026035
0.298952070006384
0.299644523215998
0.30199027134368
0.298035189288699
0.30758119389408
0.30445582511481
0.304602146439146
0.296425281868665
0.302638378595745
0.29830233771503
0.307648519169266
0.29920479994985
0.297260225782594
0.30076724617491
0.296124658671326
0.297959874898925
0.30051106733258
0.309777270924385
0.307285801549579
0.301309336665089
0.293949563935347
0.29699601149773
0.288417863274847
0.295814123367531
0.295014563902457
0.291864175091331
0.305459617044405
0.303116985716911
0.30357078427486
0.300780494812594
0.302991723775803
0.305549371357894
0.303810647196365
0.298669836929072
0.3033819305142
0.299472319094174
0.299054064818801
0.2878131314383
0.299344312135194
0.298872155513956
0.29886590616801
0.307396587116804
0.300437878756879
0.303411969533192
0.295328758462393
0.304106012356123
0.300634495476352
0.302519068681973
0.296130268143466
0.301553310850441
0.295801515722466
0.295921514470727
0.297697147276439
0.292575876657489
0.299000132150932
0.29870917360093
0.300732420036133
0.310439140501855
0.294212976981096
0.305053922814464
0.314807706895863
0.304709036329871
0.296180187282846
0.298683726112024
0.299761466940611
0.298247022931933
0.296173683960687
0.29344047301304
0.0994114394320192
0.0659849756445844
0.105590975651858
0.098933584108262
0.0718604135249812
0.102115363719382
0.0998258601255268
0.102031864529666
0.0698640182639386
0.0781940923120454
0.0956034760055754
0.103130545895554
0.0842299787639273
0.0980635173281669
0.0930702170950081
0.096863053919899
0.0830632425547445
0.0706029961958111
0.0991400529435777
0.10300952145215
0.0627869812921453
0.0981700087018521
0.0677523565755886
0.0988211792727491
0.101571694593754
0.0719892129597323
0.0818631036139608
0.106078667226382
0.096500140172179
0.0675763610995195
0.0982102348186904
0.100687250063528
0.0794304262817039
0.0961742427273021
0.10103862060753
0.102292495379435
0.0986649234008835
0.103668942606641
0.0906484891462283
0.0997516008272552
0.067583625004967
0.0697438593522815
0.0768090573175149
0.0760550269675992
0.0932648448452813
0.0690776592470549
0.109733521431369
0.0700256452908192
0.105558720461695
0.0750976041040733
0.0950192088883924
0.0703582613536025
0.079040160715904
0.105884615368189
0.0711505023381273
0.0977761766887893
0.0762376510564878
0.105999751996378
0.105275180424013
0.0682987885710383
0.0975294464870433
0.101913436745544
0.10362148036504
0.0749796568170588
0.107354076257655
0.0763580872038586
0.0688309361636339
0.106941262373683
0.0976438909529338
0.0906540939765715
0.0744957357070996
0.105386872799366
0.101341132664552
0.101825426086145
0.102949098548553
0.0762110760767308
0.0760969744149368
0.0715740468785909
0.0768908484498901
0.0677519175910724
0.101714495282953
0.0963782250316842
0.0787254217229091
0.101522126705276
0.0732329240099478
0.0996789967040691
0.0937196031879718
0.0694770422000525
0.100085536135084
0.0999731576935472
0.0897546406857436
0.0901215710471489
0.0843901873780546
0.106440150877901
0.103037521140052
0.0759788871809345
0.0781001781949557
0.104753605464142
0.104792546849163
0.0837996205517166
0.0771084107304312
0.0731332492497515
0.078273314801093
0.104556900314958
0.0781729811542492
0.0742277261493417
0.10504874685794
0.099620994221302
0.0837499056488371
0.0746130487863266
0.0936987438367388
0.0664000345053988
0.0997846592675473
0.0749729045089257
0.0803394917016153
0.102931204544461
0.0781886708933645
0.0743680133859983
0.086201413831455
0.0980760903517545
0.0765678231997434
0.0762417567583587
0.0994841015060313
0.0738873030080959
0.0905763282475625
0.09245816133387
0.0986012329692313
0.10133495443241
0.0806050091564899
0.0735734030518883
0.100690536802489
0.0675354545372962
0.09604306933137
0.0727027928768255
0.0962005175106811
0.0738580606745324
0.0647283696296576
0.0720275701239447
0.0746259562655799
0.0982954304562915
0.0981835197538368
0.0699527466308545
0.0795001551922708
0.0960939927709605
0.10762492296705
0.0772271627320573
0.0768860800556788
0.0757837885157022
0.0654492911968909
0.0992601415998832
0.0997819196854661
0.0740021648488788
0.101798608332229
0.0817904113225655
0.0707560902533539
0.0757615751309091
0.0969549244188343
0.0739422165710153
0.0953137100240424
0.0656070664477845
0.0718062210049265
0.0769189734688528
0.101471439677998
0.0933552738141832
0.0931739381325562
0.102478673014422
0.110368453818934
0.0794410379829004
0.0772024325963723
0.0680816351144588
0.0763726030316318
0.0990273854198619
0.102191745291012
0.0774872782680204
0.0953582419774546
0.0993516645850233
0.0986963687955357
0.0694088260457609
0.0702969623525011
0.075465188001417
0.0959965970008926
0.0777323017875072
0.0962575622206186
0.0743485932018635
0.0980766370288859
0.0764238303982848
0.101020189339371
0.0780630032936716
0.0724440923166595
0.103476617894369
0.0760668832291717
0.0973322602026316
0.0995395250660123
0.0925649055182313
0.0980603151666566
0.0807440462985406
0.0988047009166971
0.0714126129953863
0.0699813705976255
0.0687278358247991
0.0784982329321841
0.0971140740179344
0.0790326334500356
0.097044863373602
0.109446763313666
0.101697949622906
0.0991398444255405
0.0730315144809208
0.0737877098186975
0.0716800366118637
0.079471580443996
0.0886296757858156
0.100588111406301
0.0975100717890683
0.108618955406806
0.0777472631474351
0.0774843861055768
0.0814575050872372
0.106605441293524
0.0744842805465396
0.0766206045956406
0.070771633902644
0.09355643175055
0.0755489325618934
0.0994723013530955
0.0977981227123977
0.0937352764396517
0.103222193503434
0.0982319099950104
0.0800798183977193
0.105888865774355
0.100789050407199
0.0737824104715371
0.082718772284148
0.0762988375400075
0.0985144997305576
0.104507609971827
0.0907813932284382
0.0713898326461188
0.106779982971747
0.0798754450046307
0.0736652985765424
0.0726908443098121
0.101898282003851
0.0969697089361959
0.0952129099666856
0.0689191107624567
0.103747675634557
0.0922378367137586
0.0841103165187832
0.0264806617086319
0.017826622488473
0.052052933096154
0.084169371780878
0.00294133277330565
0.0450422477137655
0.000512911022540035
0.0944339470387232
0.0498375870255203
-0.00542524897072715
0.0768692607522151
-0.00704913526174905
0.0265305037865024
0.0236442242986417
0.0325498923735551
-0.00319226339530472
0.00213832119398954
0.0231564858801036
-0.00797965202636557
0.0301380151796198
0.00805383808878321
0.0396788035263484
0.00592163928403764
-0.00629962034755258
0.0363967439584295
0.000976477148315926
-0.00225236567971994
0.0272656664554385
0.0513693283477311
0.068932456392258
0.0173650891673132
0.0498643786708889
0.0406435892440696
0.0236964437803021
0.0592832489176516
0.0222734145563573
0.0434720169265596
0.0278169792897985
-0.010164190110105
0.0449615652242307
0.0515650818182781
0.081253249917301
0.00119336890725469
0.00570921151147468
0.00405590194505283
0.029645216419029
0.000883382158920156
0.0247465645810032
0.00348145444753632
0.0742159267755101
0.00824047686726306
0.0229247420812704
0.0226408282268199
0.00316983831803887
0.0218089050974627
-0.00415006687514139
-0.00185368960938937
0.0291979252753566
0.0491377685966252
0.0614244503919811
0.0479488806865652
0.0374947684801362
0.0269599312992051
0.0788449808492372
0.0278929279440714
0.0514398086074793
-0.00289524405442352
0.0290229591733577
-0.000493182113770965
0.0755721042809529
0.0743133865416771
0.0300954582174513
0.0246234282209531
0.0210173730206278
0.0262652456191311
0.0288233283671679
-0.00590745896318923
-0.00224895602139313
0.0703551350487581
0.0360864115488353
0.0210570854109103
0.0233971316265275
0.0177116304383109
0.0549812146290349
0.0286264543574072
0.0203769197102995
0.00287869512078356
0.0496903674567428
-0.000688709923960159
0.0282708477763362
0.0736220269724944
0.0738602311461016
0.0211630398176961
0.00262472643262037
0.0539052566121982
0.0557847011253156
0.0992527174821235
0.0799155636269956
0.0514763057039308
0.00461866398017093
0.0296403134822066
0.0265363971799327
0.0257298074398915
0.0322882890786256
-0.00627082753465551
0.0694689810426039
0.0217921750604816
-0.000542596450962944
0.0568565651026069
0.00459765179091898
0.0175809037918835
0.0275833170533213
0.0303034463012894
-0.00168256905169564
0.021505410549645
0.0300528418372595
-0.00619707418692015
0.0182674368045334
0.0184811171665051
0.0555104937194204
0.101168583858126
0.0475275786586973
0.0290859977587663
0.0278962155953975
0.0407561773662674
0.0311478755396486
0.0803409956317194
-0.000955254711886113
0.0774975170375722
-0.00346442160927758
-0.00519939034586259
0.0843176665623765
0.0981558174836692
0.0197354221756961
0.00367099589513068
0.0148628509067727
0.0277466270988037
0.0404326921688043
0.0543462036834382
0.0513913160940945
0.0137706109524875
0.0756783174723295
0.0432115967000244
0.0221980883154892
0.0223965721346732
-0.000145353525791154
0.00266830038336258
0.0303867203100571
0.0539165344558172
0.0432308394733096
-0.0133954944168279
0.0562119730796147
-0.00256623940609388
-0.00121733304976958
0.0470756590722568
0.00273112070563962
0.0210679902599103
0.0315110775520429
0.055557720508573
-0.000587277151487451
0.0467474405424413
-0.00226231045460798
0.0316328750084792
0.0241861766193667
0.0134111275182268
0.00113215098373988
0.00268046511599306
0.0677104329866557
0.0185293803109992
0.00725192080698964
0.0754448443921497
0.0492858673394921
0.00796214441043593
0.0559018842815375
-0.00636387123953111
0.0592630722105203
0.00645086385833655
0.0725003008769921
0.103217148334886
0.000907888920091027
0.040728121642001
0.0510059583904787
0.0301511697624959
0.0508655339109824
0.052703253486116
0.100010502092244
0.0180491829481202
0.0977675584868638
0.0805898930464878
0.0483145323640811
0.029132923520855
0.00639760866085676
0.023855917950921
0.0523183381375064
-0.00883796777510388
-0.00324010385257945
0.0047994045868534
0.0467352864435844
-0.000920232651087196
0.0287453941036991
0.0659060477904614
0.018073305999909
-0.00503074138345703
0.0279722338912288
0.0465627530084115
0.073866282140247
0.0294337382454266
0.0726378283700901
0.0294713977770262
0.00585192121314462
0.00850036362757299
0.0427675275314943
0.0273679522959085
0.0502374630596958
0.0264587887048667
0.0232153609414706
0.00202907489286524
-0.00449265696842618
0.0304291078634395
0.0015176623253922
0.026837541652756
0.0264020142967293
0.0684646794036446
0.0274716765512282
0.0227127287029696
0.0256530429855684
-0.0014771767203136
0.0702633183791054
-0.00103335697874852
-0.00106338853366602
0.0756823077917882
0.0275128279565318
0.0339385251819174
0.0483713592006425
0.0264548437602782
0.00650117355492299
0.0508456013725586
0.0244706717765174
0.0296683257294032
0.0795062315272481
0.054691031380374
0.00326993386081618
0.00644580943988855
0.00560798809421218
0.0215057284366549
0.00180877765570638
0.0205133635657735
0.0221562187342719
-0.00594074725278439
0.0250775847035887
-0.00160844218994771
-0.00340839629458618
0.00420780423758427
0.0224545239597543
0.0746083676566545
-0.00494685646022282
-0.0112157088693458
0.0258536331626933
0.0267425782386541
0.0480006223059431
0.0330205761606567
-0.000816932513076653
0.0848539568477627
0.0445610518481601
-3.24693218739293e-05
-0.0030605331850703
0.0259375200645668
0.0231658721419417
0.0328300153677173
0.0716574350053314
-0.00718752250248455
0.00268942411384525
-0.00127389425398534
0.106205505878468
0.00568304611038468
0.020627798784832
0.0274414208759555
0.00398648358194888
0.000326499847673252
0.0467350039607271
0.0436397815134802
0.0261906602364859
0.00109375903144346
0.0040602913562722
-0.00240319807939187
0.0306201732716602
0.0261156239842035
0.0238149534578328
0.0283673484870725
-0.008300209970591
0.0546287220529679
0.0543663882604419
0.0520545873237795
-0.00322331762463824
0.00594524664165848
0.0268311156083032
0.046815808320849
0.0623472517997466
0.0264009939429657
0.0241346006838647
0.0234067358221685
-0.000817840476399548
0.0507004354971558
0.052136474548354
0.0200723842186877
0.0252103809054246
-0.00449738071854191
0.0232026160116995
0.0517132024270828
-0.000342611251598326
0.0379610415476337
0.0509490243666436
0.0516487190659769
-0.00492184096704704
-0.0038206776502398
-0.00856055163921358
0.00666701990723208
0.0215992224825891
0.0270183433748541
0.0783639252052476
0.0583055724104739
0.00375501089186848
0.00112615751385726
0.0812267725459693
0.0188536517883398
0.00587241553795631
0.033421880286678
0.0213816032502906
0.0541851282380022
0.00514587569507098
0.0240077242236797
0.01986246266767
0.109308167399153
0.0784540452984754
0.0777702062468064
0.103948854343517
0.0234430732499313
0.00323387281999079
0.00791706770430563
0.00392550715577878
0.0272289343000099
0.0473163310393005
0.0241460123557169
0.0822349066445929
0.0318966476748614
0.0453181017424888
0.0603690301381483
0.0155197921957387
0.0300311875169341
0.0462052466881876
0.022043272231209
0.00383834208033686
0.00071777253536453
0.0497257898751839
0.00575133686870224
0.0101503513457931
0.0488426404642874
0.0216783736071322
0.0683761422171729
0.0627158071874912
0.0016808810229837
0.0342602876791125
0.0309372187279603
0.00821019758897052
0.00327085775835974
0.00213546969502445
0.08005109931847
0.0508402181204854
0.0273892852148673
0.00183461907686736
0.0807985944123508
0.00962933021767994
0.00272105576075935
0.0502547901697099
0.0704051501526995
-0.000373131782826046
0.0178009786088278
0.0585852696635497
0.0230471207870212
0.0329842708194539
0.000546036064077903
0.00395910776130973
5.35591470278984e-05
0.00327025032950241
0.0231206224019271
0.0310756057382542
0.000246840889818765
0.106605500920546
0.0166513253800629
0.0272333175177561
0.0433918890817698
0.0197851629899272
0.0435705994081355
0.0151229478258365
0.0298911285087533
0.0603257920850765
-0.00802377651725637
0.050901158312901
0.0282462776515927
0.0158638744717562
0.0734297093245723
0.0237483232465773
0.0911456363724944
-0.00216432013166218
0.00371129013650164
0.0249548857820776
0.0531433155084261
0.0454020683234354
0.00316798146156823
0.0417319880202532
0.0237824252509401
0.020157586950033
0.0589571645145849
0.0335717983893664
-0.00497249722563996
0.00421981266004182
0.0496681064772032
-0.00725882455879047
0.0508062851837808
0.05609133468328
0.0522478250746887
0.0464698422050449
-0.00393740032355978
0.055330123465715
0.0265182021226061
0.00633118218494371
0.00338515261148806
0.0271585011468214
0.0514532191498217
0.0494610841159676
0.0131113568065853
0.00708137830161854
0.0789437219723562
-0.00849096361851782
0.0722679501140616
0.0138216554137798
0.0334529949692224
0.0248096325452917
0.0937069946344146
-0.00376070769897201
0.0533174908133126
0.0698136166306683
-0.00656086576156442
0.0485793946389406
0.022041697765123
0.0225981489688952
0.0245918894924343
0.0479041185124438
0.00304423006891197
0.0539044042969938
0.000511454919491812
0.00348419009989251
-0.00121373741593948
0.0200015016216259
0.0554124503847976
0.0237358014565326
8.60034915439912e-05
0.00593194295178349
0.00544930822718431
0.0161864591092015
0.0429410044148537
0.0231562521483832
0.0268811887331692
0.0789001843421373
0.097363406332978
0.0186685083551694
0.0190764945300731
0.0702035423611554
-0.00292887305590107
0.0691885240692474
0.00407311554667096
0.0273148135156859
0.0328081287454305
-0.00649146106756696
0.00866149189852305
0.000196686483571807
-0.000941131946784557
0.0226420879613554
0.0283805305259832
0.0283866864030337
0.0266337475778022
0.0326040820481717
0.0457370023869423
-0.000135711056294974
0.0268514683187233
0.00581983210476119
0.0127728325783784
0.0272013565087065
0.0790997691199666
0.022490609529901
0.00266537372077599
0.0583501230028875
0.0802357960387074
0.028498249461033
-0.00524334255546635
0.111949965347712
0.0669271423100843
0.00592399343040971
-0.0124608512908191
0.0204366619314032
