0.0512714289748042
0.0495536596910611
0.101583866620108
0.0514751660754269
0.0964557251651542
0.0903217993250865
0.102417820819813
0.0462121107403443
0.0439971078201872
0.0565207292845597
0.054211003577411
0.0551144436088165
0.0499664200284731
0.0937187912986775
0.101821699863763
0.0496579777126959
0.108977636929627
0.0971719528129857
0.098072459549647
0.0526435158369622
0.0530612272683517
0.0456383568870504
0.102780733684725
0.0977079722633275
0.0982056286225216
0.0978707889608621
0.0489941798467591
0.0947850248768203
0.092958874794375
0.0963344203039721
0.0536305606661255
0.100236902632149
0.0459552950352348
0.0994428069348196
0.0462155281210809
0.0934536069988006
0.0527043563799007
0.108331596342392
0.0952292650178302
0.097739085418512
0.102909165252715
0.055408296670679
0.0976735436702374
0.0977846366931546
0.0537044820266445
0.106940143143998
0.0532490143201714
0.0457924419591692
0.0989596831173242
0.0438927275589105
0.0445596010422271
0.0461066356758116
0.0996562064240639
0.104239813920018
0.0907310878462287
0.0522349036992686
0.0940725479700927
0.0945069945474766
0.0440482333434307
0.102360908781332
0.0490754204061
0.0491173985807709
0.107654308498393
0.108175314778506
0.105004792661035
0.10613908109426
0.0934026013197152
0.100511333970831
0.0986782756727261
0.0980905934231351
0.0923301472656974
0.0951582932683172
0.0915495041569104
0.103384769120811
0.0526868017277931
0.0518858719059243
0.0968347550147395
0.0502106331701056
0.0451283557140614
0.110772437313788
0.106287965323011
0.101047068565837
0.0558111309249572
0.105620961586813
0.106813692719631
0.0987493616106073
0.0995578707217244
0.108888777552264
0.0524975642710162
0.104238894965944
0.107640139121163
0.0615760633033117
0.0521500216997729
0.0434852884450106
0.106404716420078
0.0573538328726178
0.096029796689577
0.047577111377564
0.0509756377375261
0.101507069510224
0.0569874280322941
0.0442648246578316
0.0493958677472528
0.0554651113757632
0.0950126295877357
0.0526540584992803
0.102676445198749
0.0992952456255855
0.103361187150829
0.0981603772522956
0.10266438422141
0.103241564291134
0.106848461164798
0.0554002156379384
0.0952086319982279
0.0472762153439641
0.0929703379852043
0.0981861519755069
0.0478771094184837
0.108264302821002
0.0898666618996085
0.0462349879063405
0.0522240703970918
0.0527817844549877
0.107624618396578
0.104978330702455
0.0530801860753543
0.0548157336573978
0.107221267908083
0.0992941580418506
0.0989802195351755
0.0500727182175325
0.0534416886661319
0.100495453011523
0.101281766956179
0.0527911870390684
0.100585865092079
0.0501163857683411
0.0430997727219249
0.0519532204936069
0.101051605623921
0.0990159174860109
0.098330810690904
0.0859732346312722
0.0429313375506525
0.108004237793869
0.0444568017162692
0.0965876967421489
0.0496211148681346
0.102115849727396
0.10218059775831
0.0897928421658308
0.103524929841932
0.105629129215001
0.0517598338958167
0.101623676862288
0.0553064153264938
0.110854934145832
0.0983687503215512
0.100368011605966
0.107795088357307
0.0947771065913074
0.0415688363953007
0.0996069102570301
0.0496860801648661
0.10099520718341
0.0964296380337987
0.0463122281019848
0.0961958318117525
0.0479445076350258
0.0410050568408292
0.0588760467271504
0.0492173834982208
0.0415993005681129
0.107327090754071
0.110983826394848
0.0480173527887035
0.103089262414094
0.0974823417951576
0.0921257581878739
0.109041650269625
0.0933543520654785
0.0998023081011693
0.0434876638097875
0.0921431394773851
0.0535493105675536
0.0990112792609183
0.0954003601880914
0.102953016346662
0.0917145654645796
0.100606116421841
0.0527878509972135
0.0917790215865143
0.0985022738523868
0.0873117837932875
0.105686338476416
0.0481783678921836
0.100465341598975
0.0530187453810313
0.103847364253504
0.0508336424847459
0.0520865186573898
0.0488735841715774
0.0507367678886146
0.0445069699588337
0.0545547782869144
0.100556730553971
0.101318458671286
0.0486974267477009
0.0963847408336384
0.0569664861210552
0.100308320681934
0.0957892342856724
0.103315092393313
0.0526319293747077
0.0912398316448443
0.0455100819699315
0.0461368827801888
0.0958402045867185
0.103679789928031
0.0382483951965704
0.0522763595849393
0.0514040763252322
0.0577534760598848
0.0961954869657649
0.109610565457944
0.0436913959794106
0.0439343610650972
0.102504063294357
0.0436809562032997
0.0392517407683025
0.0458706974091563
0.100010964449798
0.0477322549357364
0.0914716383069606
0.0461816992035678
0.0900730598222352
0.105393384262615
0.0490029013738961
0.0991116756935523
0.0940670088009605
0.0943553506855786
0.0493562709990015
0.0556432147722078
0.047833382423141
0.0492114112366285
0.0954567876479482
0.0458178385886746
0.104349229552159
0.0453170270836773
0.204789962370201
0.203071326645859
0.171562300034833
0.207979450461544
0.205310204770205
0.200051919467045
0.17967216940554
0.182868234316118
0.179185873020506
0.172082981052247
0.201147469688051
0.179555803918018
0.201816416559881
0.197367587020584
0.173066809712959
0.196466218402184
0.193696167740777
0.197631735861909
0.204014043424924
0.178087645439337
0.206344595336264
0.198333559862944
0.197505302812892
0.17156696158504
0.196125156433175
0.200283403338908
0.198989078786136
0.178027482368519
0.170329646023266
0.173737832906295
0.175878555406378
0.202829117512789
0.197516551127814
0.181278007669618
0.176362844836677
0.209220670225118
0.207148760834802
0.168275721087942
0.174655285428414
0.197858223530451
0.203706062825334
0.18139632703032
0.208255698508248
0.202948214680206
0.208424869255888
0.199388537122368
0.199743411023076
0.173279621613837
0.168331932306154
0.203827398006386
0.181187004152779
0.208046022278485
0.198513312726467
0.18340339999896
0.182154006198858
0.201528078611372
0.203381618447252
0.178864297509972
0.172602690553459
0.174490138682473
0.185714688673388
0.178793028364618
0.17259265839989
0.173392232792321
0.194556670867739
0.192389108756527
0.201205962797108
0.201131203334081
0.176952695936752
0.180251803347222
0.176723706042917
0.195079111810161
0.17085675830524
0.185255302081726
0.171425550071189
0.197440584499011
0.193550174622628
0.181846324682074
0.1685722303806
0.176625981556379
0.194962429311443
0.178346057527596
0.192639143586589
0.179083907913237
0.197402231438923
0.168043135374933
0.198824579204595
0.196997749372829
0.170236538218124
0.173527161336079
0.201528616285638
0.175543265940455
0.170743485459268
0.166657096487213
0.184178605462688
0.199721782775652
0.174530733789768
0.19864596622331
0.168857698421171
0.203076881615885
0.176852118311406
0.201817800420039
0.206152388420536
0.174883627995845
0.16681890340343
0.175784385437831
0.171270691076445
0.172837689355637
0.198380120925343
0.173563345056257
0.179386261139455
0.205402775854069
0.175535718545865
0.198948689317922
0.176746424999005
0.173570973966418
0.178127075499118
0.18135340058451
0.177748812420093
0.172420517293885
0.180009911366778
0.169017950638139
0.2061588675392
0.206807163182497
0.203491200459314
0.171699204556706
0.199057079023871
0.200226873229078
0.195915758049164
0.199220567702274
0.197299298316678
0.201177125393016
0.166937664333248
0.175837047967158
0.205306612947407
0.175827443697481
0.179917316345409
0.198330232037156
0.208953016326508
0.201146877889777
0.202232647708389
0.172822042857864
0.173162628092799
0.173192996254174
0.197674172839043
0.19141195275786
0.194134083721087
0.168748490153463
0.195263941842922
0.200271593670532
0.20439942750777
0.204793684414463
0.179960326796424
0.196512027565568
0.176732071732494
0.184174910313029
0.171763459369552
0.193291062534179
0.198938020500233
0.181453770090565
0.200180104978854
0.17496808070469
0.20171804092749
0.174961900606999
0.199491166717493
0.204911327230704
0.17948349754507
0.18195234701785
0.19296811120757
0.174102015833873
0.178138051653474
0.1763821318636
0.19865344662157
0.174701773354771
0.176593414389711
0.18022148489445
0.205342711604224
0.174630368590462
0.197862305373774
0.166750363800556
0.204660838897005
0.198433064126746
0.206708574189774
0.177909985932522
0.176595114916611
0.179735864927926
0.169501702882394
0.17583836185938
0.197382389689744
0.204854835900173
0.195081343447889
0.175605388200436
0.200062900973395
0.174835290865217
0.178775919911111
0.170095008856662
0.184837802544861
0.172961690376502
0.174246266655399
0.17636225404228
0.202286271992218
0.201376414372616
0.204430950740998
0.168841916620283
0.171054866485168
0.1978541550269
0.175274788295388
0.212044433060379
0.172640899594586
0.194569856193267
0.17387736633507
0.165619252024709
0.173611389853396
0.194251509833711
0.203951720591814
0.189675841387012
0.17260659068731
0.172755006898849
0.1758605599574
0.177122496492675
0.169348455101235
0.200805444527424
0.199387767423015
0.175385927533187
0.205265527598822
0.180514162759543
0.178088173041031
0.200678942454354
0.174094910859988
0.173761126964972
0.20004085915116
0.202566117538975
0.20010497239091
0.166846663256716
0.178157994443084
0.181481013352589
0.178651202671383
0.177476071541767
0.177310407870459
0.203926184829783
0.173215918370698
0.198600601755543
0.194725035289327
0.199137749861216
0.201395248811771
0.194712868719911
0.178880677255092
0.20143337339145
0.208513109474498
0.172486459307303
0.0991836362271859
0.0456950256546584
0.0592674243096707
0.0777405046656813
0.0907213137853876
0.104671422184048
0.0914426764737499
0.0911819812275238
0.0951871949354279
0.103631292251549
0.0826788141524583
0.0607022845609053
0.0477825919983236
0.0422192643835585
0.10363459184323
0.104550013145881
0.0809502636742026
0.0668659411993598
0.046412138110816
0.079716609107783
0.0446951828079182
0.0735383147422407
0.0490412099430261
0.0996285998905795
0.0981089107908926
0.0673613944057583
0.0856858155015875
0.0691765522911385
0.102330254227682
0.107725560737074
0.100402914262168
0.0935286443397998
0.0664348820809755
0.079525833977131
0.0968150326416439
0.101164490250158
0.108572580522091
0.104143440347345
0.082263569424839
0.100315766722728
0.07479202599936
0.0771569130255794
0.0553918915342867
0.095972299252889
0.0602483390371359
0.101427886878907
0.0970537628878384
0.0989616618756272
0.0987672710754364
0.0728187203739105
0.0547444245096025
0.107267102653442
0.0739634861457386
0.108387762352242
0.0975297295988525
0.0933435816888466
0.107758523570654
0.104719241475388
0.0492138423920383
0.106634806570456
0.0911377193115263
0.0500998454615178
0.0980641133242656
0.0977466375508772
0.0931945425957345
0.0551354887556845
0.104588779183422
0.0370459226086534
0.0967685474810334
0.106903764785011
0.0981069603237203
0.0487734014678191
0.0488615973045016
0.0756329025240592
0.101736200932075
0.0799701542697971
0.100811933669479
0.0832659728374792
0.101006663473801
0.0598404174432243
0.0978440547777954
0.097809868138135
0.105896060550979
0.0879761426703715
0.0460325895251651
0.052403094184918
0.0448613507076786
0.0974606937666948
0.109986721958222
0.101478172015591
0.0484263109314442
0.102833861151631
0.0965534299758842
0.0729975602103548
0.0999555913122198
0.100681209564138
0.0530082176822966
0.097751173419745
0.0750176437997032
0.0566767885924428
0.0789119951959717
0.0782527179600384
0.105927754282122
0.0588427995153126
0.0732021412609814
0.0673762330918157
0.0993841796040233
0.0704483418890562
0.0970457650791451
0.0788831362570589
0.107232750013087
0.104619014025559
0.0944267394818917
0.0515554959774088
0.0684364863621773
0.0963777844499744
0.0864911686143599
0.0772618338077633
0.0506023189063159
0.0525343615343414
0.0991133972586581
0.10159374765602
0.105401963968893
0.100095783252632
0.10073694472802
0.102691732610893
0.102493441026795
0.0499523555307267
0.0499931794552822
0.0628083231270038
0.0691266628215652
0.075263297700406
0.106464657668791
0.0496882125806077
0.0998481547378158
0.0681956845418384
0.0962461183309243
0.0934972203648413
0.107444413154363
0.103677161770875
0.102184161998089
0.0927143218937729
0.111196798407374
0.0951216991759602
0.0820952190999129
0.0576363824819919
0.0575391758684043
0.0591007061222871
0.0966706353672108
0.0788598107707181
0.0960195241180472
0.100839217556443
0.0913988579934897
0.0738241121580312
0.104481783890933
0.0999594194677192
0.101228986592128
0.0686238632198105
0.10050032351059
0.0826888580551807
0.053932763569681
0.0548985350364325
0.100987803184553
0.0983526805849536
0.104913312616538
0.0536049079692032
0.0481903743743897
0.101447795950812
0.100762525536157
0.0727198948715443
0.0811887078492071
0.0987936530226659
0.102872404206524
0.0739834557541194
0.0563143014651135
0.0493421885546623
0.0972544836496063
0.102943155963096
0.112278804579826
0.10095251595618
0.0523608965348363
0.0998338380586795
0.109849925494213
0.0509171629390864
0.107537229410897
0.0664177955909561
0.0479958678670635
0.109817959949364
0.102280612646823
0.0996598593152243
0.0526975637837931
0.0507284790166877
0.0816060592814837
0.0932226859565179
0.0713615680741053
0.0402586211914292
0.0684466453995601
0.0989442364908859
0.0941535990729338
0.0978486531416816
0.0516928285609149
0.101844401818955
0.104438134186365
0.10266847931412
0.0514131790013789
0.075391315304269
0.0527081094644888
0.0412645415652889
0.104804206924821
0.0599419605344938
0.101010470237564
0.0515239601561843
0.0776704181432164
0.10881445911137
0.100129357951802
0.0751994510636702
0.0947488709360353
0.0965752469598548
0.0448144256779584
0.0586662318208554
0.105680176340037
0.0508096946195141
0.0971161263861614
0.0975591135219602
0.101583950501944
0.104120200694484
0.0750193854454744
0.101652817947071
0.101324174657059
0.0757726296725405
0.072676543387715
0.0419496152994866
0.0446718442427881
0.098739619188685
0.111131323250953
0.102650174181882
0.0960862823887253
0.090826852643569
0.100722288939257
0.0963580746505573
0.0523339371842711
0.0736093546735694
0.0522195614530684
0.0822398858226462
0.0894351025253019
0.103833974378928
0.0781626813706609
0.0770164788163958
0.103344529470029
0.049032020529826
0.100658257824302
0.0515584308958778
0.0958678861663792
0.0793851094323854
0.0483233588968532
0.0992364256276053
0.106332786952171
0.0987896015049936
0.0994011666251539
0.106089468476438
0.107913166428494
0.1071304312725
0.0567214542210251
0.0741686709893058
0.097279512122443
0.0449249221232463
0.103838683054151
0.102519255537819
0.0952124660288639
0.0813506666905982
0.0990619878871164
0.104400260481778
0.0938194194510746
0.0734255090816892
0.105506129829774
0.0697161407575031
0.076220138333715
0.10795596018611
0.0924290854419237
0.0875729206821585
0.0493653798552185
0.0472998500197274
0.104073738631337
0.0914942865546557
0.0973631329962788
0.0609587357633133
0.0540562970975559
0.0410675147906551
0.100105933468805
0.056578380403344
0.0513819079804359
0.10216930650572
0.0514461466006114
0.100017866014712
0.108072267030615
0.096602919983519
0.0764252233890763
0.0982998232299477
0.0711100091490887
0.102656279336033
0.0987256991289976
0.100355929573006
0.0990986463487173
0.0996950004758288
0.10722373631301
0.089820274171589
0.0672429600795191
0.0960789526213392
0.0942880101078189
0.066989965983002
0.0464928567194573
0.0551490141206225
0.10066507732082
0.107186269085224
0.0997891145963284
0.0456774544276398
0.0688845000800147
0.09485858308336
0.0545685723079757
0.1087697081275
0.100763475200686
0.0690805892788105
0.0769661307354251
0.102470145901204
0.103551845039055
0.0962724256112875
0.0472333698273833
0.101225463730229
0.0729458233656808
0.0666732198491158
0.0539228807232277
0.0507408935308329
0.101713521622197
0.100251257096274
0.0422377977906906
0.102299799951818
0.0519346948013598
0.0871558651172482
0.0762388907720933
0.0507256682005653
0.0752281870340576
0.114130054518505
0.105958071250409
0.100167484717999
0.106855989351252
0.0572509065985656
0.104213974086563
0.0401758854394307
0.0548577928231485
0.100115067513646
0.0994583520224915
0.101537479226874
0.1004961738378
0.0502579096651316
0.101790590709612
0.106762350839047
0.0506135852856998
0.111481545868814
0.0959910691257982
0.071871926254103
0.0749841356226266
0.101619730280206
0.096166131821746
0.113245597034224
0.0994063072018679
0.0797438265316691
0.10097065975851
0.107605215297323
0.0500020746197967
0.101075108734077
0.100208323635123
0.0809434807663022
0.0439887255255467
0.0982919182795915
0.079651665545146
0.109684901225377
0.0614310571052107
0.0559476458766225
0.103989057252951
0.0575943060554731
0.107179675040637
0.0482109036130848
0.10140899576313
0.0492692799150792
0.0978592722295673
0.0986026825610264
0.0487426052531717
0.0711520405964828
0.0482938022645221
0.104689609587874
0.0755676902121559
0.0996188179672544
0.0730083809959925
0.105306194331446
0.101007466342825
0.094782252469639
0.0484664155940314
0.101877859167478
0.0738062574448499
0.101399224114782
0.112058492186648
0.0988772986002146
0.0938609119378883
0.103649718166638
0.0726919044643585
0.108645638130381
0.1024433847212
0.0671984501364097
0.0640866172002128
0.0503033529562654
0.105127549011174
0.0770235305224209
0.0920039528010077
0.0934594799189346
0.0442476373161895
0.0476668386417081
0.0933816907736392
0.106726279168195
0.0499046720677873
0.0480282516516736
0.0796484087383818
0.0771069104347984
0.0532688611668741
0.0938278173349585
0.060190437192343
0.0976823768379569
0.0973780284477326
0.0934068396042635
0.0483764954012217
0.102365718964943
0.0467277163832559
0.104991447072614
0.0703756797059176
0.0523062707173632
0.0964067058021135
0.0498406207033183
0.107846828262369
0.100244068898701
0.0696082407569645
0.100754593317812
0.0890505351685206
0.0997701959397833
0.100572584373412
0.0981844015641647
0.0475983481242428
0.0483004697646538
0.102682933787582
0.107247346520003
0.106909675293536
0.0580142128782032
0.109173773785469
0.0929849792928002
0.103188147609164
0.0987446091274022
0.0993843883555587
0.103481555516402
0.0474153032775301
0.0523437177742857
0.0526412607385711
0.10695992910002
0.0998815126511679
0.101717793406021
0.104353972030457
0.102089504808324
0.0974332395467424
0.0942717064685792
0.103624151858076
0.0900499783752535
0.0439497642474321
0.0520163917789364
0.0470019579251612
0.0502406101544261
0.0927206114273427
0.0970563345981528
0.0952879554498529
0.0984205658829127
0.104489147718411
0.0967260262952333
0.0463205154054519
0.0712989340548726
0.0972282955657691
0.0456898391045095
0.0964244532935984
0.0474054523121783
0.0734924871682698
0.0955610082504596
0.0963297310430982
0.10540428150406
0.0513244893941691
0.0569313524072565
0.107782814751855
0.0685786343436842
0.0898097672162077
0.0454112402490641
0.047023951556859
0.102576740804706
0.0799989148404325
0.0459707373340293
0.0544588855948188
0.0975386279529157
