0.0968052845703571
0.121090628800446
0.0965070614737786
0.102015446451053
0.0916408065706651
0.099376551887506
0.118087275623887
0.0471150967292437
0.124934528621576
0.104218929721868
0.0981672997038463
0.123169173395219
0.0889364186181542
0.115045944613364
0.130810246687739
0.105193957493254
0.101693515418587
0.128794060163223
0.0529408037800158
0.0969574355033565
0.0923145430376762
0.131081201509365
0.103177528932023
0.128107181574035
0.106964437943881
0.128513091771497
0.0948136659448655
0.130014179199746
0.124217619303284
0.117761843817199
0.045568168175207
0.123552450379409
0.103435883209362
0.105391108608533
0.089508517756071
0.102335012489483
0.123633493026134
0.121514540950887
0.0478374876605863
0.127178510302509
0.126444627408397
0.0957505755768531
0.120208820564088
0.099600192920594
0.0977451163446565
0.0927069710574478
0.0492386729203788
0.121084251786262
0.106350517927471
0.042919330207117
0.102477542406389
0.128547830659511
0.128871463872612
0.122512825062793
0.09464780311365
0.100530687695337
0.12174382209276
0.118012963226551
0.121380064889192
0.0981166777034454
0.0921426425954108
0.100306626330649
0.10551175960796
0.0887624562458769
0.101511944550936
0.129460987711144
0.102050897740544
0.098948101802346
0.128968687763025
0.0982656288766306
0.126337190590818
0.127513362116464
0.0449188018833715
0.102858942540916
0.0432208286188834
0.0443391068255988
0.119852555626751
0.052887058432614
0.0997326579953316
0.130450747566699
0.103087788096024
0.117734148366862
0.101887914246468
0.0954711230548732
0.0587692828099821
0.120080782841199
0.124388358991469
0.103449311564631
0.0909988344474952
0.10053103560468
0.0559306096996782
0.0981120177147508
0.119513598839921
0.125119860261196
0.119354739813693
0.123506678344799
0.122127184971102
0.0990489424856316
0.103758344615001
0.122650233844337
0.130036810900593
0.102194314253565
0.119285010242983
0.120209852003958
0.0964935343463256
0.127423259637699
0.121303090105793
0.0575814223592786
0.121580701231818
0.0943825175821571
0.100996634395424
0.101838292475815
0.0963674655766606
0.0971696171419303
0.0559611909590753
0.120230428644768
0.050821952570913
0.12653764404385
0.0972829018006702
0.128747756842541
0.0481031442221668
0.107064315937022
0.103183572840552
0.102077748282433
0.10393095557958
0.0969997918099581
0.102849412610457
0.101208182727894
0.104953228147847
0.120634550430293
0.11777786081906
0.0984002362866774
0.119762829982941
0.0932399695572836
0.115709944326902
0.105356283499483
0.112546809022446
0.0945994067811463
0.0381440200443793
0.0554487458062434
0.0521591421729553
0.100520690206281
0.128160729622125
0.10333037411147
0.120300890512142
0.11304364581332
0.119904759743419
0.106869438869534
0.124544935888451
0.121120571846649
0.12882350071744
0.130401217516976
0.12986018977156
0.10229747704473
0.101968062913394
0.0986670127667437
0.101038292285473
0.0459041636302839
0.0873367872232549
0.0964164924237819
0.0454171030645249
0.0894610500961344
0.101650139365273
0.122939741209106
0.101651433794204
0.116341853326304
0.0980671014037402
0.103672785184073
0.124083780884526
0.121074198859669
0.122130928180385
0.130794947093469
0.133093702018946
0.122515326089177
0.120967215223064
0.10791588083832
0.0504001435335945
0.0989263411234279
0.0998385067550095
0.103566219995251
0.0971421439204462
0.105930602585728
0.12838138950383
0.100898839770497
0.102554039392843
0.131885418166303
0.0506570288654372
0.130244693434362
0.0993482269574528
0.0961707864289867
0.108161464698567
0.12493844822198
0.0973572653023256
0.0474432030427082
0.105487808426098
0.124685492002551
0.10432222181699
0.0938245412850732
0.135262321229351
0.120321547230766
0.0985536494696479
0.110249831704022
0.130335527902202
0.104596908312649
0.125873277193103
0.100419621989539
0.0977027435754781
0.0995459642021902
0.0985443216441744
0.115231592354029
0.122128323715877
0.118380725922488
0.127975421918901
0.122886404712367
0.0903446852353108
0.103511341748958
0.100353389709028
0.122851367426717
0.120688769052079
0.0988438533726764
0.0504675738939523
0.0585523232536755
0.0906814745498744
0.103878224670038
0.121091327359217
0.117702175495263
0.108060853181905
0.127510064775096
0.118086922057351
0.100695174492061
0.0958978524894484
0.133265803686467
0.12369443365516
0.0985579367638479
0.136155531804725
0.0956642505970889
0.103617209380937
0.1292993057847
0.121601575984145
0.0995702824312072
0.132621291738856
0.10022981460448
0.0930163293935496
0.0943094415909657
0.121931361452026
0.128531134478093
0.125596801001364
0.10394176529787
0.116931675891877
0.0936037640618957
0.0702718864827178
0.0840240504423143
0.0922939672787116
0.068591119959342
0.09072123966523
0.103530684065108
0.0792907268903442
0.0830988535255007
0.0992018315565327
0.0793643908552044
0.0700799001068891
0.100072315900599
0.0962545363224062
0.0914228813978996
0.077029449031768
0.0752423482826074
0.0722723216708774
0.0978709289128706
0.0969922457241047
0.0937911660928009
0.103703533037745
0.100524088818471
0.0675109823399207
0.101050564296254
0.0979245068909878
0.0932145933507759
0.0967457453819282
0.0743946045444938
0.0979167948928622
0.0762871067071204
0.094753856456694
0.0997625726268001
0.0757621597273923
0.0775761564786795
0.0939909998371558
0.0968576664501093
0.101305102774535
0.0818373499655677
0.0874711220572413
0.0845408192702927
0.0963810838532484
0.095800578092452
0.0775815706951462
0.101449857327726
0.101259981509295
0.0909904929309393
0.103194867790917
0.103310376329302
0.0760948357744097
0.0770592517943656
0.0982047602627656
0.0861538870941721
0.0930583108662438
0.0927782284675457
0.10084040803521
0.0781960616917422
0.0661501598926927
0.0786334667403984
0.0698816127662219
0.0645623571802815
0.103579382252105
0.112416521511853
0.100630050753468
0.0780989037275121
0.0853716798172786
0.105645255560617
0.0679813766917057
0.103443798070058
0.102509421640071
0.0739917884801223
0.075064650884379
0.0998396512017854
0.0758167782336698
0.0685853980161035
0.0819273703121028
0.0675781290104312
0.108100696358836
0.10165331382559
0.0748310261346459
0.102791089037943
0.072522052379562
0.0738118760892285
0.096491643414458
0.0702642494355456
0.0985741717154139
0.0803240749089904
0.10747583795396
0.0798576325107131
0.0732470885831026
0.101510655156985
0.104681226558481
0.106931315419888
0.0749862852598949
0.074084050376881
0.0962856599502413
0.103194772368325
0.0986297795243384
0.10084408672597
0.0976106376990238
0.102328108451102
0.101525137311255
0.0744492660952423
0.102257394101562
0.0686554338042297
0.0648869722373698
0.0785229992912928
0.108828995296762
0.0808482072127827
0.0788234654839088
0.0719536581997446
0.0874629645061879
0.101840058352861
0.0734837045791515
0.0814139432775038
0.0923421758456057
0.0799153621041615
0.102276355867461
0.077528855898045
0.106904530259536
0.0937652775285377
0.10211062480527
0.100592852409067
0.0771040392147177
0.101813566350414
0.101522603120384
0.0874884505922715
0.0755851050770075
0.110583477037781
0.107318797587094
0.0775339761070639
0.076960656649177
0.0943005199356929
0.073856072940558
0.0721742746551517
0.0938606911977781
0.0922243415938988
0.0738117965539813
0.0644204811693627
0.0703090624441872
0.0829404709280334
0.094605234217055
0.0776236409427314
0.0971289246591607
0.0758188006862761
0.0710910548890906
0.0740723560865783
0.0751105627704525
0.0734695120264978
0.0762653457136001
0.0938641329071742
0.102980042560462
0.102625916141827
0.0714606772158698
0.0753472958147384
0.074221843679152
0.064312567239838
0.0787773598462921
0.109403776032721
0.0723205624717759
0.0678159754361488
0.101326581742489
0.0889425000989291
0.0842291552193225
0.0944758896098279
0.0974882546804124
0.076586323000153
0.105822742850778
0.102203591775224
0.103709148226199
0.0998809264948057
0.0995056123340334
0.0993793463692242
0.101285233047696
0.0706837844379299
0.101619406094085
0.0946255075214775
0.0731676836837784
0.0775307186714849
0.101921691234202
0.0773820911164723
0.0763521558939218
0.0690882521490499
0.0799952091847525
0.099209789330779
0.0981569952296969
0.104328076027611
0.0746191258895808
0.102520159489493
0.101309739509366
0.0719064302806492
0.0729362437446355
0.0706302895347435
0.0794717807521006
0.0994694221792705
0.0695724951846263
0.0768854155553827
0.0680340794035598
0.0817304173976048
0.0724422061795988
0.104989323082151
0.0852734496568008
0.07379143530145
0.0750365956458647
0.0768245389246271
0.105811825879286
0.0666091581644162
0.0991997366140731
0.0831662389925555
0.0957826812961315
0.110311036983112
0.0975903658364326
0.101525342688187
0.0861401268774577
0.104649231960963
0.0969038106765956
0.0960876664954642
0.102268017618794
0.0978779743623326
0.0999492736494746
0.111262929110309
0.0958087401882178
0.0969936127410583
0.100539884776402
0.0749705885940101
0.0973987607979122
0.0763431164935354
0.0913652140375074
0.0906673348292681
0.0839322993316692
0.0693200261932751
0.0734789069255377
0.099777605789439
0.073781136763887
0.106879390366631
0.0994478007077297
0.0685269197200686
0.0780736337023529
0.101249428076862
0.074634813928235
0.102235481542078
0.103675871314792
0.105254557965132
0.113406994360985
0.100727204273352
0.0693027095163803
0.0999528872137665
0.072746890168561
0.0678137885026991
0.068658385400508
0.0994063603506757
0.0739694054946645
0.0950785464810637
0.0986852053194906
0.0984395860445649
0.093104034607258
0.174187333731233
0.178368624362842
0.0976214286926708
0.177073547547859
0.177562573403144
0.0959386058756548
0.174747231534611
0.169206923408485
0.073226603501972
0.181401554582451
0.17359699148942
0.173545687704877
0.0986155465246613
0.173543520128555
0.178586090686755
0.174126139589867
0.0746756864782066
0.102367923872571
0.0960251860420137
0.0941624702623903
0.0771811709160009
0.169796142313811
0.183250730877324
0.104024838915505
0.0698415483640223
0.100651751918459
0.0782857055133474
0.167267037384124
0.104260675935361
0.182925928565638
0.0742337501482165
0.0738706635140132
0.178440171932055
0.0763079333858873
0.0723532281143962
0.0966854507893754
0.0814931809532583
0.171836577598679
0.0737702619114847
0.178601519745023
0.175310185390036
0.0771623401127655
0.0632747528983058
0.114566586212452
0.101438125501615
0.179098627295277
0.173890882326363
0.120976261436677
0.165705421716874
0.177799844229123
0.0940285750482495
0.185661445460082
0.179867407651662
0.0982674549226007
0.0961122979582068
0.0963993529625776
0.10730800169677
0.0804069679579137
0.186318735379035
0.183319001349366
0.176157707660376
0.179061705308676
0.188223116460037
0.174596686058094
0.0984643946805615
0.0778630797948112
0.168621762959767
0.176941792368511
0.180780097734282
0.181822551547875
0.0977983411863329
0.0803407847100525
0.0793598331071357
0.104216432496734
0.178552137546299
0.0770718090606776
0.174529560534035
0.175593862211439
0.105348304736932
0.0969252529237166
0.0759116249040001
0.0626953086297619
0.170800340213414
0.0741481054640489
0.100755630185973
0.171636699429282
0.171548973528134
0.0720293805730155
0.168838249895916
0.1701993683075
0.0950032824535937
0.0715253138972929
0.185264032364042
0.127135844397712
0.105674892702158
0.178179544597064
0.178762676985835
0.17631324693067
0.167250055110792
0.0946150854409764
0.101215646335605
0.076765344364733
0.0792959597555135
0.167983015267021
0.167403982690967
0.171091415590809
0.174257780287821
0.1744693836831
0.170779035612538
0.0973091394107125
0.172457738122019
0.0982211903075974
0.103528983051945
0.0744118432741387
0.174647208921851
0.0996760570737241
0.177756758023527
0.184319210774987
0.172895600759128
0.10237404248893
0.0690303253095523
0.17214704420917
0.0820998644672255
0.0760516933318788
0.096125430474558
0.0974133302184868
0.125096585401525
0.0745308920705236
0.173999756008133
0.17891423059526
0.0708869674924774
0.183082178301061
0.111400904891676
0.174775683887487
0.0638583248863408
0.118034648389114
0.101528200344595
0.1789637016525
0.074836179587261
0.170852528809047
0.0826684248468018
0.170335428412204
0.129103065146176
0.178725225964478
0.179137460598413
0.189049740366489
0.176542637662913
0.0782035281856219
0.173052609825407
0.177137280284621
0.0947258319065998
0.0754975063644292
0.0942571147786983
0.176340437288159
0.0812212954637925
0.0889005165764959
0.177783554258506
0.184561803513145
0.0718207422727591
0.105124095550126
0.176306351554528
0.171383248963686
0.0765456011180224
0.105150501537369
0.179482499909999
0.0698334121631949
0.101851394176855
0.167989650117523
0.0956688456030786
0.164010385282638
0.0756230746786588
0.103453402184101
0.16658840897308
0.169366356756617
0.0982212008778212
0.176784494257537
0.12684535877802
0.175613219232794
0.182035720931009
0.103374157575527
0.127114352874777
0.169624736837369
0.10187207396946
0.168335852219568
0.107302511685247
0.111276438413517
0.175071340010321
0.0771687792519746
0.102051212748737
0.18334874017357
0.173273030451857
0.0848774616864132
0.100578734207337
0.073703235499205
0.16493065223081
0.0948687590853553
0.175635393610639
0.0729642309828245
0.0693820747345036
0.0719970660590101
0.168470635856263
0.183656459612507
0.0745932591297136
0.104723049218282
0.104071493739573
0.0675548994910386
0.0849892273616382
0.174108741978831
0.169211404117281
0.175564527556221
0.0702345168161978
0.0953559727127656
0.0936043826922332
0.0981101911818046
0.124397952537752
0.0993133491916607
0.0696952934644525
0.0738670462044104
0.170723280445674
0.0734744615582007
0.169895572218829
0.0726579032560352
0.170113087732933
0.0995520382695604
0.174343590196943
0.167089192370755
0.170349142906185
0.160513931896549
0.105921487543556
0.0748468155909479
0.180504843321459
0.0756561063909862
0.0819203102791898
0.083204355968436
0.0727150711332815
0.168240097792855
0.174280582457897
0.0900000459225292
0.0751634384952816
0.07180477783583
0.173647919334585
0.168817959880114
0.18289775208219
0.168343801267364
0.174898281692315
0.179946763651777
0.179952021132321
0.0759440237275059
0.106378797693575
0.101410687695244
0.176437162281936
0.0698703752823713
0.10212542488344
0.104343404364531
0.0956467448773324
0.178361565124621
0.0728571452066096
0.0696389457216332
0.0762286603737734
0.0986996863583884
0.180629758517332
0.180016851801146
0.168805330694924
0.17573815639472
0.0665390449541384
0.0931356457120337
0.174964120365764
0.176789889126655
0.16938098802356
0.180179988387579
0.182554624841968
0.170476796158773
0.107143546421606
0.122957147807882
0.103665536350858
0.101441651677786
0.0710088322495067
0.0933950361342984
0.0728239115872387
0.103952768288564
0.0785447446339462
0.100308120098031
0.0751450009153048
0.0932209435852402
0.173365696904162
0.165242966131665
0.179982001645174
0.0950873519998162
0.103327231723791
0.104995452065131
0.175274716105814
0.0948951480927953
0.185976873579611
0.12010206515513
0.105635551410957
0.175503144660971
0.178450821173931
0.0998371268727559
0.178421615248002
0.174811433973022
0.175072916547485
0.0782728180933025
0.173309461826765
0.129375332502724
0.179447197657224
0.0956540896240113
0.129511650708119
0.169501123622931
0.170794782233074
0.166179555354856
0.174657387885748
0.100134468858124
0.177812719938992
0.122102148719877
0.182934939639084
0.174146380940163
0.0666171886340397
0.0776318854015652
0.183546626551132
0.17302482104519
0.0789725600888982
0.133209441251425
0.0937416411334228
0.104413403644422
0.173137004444539
0.172161916023645
0.100939753365184
0.0821722480184233
0.0818162644019821
0.178169342183318
0.16567430798876
0.097350193753605
0.17520769240044
0.174926450774829
0.0761321315630531
0.174901285935719
0.171824580817993
0.0970356049462192
0.178182811169287
0.130916546330675
0.174758604508754
0.17520607633533
0.10495249559322
0.169991316061244
0.175038884550987
0.104579234651954
0.121524350371833
0.0728596561259183
0.169328679885382
0.107727326593588
0.10141170982109
0.102638645739777
0.174773300955711
0.173675207106769
0.176317424464266
0.171053526090733
0.171331211377428
0.10661545697429
0.176988283913663
0.171923280708773
0.129835689612058
0.183294381117586
0.126262579142843
0.0747734520713431
0.172055119395739
0.176244517055892
0.0765897218386463
0.0772795462839178
0.172570397774653
0.0985246360245239
0.170153949447194
0.175473809800003
0.100259819158783
0.175071179258311
0.104586595859723
0.0735038324434929
0.0932277556745807
0.0764956608808389
0.077869182356639
0.0985656732017038
0.0665662337548658
0.102091103444233
0.102699444864978
0.0651184374182412
0.0860228226814554
0.174597219994625
0.169239820347393
0.182092902552305
0.0963575159849458
0.0748703006145783
0.177441820003399
0.174198962358859
0.127758915795132
0.165990850099032
0.0783876568805008
0.100988462506221
0.0933770381231902
0.0916863079166942
0.0778877692002364
0.167787480365646
0.172274110520801
0.126633576607407
0.0911110553747126
0.0738786518582584
0.10171665295756
0.105893350936231
0.0958990454617697
0.115401606418445
0.0733169565579806
0.180343997042444
0.105078067829995
0.118226660768772
0.171482781306958
0.083925033196681
0.177094307126198
0.0992819262281136
0.0921669844232573
0.175051477756202
0.0756240720662451
0.172716172161838
0.128995300073831
0.174602083757428
0.171376528347936
0.0966553722944522
0.111651373512081
0.173599224225624
0.103511387165394
0.173737524047526
0.17034364073826
0.0949239060484411
0.181401875633861
0.180073464783947
0.102605697650716
0.177438038233844
0.182370376029188
0.100451495623127
0.176867374891738
0.0643379422182762
0.173870920401293
0.173383272949015
0.0720313124938017
0.0781628186616225
0.176818086504536
0.102222072718582
0.168158594817908
0.172727805111412
0.102265828258279
0.106138686727425
0.0963559377578248
0.0738436434561761
0.0754267132679862
0.166453499707939
0.104622923770761
0.102848133440409
0.0969003815858796
0.174541186988091
0.0727148163217116
0.103944841410684
0.164635312990807
0.0985981966951401
0.0973527248648507
0.0802508829283036
0.167599458755493
0.171265004092826
0.178944769800882
0.166679838249177
0.176919351845445
0.0963517102934366
0.0790076956403037
0.181303696814646
0.175444866797985
0.0777082203474298
0.166929457763732
0.16776345775341
0.0987753423195884
0.0893499055050438
0.174952332364199
0.104709221007191
0.0773801834785233
0.176085563489613
0.0973330457260775
0.100933065512878
0.0959767162556286
0.17188759060601
0.079470626286055
0.177188113686084
0.182546023793155
0.173739835490439
0.0939482735168767
0.179437614827396
0.185216073271079
0.0974398994206176
0.177709360091784
0.0773315885618898
0.187589188098483
