0.126148840891169
0.15567614711178
0.148354643569575
0.138930605902645
0.125258368332737
0.12879635827271
0.129842394424345
0.119786882021891
0.157077851110115
0.156244402799608
0.137724296001322
0.153446428389466
0.149015028342527
0.14563515678627
0.129263979221167
0.125152599969331
0.150997834979356
0.125116559648342
0.152391205223536
0.149766638775717
0.118766360560813
0.128332568883777
0.153859260792443
0.152913106353177
0.155169453883979
0.115892639100815
0.120844497668398
0.1302241014187
0.150495770469136
0.123112678075921
0.152149313405761
0.156869875634817
0.149541779826118
0.14716034679351
0.154321311955776
0.123847210340355
0.159634051983021
0.151204095848031
0.12799872642917
0.120537067174636
0.128806174015837
0.146787767593129
0.125794724370997
0.154753970325941
0.127035349655538
0.130869019143483
0.121459308161606
0.144229311957699
0.122845882729055
0.130563946363337
0.144812591955063
0.144834832880756
0.16332798691375
0.149100096722291
0.125497404214137
0.143732933445892
0.120614533084418
0.150458631613525
0.15621577453331
0.121716111752914
0.126850816776945
0.148474636444951
0.121431673290895
0.149359021581041
0.131105736543995
0.125193227021349
0.12873440996899
0.144534489678383
0.143509183384062
0.122002119033026
0.158419017677943
0.131243240288306
0.153211922295062
0.120212758550173
0.149063046927936
0.150715908193268
0.141505335032472
0.113717462481084
0.158210449008001
0.151191783979725
0.144538929779486
0.128616221661604
0.126530433996949
0.121602512950945
0.147809573100027
0.142998615413254
0.128677998442792
0.123922139184952
0.153715478080551
0.14578185249101
0.127499002307285
0.157827014534374
0.145475743333249
0.120005459182287
0.143997508660366
0.123967787701381
0.127270509815426
0.147986184371923
0.132336510852948
0.128327609787489
0.146920512258817
0.1500668591776
0.124395974785416
0.132183521959124
0.130149560723517
0.149883884754626
0.15928184415787
0.125397124392224
0.153243556685579
0.149403492081147
0.125095406857613
0.124878634117708
0.145535489564196
0.13018263095743
0.145387654982962
0.148383719420949
0.153129577057387
0.123825495146042
0.124272481007397
0.120378310214697
0.120030629859261
0.151452584192466
0.1233706834799
0.153171745939969
0.149549236236319
0.147908087068566
0.15354355968601
0.130838209326821
0.149659523608068
0.142502305292806
0.148895681286887
0.146856281243933
0.134117453593559
0.146401215205967
0.158849460465024
0.150364439403833
0.134847682370469
0.152227686321459
0.129672993259282
0.125433631657129
0.148663323697626
0.147762217825914
0.132024553915463
0.156967068414894
0.155205848566409
0.119369230690333
0.130384732077143
0.152015050708987
0.156355441106702
0.155579614724803
0.151915387792444
0.154790732542614
0.15495244374559
0.154893607972324
0.142299725309271
0.132208717801479
0.119927244778181
0.12426926798437
0.138925608844215
0.149885650675916
0.120758530433851
0.144509471645492
0.152420139208524
0.12654087157646
0.149111285329196
0.123873183765178
0.150028495296794
0.12676447761157
0.160649776817399
0.147518484952917
0.155534327976343
0.14555686669915
0.121337819653531
0.133120806589555
0.149660851903321
0.124022080199001
0.12373864071259
0.127901600255829
0.12958827445028
0.127372147046731
0.129428151751755
0.123145924970531
0.149488598148994
0.122953464965668
0.146716155418088
0.153239754994019
0.123029843426794
0.126022910280044
0.151084185700738
0.148442983774421
0.125838276061322
0.130954034368436
0.134183774759977
0.149684239646802
0.11742662659469
0.12106224564981
0.121371886868941
0.129557431509407
0.154086120477364
0.118434009950151
0.149108233256257
0.119123384215694
0.159314120732935
0.151747589641754
0.153469119787826
0.125503392040103
0.12536712420837
0.141377592475503
0.151996324150265
0.15035549604357
0.120821900360762
0.119054032529246
0.121817662709428
0.131369771199151
0.125803491974235
0.119350607318935
0.141095045629156
0.12220083211828
0.150910166788076
0.127635471198065
0.121858753826642
0.15227244360846
0.137892958208453
0.130650520393316
0.119967231428556
0.150510711079671
0.125680570714222
0.152066662816667
0.155822589400146
0.14780231382991
0.157980232924837
0.12319648706426
0.12118318285649
0.148208609222178
0.125218903166804
0.146627249773045
0.160715944259412
0.14791532230099
0.121650644181924
0.148631347198869
0.122355504929165
0.122351036936028
0.117366825549405
0.146795083917772
0.128775768911931
0.152021279255871
0.124508348013726
0.145119105851344
0.124844408691805
0.130979078577957
0.104481643382289
0.0829329209540521
0.0725466404848448
0.0728221578527466
0.0802815650285153
0.10027107474351
0.104895258231923
0.105136115618041
0.0895961062121507
0.083782586325312
0.0830858867387351
0.0995660612106399
0.098203372796558
0.0788919185264998
0.0626119352698469
0.0631067472587071
0.0751514376819871
0.0922555187862777
0.0765244331623042
0.0731617713290727
0.101706720519771
0.0918326669581388
0.0730218457748205
0.100274472930852
0.0762143227691152
0.0932671276557159
0.0778051321074981
0.0940367643047397
0.0821858424254436
0.0726570452216025
0.0841482200131206
0.0710957779936303
0.110491834188486
0.0923934605238752
0.0655352171932611
0.0764199281273114
0.0719099429017193
0.096753864651755
0.0757990565215016
0.0803177252800182
0.099611679301164
0.0990305491602519
0.095254222449546
0.068280381766308
0.0953148953909335
0.0923579472983327
0.10328014759555
0.0778114017859445
0.0976413482070368
0.081723395120569
0.076363393219131
0.109207486671245
0.0971257834537652
0.104883084614049
0.0741451894169476
0.0784800312986761
0.0966811525886408
0.100825688385505
0.105481426896185
0.111572275091499
0.075302030917034
0.0966881496970525
0.0735427296639837
0.0830011930841531
0.079656669197413
0.101557270115884
0.0798887076922446
0.106771296740289
0.104353812430071
0.0737266738045387
0.100293210208997
0.0714522138768744
0.0956837402693896
0.0676699038431637
0.100482489592445
0.0832631440562081
0.0888491902640815
0.0988546426732499
0.0685963745657447
0.105486131211129
0.0693218338905188
0.0689050058119771
0.0737284032032755
0.0928292890366835
0.108143250141016
0.095590831432238
0.077058284635079
0.0745320999971527
0.092028200973141
0.0977746881445734
0.0685616594130939
0.0715465728565411
0.09943748949065
0.101850424144881
0.0978952151846521
0.103250478914198
0.100162080478313
0.0962968666836033
0.071116789901092
0.101772224149059
0.0727431485354214
0.0754891767313461
0.0712220010413359
0.0721125711911662
0.100821896147564
0.0777849482376222
0.0997993311877717
0.0799696247214979
0.0866903685565655
0.0974287437456675
0.0690465146318444
0.106112198733638
0.11813033719693
0.074520953754259
0.092328602223686
0.0803363196224944
0.0994088419279977
0.0741465147392915
0.105856465580997
0.0828091883578977
0.0993810947053507
0.104253773774705
0.0908091904266678
0.0889439695693109
0.0958235946111409
0.0993212705288196
0.0770370784703965
0.10946371518723
0.0990254921059821
0.0926509968901005
0.0775705724389479
0.0751110335893785
0.0903427584147603
0.104725052979947
0.0781867098288321
0.098218144908909
0.10080566650553
0.0772758054613683
0.0658117070561579
0.0962358545041863
0.0797394971630277
0.102190621174061
0.0935090206388109
0.0810263974015066
0.103103269128661
0.0854149975665779
0.101246106743167
0.101726875403944
0.104720521138349
0.0712833957342816
0.101422358599515
0.0911073677957898
0.100719828181448
0.106172090823146
0.0764983524509765
0.0931634261815597
0.0720759906810147
0.0762605128508633
0.0692394694917527
0.0756146183490895
0.0862718314201857
0.0956817259994961
0.101456551229823
0.104359839389528
0.0786704238369144
0.0779805368241988
0.0696210936540132
0.0730385936508947
0.100760638687657
0.095177402514039
0.0772247517897367
0.0763090888994161
0.084354939797186
0.0729200108767722
0.0820431018971238
0.0993025128616075
0.0712502334382822
0.100248156375849
0.0747571113072768
0.0651531476655292
0.10931410114521
0.100888166506604
0.0821192394792367
0.0835390876149847
0.07010724573073
0.0735800311245263
0.0982316504634008
0.109456386300179
0.103356437323909
0.0978433271351358
0.0801098129422331
0.103717743728461
0.100640894309451
0.0982339485727863
0.0687246223811902
0.0955349521158406
0.0923548613914547
0.0693011855709571
0.108853618903639
0.0688979128781712
0.0979590074792669
0.10619640185547
0.0971353359949611
0.0956308371054295
0.0760142788425345
0.101131512143212
0.112105025006578
0.0744033083497802
0.104290397359905
0.0903043330975519
0.109812193310572
0.10195307414192
0.0729019000309235
0.0994261345224711
0.102494157221744
0.0676365746098117
0.0949152459843852
0.0847911627791799
0.0824200059044753
0.0983209851715717
0.102929728514761
0.0990554494792664
0.0881066086556697
0.0947851278220482
0.0934844745410221
0.0814236129585718
0.105433687650738
0.10557390480797
0.0790278778441954
0.0710040945046796
0.0724234859995061
0.0704619886992736
0.0784793017839403
0.0985797991322771
0.0688828430967272
0.0982180830833187
0.0911450774834442
0.0784476780643589
0.094561029530978
0.0891655307244349
0.0681617997727659
0.0985449814470285
0.100819738743078
0.0973206293823035
0.1007102176026
0.107796018213009
0.0740765233793764
0.103606974555617
0.0814610940816812
0.0977184934355636
0.126447763813955
0.0751788446887369
0.127138996887592
0.0716642551105591
0.175628034894773
0.172640188361472
0.174752286738042
0.172648570321482
0.176009570634063
0.179170207237292
0.126251546773468
0.10361245818993
0.149965758398436
0.127629921521174
0.149439772445987
0.101842115182477
0.0484767000419797
0.108106177618262
0.141024546107606
0.184547374372206
0.0727503653875894
0.123799295935777
0.0309750680178926
0.173165300199119
0.0312726461465459
0.128029514817339
0.0972589099111603
0.098272690145276
0.106863260583628
0.15538679374355
0.0997576010103072
0.0501246778865787
0.129249399821235
0.124775320770028
0.126261180270105
0.201677778230765
0.0917397835949735
0.147767156227954
0.126873800645836
0.0724907022121495
0.146205300732404
0.0948061644141431
0.148016593295068
0.022017277304522
0.045777962284161
0.0966708689271149
0.149694576236069
0.0720105640336132
0.0660709418532371
0.093967515898955
0.102619762958484
0.0680192404526703
0.184525319630375
0.154645541211069
0.107680055511537
0.0741816979064682
0.084904400848462
0.0454608448509187
0.125572866051093
0.119691564867978
0.153740458315288
0.0284102593762733
0.170931937007388
0.0808109144986921
0.0752999694593665
0.153897440197687
0.127826708125404
0.166230401679967
0.151084685808021
0.0786929277033528
0.0724156013141533
0.133448301831837
0.172405438807055
0.182865839706468
0.0731155703250568
0.0985053183099102
0.104005595614219
0.176400952205276
0.154983638292536
0.119863086657283
0.199254612117696
0.0482264352277854
0.0733677467604295
0.180327554716852
0.0876094322416644
0.178415894344033
0.18393862074928
0.0514542308508967
0.202900782688592
0.126632391592289
0.106545101450218
0.1014876068297
0.0434467301308067
0.0671267839810306
0.172079191337234
0.172561723013578
0.0766510224489355
0.0754313709603916
0.212048830240926
0.135946591551418
0.0995552741304768
0.0941790952280266
0.180416040930392
0.177881617361279
0.0817756102623653
0.0741856805201093
0.164839568809023
0.192698034119555
0.0791709413934534
0.0475508839362177
0.192274762748366
0.0820028179370268
0.0600499998426386
0.202754419628688
0.166427806154278
0.130107959297976
0.170179037218574
0.150464715755654
0.0514953706458597
0.169257128982373
0.143555075012725
0.0478054495136946
0.198070810650055
0.149741763671511
0.0757584488869995
0.171073804336533
0.128663992427069
0.132592407560865
0.119597275984072
0.0435555172243214
0.153728248793649
0.0769194810120076
0.0952449949038637
0.0999801672833901
0.0730456110157887
0.0767877224541865
0.0792535471341405
0.122875042105121
0.0967749021897602
0.149460952384549
0.0666599661770381
0.048918398352179
0.0996964668556219
0.192756464213262
0.14334815525586
0.0490580300681003
0.0742194236495625
0.122098474593282
0.070140154853265
0.123400293896886
0.150348551433273
0.0805565723894482
0.176906064678869
0.0563000079664526
0.14291726176194
0.180872785267231
0.126718555730246
0.163785815799598
0.0705189565205744
0.0775654381944963
0.172653740403681
0.152220554490464
0.122997371299596
0.132920047600221
0.188537667406817
0.151192040727013
0.0920539338113765
0.126876841634157
0.154333788983476
0.149244833216789
0.142514397174922
0.128510520570415
0.148334020729001
0.175583422540422
0.0649114939597604
0.0795737176241274
0.129580543905844
0.144213127962908
0.0510347551833927
0.200843325730654
0.113540766487972
0.145753659244779
0.0994308201689947
0.128514452694116
0.0284424681999846
0.0484258084314461
0.0963765789842223
0.180801756315722
0.121812570134693
0.150394329725716
0.124884135974459
0.086728365388173
0.0309622192112102
0.116348685666168
0.124427417583934
0.15726594433275
0.149928480424246
0.102025674299316
0.0921843227283404
0.027926855401721
0.149179638313425
0.174438648285798
0.122153259701473
0.12401870116889
0.0951104221785885
0.0468833016476192
0.204275760520341
0.0522853859083309
0.100051950375296
0.0984568012759894
0.0814013199845632
0.181018701813654
0.176981574460521
0.0893025741272563
0.0520432615862384
0.173116037198448
0.125397151504759
0.0514871619736824
0.119332318725827
0.0667351676071611
0.128223449781462
0.126982271207902
0.150392780710575
0.0463768357190526
0.0725070693546856
0.0494412170847934
0.172842237939102
0.112819289969482
0.125065906974126
0.102367559785167
0.201415404046153
0.0780933034077571
0.0767257611387219
0.153586216759302
0.0681682079369965
0.130078323301343
0.0513124400186157
0.147903797539958
0.0540758395056865
0.0436634821114673
0.118172283570466
0.125773411838202
0.118444195923372
0.0753382939979728
0.201604408728149
0.10299179696636
0.0230659065981702
0.130601406999083
0.127212236044247
0.178490550137341
0.113386479934812
0.177560690258406
0.145712232713438
0.158832573655652
0.121100745948802
0.0728758743417343
0.0402682030106461
0.0774404425241077
0.177256898788952
0.00443514550109569
0.0956760658793491
0.151820907707458
0.174979297711254
0.17579641169871
0.15552094388825
0.0547393565541023
0.101996827014435
0.195405670402032
0.142801095161625
0.0455298932517128
0.110322203917903
0.108914376448356
0.154182834798761
0.12821727333214
0.0517894435337181
0.0753274961112219
0.117679665464752
0.0498629793462527
0.073403586638914
0.102801135425405
0.034096254185136
0.142810078800896
0.179849819487054
0.127867550320933
0.0416454450736272
0.195496729107818
0.123143775275827
0.152037772582299
0.130437169116407
0.15648486583365
0.148951939385272
0.166734210577652
0.209668772049147
0.048854899442955
0.160876152650176
0.198544213825595
0.0781300058161729
0.127567702158089
0.053317598240044
0.175281857027535
0.102137171653473
0.080241027081938
0.0537636208770315
0.165818753151885
0.20769592769443
0.107445243156317
0.128621442486577
0.0782139474040101
0.178584918559686
0.172042165735834
0.102844990486565
0.132030683046396
0.148818227555093
0.191715045418276
0.0727409409325247
0.0735498414493598
0.057542194872783
0.196265805924252
0.15183171389431
0.121292723354997
0.10454289379269
0.180891365914675
0.155133786664559
0.170544775654178
0.155758229468795
0.0955226044262147
0.105966223165449
0.146445907363212
0.170022715898187
0.0485224376205405
0.0907098716990855
0.122457955559295
0.0468936442126481
0.173457221396805
0.0669091415148073
0.178676263209494
0.0986385213774024
0.205157517244481
0.100725637879642
0.221150663810155
0.149252063097577
0.102535836949629
0.15732147950888
0.171907791262252
0.0457403921248258
0.0994188180479754
0.0805104167145449
0.110153974391605
0.229978689294665
0.10510303859261
0.0718733885685604
0.156561653660785
0.0742034072695744
0.142686182762923
0.0988134406550326
0.123473494578941
0.0767480945927991
0.100228090283023
0.122135113052393
0.1461081861486
0.123690172905493
0.193449965821113
0.0425031124388774
0.0674306722305613
0.155915620957223
0.10100106034817
0.0707175895517004
0.124012758586687
0.176076409295284
0.153912618140508
0.200967637875508
0.12633022640652
0.0735200137223305
0.103342375905857
0.0785170108933822
0.0973682916607378
0.0517819402800116
0.11808386103584
0.0984015301925865
0.126699637086271
0.12359427495913
0.0445072241020346
0.0805562491791296
0.129451172756035
0.149320473006672
0.0566940467198225
0.230210314862042
0.105373077482923
0.0480308962658478
0.15308133496167
0.084091571227779
0.14926792308273
0.049174892303996
0.0977190472409174
0.155282852745099
0.0807505264499652
0.102346010000488
0.0814323448874958
0.0729745810172609
0.131942535932654
0.104266316641205
0.113437032412404
0.106689336061501
0.158438664673879
0.15575455897595
0.0748528135221169
0.0772389435215028
0.154244781198093
0.0901093345931688
0.0951781614677042
0.0785844996261303
0.0963443687993374
0.0758579711906365
0.0998053974996924
0.0474951842440266
0.170380833980694
0.204767616527124
0.0740121392093301
0.11716475807077
0.0760841909944172
0.203523827442886
0.172377363363886
0.121288576690654
0.20208571055187
0.0711327377904528
0.151782913686402
0.179257805186977
0.0922506184785031
0.0529377797971932
0.0697785898347465
0.118367373873676
0.0660955186034039
0.145992616128152
0.196529007619943
0.0814371360206037
0.149780392981463
0.205974353208798
0.132285025698607
0.149241691681513
0.123978356945973
0.081931438649973
0.119636868392368
0.0771768175096679
0.175868481075183
0.176285073260336
0.146426235280389
0.07243357846242
0.081846853307115
0.226025893133569
0.123573070525181
0.0957950896900926
0.123765086412862
0.0681777856000855
0.172841147409701
0.105155325013081
0.0971098224859582
0.14610150745373
0.18336583440778
0.125885787544408
0.099517840700933
0.166315718683004
0.147920819126764
0.0482958455101615
0.0991463993373371
0.1053697485298
0.0706560837969633
0.154226039391946
0.0530622717975617
0.117439241127384
0.121504798473725
0.147832561815826
0.101426158017015
0.169403698819483
0.0970635942084825
0.150041013253023
0.0647833558314477
0.119414569740517
0.173443375065512
0.107885718590901
0.099820329389367
0.0943946370860323
0.124858694559284
0.150221239363266
0.1960983173199
0.176655627801635
0.103297717607738
0.0798466515857691
0.144893581050647
0.102359307600614
0.0967771014868749
0.112131302838825
0.0291001715499825
0.0749691890004966
0.0698989562033283
0.102841290014854
0.1238974405603
0.151276969564092
0.0215796275452992
0.170005873846337
0.154993039135255
