0.0761200280769756
0.0647123244170508
0.0525679802577794
0.0450464940803716
0.0645079123265633
0.0468373132682444
0.0852110535542729
0.0424170414880567
0.0762535895001511
0.075911254600778
0.0721579581608269
0.0519734050915777
0.051785050849764
0.0439755412783199
0.0657634521697789
0.0741871315379597
0.0439571556008192
0.0819623852233494
0.0496898809451808
0.047693741290051
0.0476248821258162
0.0707751121387008
0.052484527004487
0.0492797955192593
0.0756474078044068
0.0673933524213465
0.0483662127665398
0.0744587658599501
0.0723290782135648
0.0389191549213462
0.0675021585369891
0.072240316689413
0.0720382895796049
0.0688816537914867
0.0489248916421229
0.0450541563279307
0.0479480342315627
0.0755365192658568
0.0542050380097069
0.048226021192101
0.0464835118645886
0.0463499954093222
0.0498803112366935
0.0600334431964297
0.0567005637629745
0.0453338120991046
0.0854375413819246
0.0489000182746126
0.0514227615258059
0.0489242329492085
0.0695158157988904
0.0741164535945801
0.0756747091139816
0.0435320441197292
0.0447538325719465
0.0524240687204331
0.0796096830618846
0.0735192219815239
0.0701225398426089
0.0476476998189322
0.0720747169880172
0.0540548876371967
0.0703193894906528
0.0527440884955727
0.0536483387654723
0.0511251805184721
0.0569726299746314
0.0520277196592174
0.0739622065291078
0.0780987958167666
0.0797717823406369
0.0666772698516594
0.0781258926675505
0.0811457796824945
0.0677287933554598
0.0743055764034648
0.0504960966622092
0.0334066982293445
0.0537642969631601
0.0477485876682319
0.0393521005332607
0.0704887438590492
0.0436031073487142
0.0464039610734586
0.0525209308481711
0.0720414907064805
0.0568218178106188
0.0784019553892222
0.0462606658151228
0.0760976066434642
0.0486720860394775
0.0500737178569261
0.0531769552266783
0.0750101198223568
0.0574679593485378
0.0496887247217954
0.054013375547715
0.0478904114722292
0.0528254461020226
0.0719292216235825
0.0461868606765209
0.0748908143609725
0.053653652677681
0.0744051230211346
0.0478167572596869
0.0772385162964252
0.0555885677823696
0.0505203057084454
0.0513965072795439
0.0490752750326669
0.0691988474648406
0.0527984839859084
0.0512094734072288
0.0533126288196563
0.071296026662794
0.0759084481029606
0.0849156144957463
0.0814187012783218
0.0748426238995664
0.053479657712027
0.0714281297261331
0.0506647045839744
0.059620490577589
0.0809564047170765
0.0614626217177365
0.0639014266607123
0.0520277876185057
0.0829071345183044
0.0772148079783776
0.0565176575192992
0.0779968952484671
0.0559201204969937
0.0798602948287366
0.0677737481104866
0.0546771468929832
0.0540140086631822
0.0732683065075351
0.0716015983939434
0.05114319315393
0.0471696201448796
0.0501606423495362
0.0397682092205876
0.0563540055498322
0.0568466214135196
0.0759535033063045
0.0429890813115265
0.0517157330037623
0.0482418390071639
0.0770911530115784
0.0691066823424543
0.0473662746388851
0.051815311627383
0.0772767986496888
0.0724028146541018
0.0653938429325717
0.0562217295531224
0.0408419860551852
0.0433569365426563
0.0530654752622321
0.0514476775434346
0.0488280117434262
0.0468324649008111
0.0522296324902594
0.0445423272064326
0.0809667566656509
0.0702843278629818
0.0500363035110088
0.0537252379587425
0.0488922165498084
0.0765423784730336
0.0520978281574888
0.0809881826105109
0.0758963420797365
0.0719502884723462
0.0542424117082023
0.0795547015777932
0.0762526762589742
0.0499891192521375
0.0710074658865675
0.0420934685427193
0.0783221947955979
0.0515923621198986
0.0494131368833199
0.0528339590428053
0.0720271742836169
0.0401618612187516
0.0405671397688801
0.0528429713116815
0.065712529999271
0.0458369419052606
0.0747847777960158
0.0479370503097283
0.0489182621262604
0.0480365774669853
0.0786353735533416
0.0528597218251049
0.0474521834101891
0.0567367398336509
0.0402690861050474
0.0551541795372691
0.0413090440935194
0.0509473032757903
0.0428451058486574
0.0746943197777297
0.0494679560768522
0.0508189378443353
0.0794502786178491
0.0808337843274004
0.053257429978695
0.067907192702688
0.0778242694151562
0.0794555632964632
0.0677862963184943
0.0521922062710422
0.053237326943019
0.0537084434383167
0.070805298413192
0.077040094812766
0.0512339278130993
0.0538877832743879
0.0444891734159916
0.0771506195391807
0.0806982868623198
0.0528698170851156
0.0553401710870434
0.0776642685583335
0.0438878464715299
0.0456098497696192
0.042533490615182
0.0571183929903046
0.0725907149972352
0.0755740597188849
0.0548155587147551
0.0835642755408099
0.0501720717149372
0.0783337391708032
0.072174911221257
0.0676314680251271
0.052568850992886
0.0471511620187383
0.0741970750719448
0.0736451222306913
0.0561109176277087
0.0505689618570357
0.0812516550400303
0.0461937283300099
0.0573728256768909
0.0744611996571706
0.0683790194183886
0.0811052420719619
0.129474330683515
0.178815337066128
0.168938631000434
0.122469985732258
0.121725156898507
0.146854124998904
0.157091679039796
0.1293769086447
0.124207631899734
0.154502523251558
0.121572958171221
0.113615123702875
0.100625128773334
0.118912422544516
0.12675617370867
0.100804440196754
0.124524402135651
0.154346244440361
0.168790443076543
0.145632228704918
0.144492285976744
0.148987320109798
0.153541083473505
0.096148676516706
0.14846579150321
0.125755872287935
0.102163945488404
0.156171665028997
0.123714698401106
0.175921986775067
0.133798258109475
0.103914848752237
0.151856766195753
0.0951796376785357
0.125625548836122
0.146057419287804
0.148769868787787
0.174511447708455
0.129729658980298
0.117202523422288
0.126560412101701
0.128162337349143
0.180892184485506
0.127134463986949
0.15765424087763
0.0490467628673654
0.178352584663495
0.170378369802868
0.100142229126444
0.147946020606684
0.14829979928555
0.0963970701114853
0.115592902963896
0.174636995027236
0.138220197565704
0.125283035914527
0.122409517055481
0.140967203079619
0.150017337552404
0.135976499054743
0.179796473274798
0.120810337565221
0.158979501188752
0.151371817066036
0.155281531920068
0.15831599299335
0.142049970067866
0.103904821798532
0.125778360564406
0.0716269775288694
0.128789589251998
0.157965463106631
0.137213944713586
0.17595495330696
0.158580644346091
0.147933756505043
0.122867909408295
0.147488881936649
0.151829518625961
0.144632565597218
0.110903217916173
0.175241176811901
0.155212969954568
0.151453617809143
0.175517892476707
0.183438678876186
0.180857432388349
0.172594206545533
0.149086456920292
0.128069378459125
0.143143344060195
0.124039275541756
0.166115953717284
0.099806332064844
0.115484093403468
0.173348161680266
0.150727911101602
0.127465136646861
0.154972316543441
0.0899731863931762
0.151673438606061
0.130370304942899
0.149775907324903
0.125996608821657
0.0481928663769195
0.149509468077772
0.151450682250498
0.156260582735196
0.141156010070373
0.122699540743033
0.151751829229416
0.170897682136147
0.0781583949896426
0.123991518048029
0.127752859534393
0.159805242551611
0.145017744638667
0.166582178496333
0.171287071626585
0.120631112485487
0.132916097543688
0.141009213434323
0.131857862903841
0.074540112112635
0.175883043040897
0.148418209386499
0.0996696599415188
0.156509292171076
0.117385000606192
0.0774313169390455
0.17074115565518
0.123531553546945
0.123053377569708
0.103189408422846
0.158783796057638
0.148711460236307
0.174555165617883
0.157561853652469
0.170898870005441
0.152483695534528
0.104449551359158
0.132373002353855
0.149608603521079
0.143960460653509
0.132860873124833
0.154045533855345
0.148372585896818
0.122232874815406
0.178374900983885
0.0739898278158097
0.156477441525961
0.148994772859331
0.11970017774705
0.122842299529112
0.176276064915291
0.126872337763449
0.15358746878494
0.0988580620263787
0.148635727419359
0.126733912061378
0.123872995463328
0.149159567088933
0.125924021616644
0.128099805110139
0.146331839469692
0.147605453042968
0.172354456054768
0.126817682044493
0.149529849414771
0.127276298433563
0.156638686418923
0.122990711273134
0.0377198894102419
0.110307248359718
0.124760575861655
0.120709065346749
0.109975173186663
0.14362002770625
0.146232369504876
0.142843460813703
0.150960283335772
0.0550278905759874
0.177904310716016
0.0927196289989743
0.155898321242692
0.128888250174035
0.151644790365575
0.0921833918795413
0.149177405873319
0.152137243545098
0.152570373146741
0.0693646491363685
0.122883624115105
0.0509827627426767
0.177722001039552
0.154086963666796
0.1087957178541
0.17059075746881
0.171590547483988
0.156225674174167
0.170800182205588
0.153989132578314
0.122087700414038
0.13086900699075
0.127792945412325
0.127445649251106
0.176694352695807
0.151298760103597
0.138460628939018
0.150309447708844
0.169892007463154
0.139643626020633
0.124058923194455
0.127034160149041
0.128970744770019
0.150889587558795
0.0749280071196369
0.168226500130992
0.152077819687551
0.12682297285332
0.142110225399222
0.178141382679423
0.0985631227262775
0.180847633159995
0.122555640406622
0.142297521325547
0.114646373331599
0.12836152816914
0.132135383739427
0.133786668160385
0.122109905697516
0.126238501839779
0.116482750014825
0.14794084640923
0.125143211991048
0.0974321519921616
0.121565075412068
0.112710106782573
0.0954634454863611
0.166977357841492
0.0998316855925931
0.153780133382709
0.146980017968786
0.0744062524602647
0.154187331832327
0.181253143895932
0.154836042187051
0.115400982866373
0.152618366798253
0.125994257716054
0.173609353647872
0.0531938634965494
0.0974831023799943
0.179941270090907
0.105222070058473
0.150993169519016
0.159067198060788
0.126002130735413
0.146960985707403
0.102023151822895
0.102393478363659
0.110195944154385
0.0783019181328974
0.131517529093388
0.0999566975371447
0.186978089380139
0.0962427743597491
0.0669168208513612
0.0478163690903923
0.151060155902778
0.181033984510006
0.128508774897832
0.126288673140255
0.0814908669599066
0.199196897203882
0.074267986953408
0.0988460488010415
0.0938790502436709
0.101908430646047
0.11953226003785
0.0983587758972451
0.131193716135781
0.15403869588829
0.10090983441148
0.150749114376412
0.122938283765249
0.120487575895151
0.171005289344405
0.154721344546562
0.135626407631443
0.125652016110235
0.0850829538983037
0.104080193485247
0.0719244929870577
0.16105490510304
0.147052439907002
0.0901032257128621
0.0286799543464221
0.103312694724118
0.121619072179379
0.124197807275305
0.183103794393204
0.133194534284223
0.154143549258292
0.157646844086089
0.0739970150438119
0.128245164431422
0.131467672751346
0.17032055742761
0.15432087078587
0.0574099742073247
0.127085199122329
0.116236309089772
0.122153039768144
0.094157048713145
0.104077585586475
0.17587934099712
0.12586809186748
0.13423894690628
0.102627297641814
0.138569761945721
0.100669436979097
0.0680480954889481
0.0698215360740155
0.152795017927234
0.105414019993663
0.106400254656382
0.123451925516376
0.130182723553075
0.179178126277605
0.147546661746441
0.110408511583951
0.0511854075942335
0.130843685362166
0.173981366367221
0.183781732118933
0.0946627823572976
0.174390247714963
0.122088223662728
0.150535480549868
0.12315886194407
0.0429748044629499
0.128976059819421
0.0974129698817687
0.172173327266258
0.119425169485129
0.147876115804642
0.0976527468540446
0.155193275819642
0.118065946849643
0.139951834808681
0.170859741351945
0.133011985863157
0.0650136348037946
0.15641979781498
0.0740922635203154
0.152809444138338
0.126560582348775
0.173171479018319
0.127375954515067
0.0955822670822471
0.10401928318047
0.126081540608812
0.199243130546005
0.186491742629072
0.051454599023058
0.15446790769474
0.10633372477749
0.0999022349961042
0.0751250979715545
0.126357346671412
0.0781921619402727
0.124479666332458
0.0975187189612185
0.171930281942123
0.0734448994447883
0.0745663383504636
0.0756786565417021
0.144162522629456
0.106878627134012
0.152597431590417
0.157372045520616
0.127672234757029
0.0616836991431735
0.18177991654746
0.0976933188909292
0.135381115450071
0.162979282950031
0.0997587364866937
0.150445311502825
0.150275239551606
0.134185465261265
0.127223083844511
0.102720133457892
0.0761907562599249
0.204906194171927
0.0413361362653036
0.0997001581171573
0.101026380916642
0.0743817737026836
0.0946093808474495
0.0750456570630331
0.144436852241103
0.144932812853696
0.14388674816982
0.207472400743926
0.0999758415311393
0.154217762493095
0.0959611845565696
0.0783856825782634
0.0442150852639879
0.0682635633022573
0.154081713093105
0.106770442808893
0.150236084929585
0.140518182103191
0.0941215817263494
0.226746420689302
0.146060554373768
0.174347230240883
0.0455947383213635
0.0827698502255106
0.112840060585497
0.097174247968338
0.0739444587333802
0.100878558565154
0.0976227655591667
0.15017436370142
0.0953722250679993
0.0995093895910269
0.146531589164853
0.073512590196292
0.0795677718061764
0.132935921474234
0.114736880478154
0.12293070494186
0.128308417170108
0.104405266706133
0.131139919600095
0.175223045542794
0.174932073269641
0.149171965162137
0.105829051076516
0.126510259800207
0.0930363946253933
0.0928967571414971
0.0985575837850592
0.181121429464521
0.0290143612891261
0.176106190146417
0.177763892722874
0.10068658443467
0.0692671419649987
0.122837899135575
0.121910351070004
0.103696089037831
0.0535641519715537
0.0982721821664532
0.182096571028429
0.0707041760841725
0.096910418996705
0.101989241880931
0.102275963524955
0.129443819637935
0.068658077535965
0.176120912656561
0.174096849908849
0.102261433370907
0.119584147527149
0.0965670226901787
0.155118050106786
0.0446791955839216
0.0397659470257118
0.199624383338545
0.0718161034909851
0.143884862165598
0.11729646730222
0.149040601486507
0.12300140221815
0.100952132280171
0.0566765671322274
0.0990001893913288
0.175028591978724
0.13749938073285
0.15185542973114
0.100532331703996
0.0189198275302881
0.0723706571058131
0.124132031087366
0.0750708727517413
0.105885538559222
0.126674233308825
0.136608202099023
0.102168341091829
0.0969581928292442
0.0830686574938303
0.120470508487034
0.0476840088292922
0.105630322575226
0.0844134578759795
0.0860652642734769
0.107435647101156
0.101590321942386
0.148657640695613
0.0713209241085777
0.13058432455432
0.169279599223823
0.121804029286286
0.123361595453112
0.115653138016064
0.131060701140767
0.151783520145997
0.0783878475169666
0.097322518964362
0.126747088342862
0.148158873772886
0.072135952656082
0.200225634623026
0.0989723303385394
0.125804615172135
0.071079456123963
0.118097736725377
0.0634286618882959
0.0784618201049614
0.170915516253409
0.0987789292344782
0.0496120070814881
0.0756595538301904
0.206899177503584
0.0758801559354308
0.121877659365965
0.0824410667741754
0.150664789448275
0.0960457238286078
0.123000899806161
0.105345836177406
0.0974727137203088
0.142727324900132
0.121817601553572
0.158034310000563
0.131489574396745
0.12873647952388
0.168917740219291
0.0743942180280759
0.126188749200695
0.167573369796133
0.139898209069076
0.166425794115451
0.133504670421376
0.0960957362634685
0.147864741432962
0.0953560275160339
0.135994981325804
0.0781282126029115
0.140913310264348
0.105536966352866
0.0712256893509447
0.140293112618608
0.152089923540553
0.0967415072219786
0.101143843392079
0.107846107131052
0.132722033730877
0.154811711137123
0.124701804692133
0.160415925733392
0.0452964969379682
0.0951872970618803
0.0996383005180269
0.0995265432353306
0.0476120639669665
0.180170219869315
0.0704905754103104
0.140437283680157
0.128482873570437
0.128092449774341
0.154523157372371
0.124723264109909
0.1380673817114
0.0647054374489125
0.143688168699929
0.102053634526646
0.119008207476827
0.153812729483718
0.0457779779054912
0.134976312455885
0.0729037903645844
0.0734143631091409
0.178367681827516
0.0938388379055021
0.14006739501348
0.168807272761853
0.0569460377278508
0.176770102932379
0.161555079338805
0.082130946966127
0.122191709669248
0.0753651485531633
0.0247583600462518
0.0845528819048374
0.143245045497097
0.143504029529368
0.199049877256657
0.0974441582186842
0.0932935245984331
0.0710786852480963
0.124826091187353
0.0567197663976719
0.149637737362539
0.174489728153443
0.149052518832069
0.0543906058204537
0.128099798048597
0.0794827411773101
0.178586495213727
0.126277140713961
0.101208850397677
0.149705055664949
0.12087964836758
0.12225005730445
0.165514468722622
0.093190308395243
0.0717424954114385
0.0187911273963369
0.0763065890712115
0.130367575370518
0.128610138583318
0.101097023558982
0.102232085910641
0.113807589473282
0.154253861778736
0.155627095770781
0.0999663536708344
0.0765015209626036
0.0811377079621353
0.157329774066291
0.128289995005981
0.114768687489466
0.152537394677335
0.141813564451837
0.179337402671435
0.116572981812742
0.118599853804348
0.13601845618687
0.1557380708443
0.15073664425165
0.198189871233066
0.0996408585381089
0.156626374659009
0.150933721733554
0.125291447583707
0.104691531627402
0.0995689659342856
0.133593674406573
0.0543149286128459
0.130950254659958
0.105687326344774
0.0598894672415893
0.127622546439519
0.150151330523207
0.0966908220997025
0.0806690000296088
0.151260994481322
0.137584162022644
0.123928053895061
0.176195362454957
0.106849886518807
0.0813208896427468
0.146469822716143
0.14745275562605
0.0591226680028387
0.0670225548030329
0.0988077931670691
0.097149266771195
0.199306831303758
0.100433280413352
0.170732197983151
0.180569512251625
0.100142681575105
0.0890149084919972
0.125153020679083
0.126288556134384
0.150291116728673
0.105658669348681
0.155483237023463
0.10191517109691
0.132886608205553
0.0693765761702472
0.0906675034815452
0.101218376053651
0.131530343146095
0.133785453497839
0.182038374910701
0.174781110521958
0.119911870140698
0.0747132304045888
0.114657183746926
0.0739897244264253
0.12672376848055
0.102024580453872
0.157399836796088
0.099649772559974
0.156091472584529
0.131653485690735
0.0980563820721341
0.19846019983665
0.121459827827471
0.174001801429268
0.0956418105509495
0.177702995367213
0.0997944195914552
0.0806266152995289
0.126637433209007
0.119864522219797
0.128623912789728
0.11268657743207
0.0973249011413994
0.102421201502847
0.203747393857708
0.149652638555689
0.0733438991440259
0.0825160638935697
0.118736149300056
0.103594815119376
0.0288456110682096
0.0831789089625226
0.0774928565962863
0.122279740875654
0.0750975272723679
0.131467269738384
0.150447594075153
0.151252479200677
0.0606427302945822
0.10125943372224
0.0724606323309635
0.076688998394242
0.17910354455531
0.119676608168656
0.0781761538686656
0.149466364881007
0.0815208408583523
0.102258299806711
0.0762762681989324
0.154539493736919
0.103798479853535
0.118231915637084
0.132291591935483
0.161641697755674
0.119295197671874
0.125590461362434
