0.0786312297975329
0.0768891152602778
0.0623445006539647
0.0744839525765449
0.0732581345098763
0.0747310969695262
0.0739073238652741
0.0691013091276737
0.0708575377899424
0.0820935586484189
0.0833955681267877
0.0760088529331087
0.0689530314198936
0.0657992309548236
0.0766556956149108
0.0629886255165718
0.0769270402664703
0.0725665772437847
0.0734663561572799
0.0753632608514836
0.0790281552550791
0.0680153069849373
0.0760451380537971
0.0779754203361483
0.0776497096471276
0.0725015640966281
0.0774677109409195
0.0725288777610218
0.078724412460937
0.0740464273467061
0.0719059389516745
0.0764285408109157
0.0800777535778342
0.0769907617200103
0.0709247444250727
0.0818783801756464
0.0705412812310562
0.0769169264357897
0.0794672022938467
0.0704670192692306
0.0696984477093364
0.0768644216592862
0.0804957317269541
0.0669119595133278
0.0651631462052945
0.074431470481174
0.0775541613176053
0.0767300799218019
0.0812205758473175
0.0779323715522515
0.0769689759525159
0.0746370715552625
0.0754613748088848
0.0709264497639555
0.0846493368140066
0.0834740438687859
0.0668072429414934
0.0811636684693615
0.0755965842345254
0.0753115443682681
0.0750678006244169
0.0822041423762541
0.0758193224065278
0.0715853583353377
0.0749414933837277
0.0699213864937255
0.077142263015136
0.0777810904832783
0.0788876558022619
0.0780554050131449
0.0784169862629224
0.0799478834797001
0.0713936498472627
0.0697793472759796
0.0718474483937424
0.0732846381043678
0.0722264063081518
0.0692788770593231
0.070491777948725
0.0720503024608165
0.0703620219717731
0.0690714700142305
0.0762548812244578
0.0716615348461957
0.0685600100580011
0.0768116969036592
0.0817001989821533
0.0779544950068787
0.0719345079689906
0.0706656789566586
0.0730352255986834
0.06828404450272
0.0744291216848204
0.0755764137870728
0.0735751594132459
0.0742356125788831
0.0836303092068962
0.0718069774394251
0.0803098962325177
0.0762136828542
0.0743394959053298
0.0753685987192293
0.0780194909414363
0.0746862115083112
0.0667406696685057
0.0809215518674273
0.0748968119121195
0.0810960480554977
0.0772840519831511
0.0790932126101427
0.0730589678090202
0.0666048246951164
0.0736579996293678
0.0704714116619625
0.0727376206380801
0.0766487101146414
0.0681941615760024
0.0729640290354428
0.0721333243859971
0.0780236472138122
0.0649741869761199
0.0821767996978414
0.0827323643515114
0.0713185895367889
0.0746789038234778
0.0817440092446809
0.0695983839361704
0.0704123434099024
0.0677184936967014
0.076296239975427
0.0738731315414654
0.0708533195206516
0.0858852178862987
0.0769478667609146
0.0766456263825498
0.0761254340579163
0.0771770041698498
0.0747942587849146
0.0788740608090429
0.0715291291310416
0.0692279234854696
0.0841005029522657
0.0751856136164663
0.0712087926685026
0.074376997969107
0.0809843303352352
0.0612467842172359
0.0746699544067938
0.0756095733352693
0.0720203105620565
0.0758863953162362
0.0720457720487142
0.0789553639349965
0.0741373661549732
0.0785133131878765
0.0731372952854247
0.0715750972719987
0.0749284859168174
0.0732946005333011
0.0752831986303944
0.0800202695298737
0.0712488166891315
0.0800005094706441
0.0803520604792657
0.0723385409404245
0.0713544570901994
0.0794908474786141
0.0674206080573393
0.079411786145278
0.0784091025270089
0.071668016938598
0.0696054427502872
0.0758021160385661
0.0787305268472955
0.0776195548531887
0.0796327623374758
0.0608403695040698
0.0730622202723018
0.0806382194148708
0.070489940977911
0.079148647718275
0.0762185998593328
0.0672163010670414
0.0723820879172618
0.0711196167920827
0.0774897488159065
0.074577877100823
0.0836746336268439
0.0758555297971249
0.0875836512057712
0.0779891652087869
0.0798041869439041
0.069875747122794
0.0841391210773996
0.074839110189862
0.0754375449257875
0.0639250532883509
0.0729667957682205
0.0805177004051559
0.070247363440156
0.0787484680497539
0.0653753114855735
0.0725514554663819
0.0707434008724328
0.0748090812810846
0.0754806590114411
0.0684726400899508
0.0703069782356138
0.0822593027614298
0.0643596588755394
0.0785293237222304
0.0735471329796357
0.0754037583119868
0.0627720850538983
0.0769071026254176
0.0788131141371757
0.0774000032433373
0.0732229561640199
0.0753386529178453
0.0720629647493916
0.0744101955410444
0.0805687418051486
0.0766199099115835
0.0854209842448149
0.076702943099222
0.0845193320348353
0.0794980201874611
0.0701456931357194
0.0687936298649284
0.0640547436392069
0.0669055889430186
0.0739911741059834
0.0798406208111536
0.0657176025976298
0.0683772093814813
0.072612560232658
0.0656638373889041
0.0826195816573941
0.0727418127584941
0.0736230547460026
0.0804999494960415
0.0736346972290292
0.0788550091325012
0.0845044125286318
0.0717770352999468
0.0779064281525783
0.0784666412326049
0.0675604217342012
0.0746913525092275
0.0707779958276415
0.09914469138101
0.090281369315904
0.0948408677282679
0.0960490056434507
0.105950455443125
0.102582761926624
0.103774957230042
0.0938406743235444
0.100494168791125
0.0929350415294457
0.0999495803055141
0.0900548492205508
0.0987712216224095
0.101458987334793
0.102000669445028
0.0935299795517971
0.0992358102192647
0.104164944453641
0.102860015720763
0.0908011686040942
0.103037191194794
0.102624541423688
0.0992735000748209
0.0988192119720107
0.1017496616929
0.110988339347483
0.102392716098456
0.09881779643227
0.104616968953156
0.105695157823526
0.1045821979478
0.100749773881542
0.0997375393575404
0.0990728454528724
0.0978040181769143
0.105704398929974
0.0956610306060589
0.100303718088598
0.105947025917762
0.0989854926381647
0.105437732851028
0.095731594650187
0.0944747811574022
0.101875783081939
0.1047991830094
0.105472877526087
0.0912135838907042
0.0928472274140078
0.102642002285637
0.10310867543759
0.0935748531838887
0.105272449563064
0.10115430970309
0.0930287576660385
0.103684973125977
0.102670691609331
0.097643579795464
0.0970965218077683
0.104325564997904
0.105011328335267
0.099987121549787
0.100987886839928
0.105915811951372
0.109094968139075
0.105027264819896
0.102034605421805
0.110022122016082
0.10018715900807
0.104408297039162
0.106647371755395
0.100933204609995
0.100565814385083
0.0926620841468738
0.0963872785288206
0.0972461160480744
0.103793713008456
0.0978895185781315
0.0928174654555955
0.108222851140484
0.105851508860605
0.110282977655904
0.089269854100287
0.0939823178438234
0.107269892409169
0.10160502544537
0.0960325438279052
0.0944391724566245
0.100949279614224
0.0964932763442322
0.0968239393150788
0.0960510814021313
0.0989074486191152
0.100901670227092
0.101455015131316
0.10062218460362
0.103227082886676
0.111615480429328
0.100219769769052
0.0978323048254585
0.088868933099999
0.0992674619268395
0.10102551124353
0.111496583598982
0.10083634097567
0.100005497507111
0.101821526311414
0.10742264845807
0.100196653982089
0.0987380716366841
0.0912580299021832
0.103381929902237
0.100207017047477
0.105126320767805
0.0973760175033265
0.0993087464829038
0.103109911629504
0.0979877734746958
0.101471592298009
0.100115248791936
0.0967603662750508
0.101704876001282
0.104208298295989
0.106918435427991
0.10153733054218
0.0946897074643488
0.0998728932436064
0.103596579090846
0.100117202314852
0.0952956264504572
0.0958759180758569
0.0973955250366057
0.100464105295189
0.0996123147746032
0.1116070953168
0.106013901243111
0.100378196643367
0.105179287675343
0.0898755838741268
0.106828822519112
0.106139083742914
0.100068512628592
0.0944389638833574
0.105593655942371
0.105966396568433
0.0998884380703031
0.10678726315289
0.102293897671938
0.0999327306996798
0.108580464863781
0.102488033338525
0.0998989338803684
0.100963858088369
0.10318859875406
0.0974105578491239
0.0990639800089279
0.1035956492264
0.104024919081173
0.0987570992328766
0.107828116714027
0.103708448248751
0.104238533752108
0.0941496493131551
0.108950956774605
0.0945745190822892
0.102480239909371
0.105255533572492
0.10172785166483
0.0991971004405344
0.104379706639115
0.0984857188022077
0.0982135370298131
0.0968461561060175
0.103429278863998
0.10302330692867
0.0937675189911054
0.0927877735053483
0.0970704692544325
0.10434595400223
0.103524023356215
0.0949695200858601
0.102932511649679
0.0860240579761005
0.0971459054023281
0.094402446576487
0.0936219278220822
0.0981624708957655
0.0996273834608574
0.0950947817413123
0.101116245991045
0.104206607108526
0.0947999372430628
0.100141222511337
0.102623332860987
0.106356597289435
0.100859182505408
0.0967393391183759
0.0999907145433096
0.0978607797794749
0.0957242077055172
0.106173599581048
0.101573893132473
0.0998955975601165
0.0966542321890085
0.0965736228977628
0.10562117550693
0.105680608345217
0.0928367198791825
0.0992210667268704
0.105472528487535
0.0966567500826568
0.0937994815465753
0.0973878069839829
0.103168494124913
0.0996751094047602
0.100701485858388
0.0942019278799485
0.086168257052266
0.103714016112642
0.10124213935725
0.106954891775003
0.0968256471730537
0.0991046913681235
0.105013616841072
0.102597175800203
0.0950602988424137
0.0963107763890364
0.101377024670914
0.103729412206606
0.107064094790416
0.0975354534431747
0.106078911974963
0.0994931420740311
0.104419610569186
0.101812438246492
0.108898060648376
0.103080123692227
0.1005696734472
0.105939784062008
0.0985672415755721
0.10224529114177
0.0966945611410132
0.102525999401643
0.0934132201190056
0.101979188133915
0.103151479221614
0.0990444306095733
0.0910823000453598
0.0988100319489878
0.104559805915308
0.103560163162873
0.162371354229378
0.109147276620873
0.129944241948201
0.149841069729235
0.152862729452933
0.0527358917815328
0.0749713775291287
0.174941345750826
0.152220379980126
0.123646716741863
0.106566921513876
0.0702661167165886
0.0782783496035179
0.0456628701776738
0.122169797443028
0.0499563090417824
0.200554337077168
0.149467763744006
0.10180289954441
0.0682981591823379
0.126195560643649
0.119718971509309
0.0695265617640911
0.127327399862589
0.0719702806857916
0.123091472923025
0.0967097604734348
0.0259467647019919
0.147812698777753
0.115128558560429
0.174587680136262
0.0997280411255508
0.0950754076083991
0.119709256657417
0.100169246598652
0.122536477368869
0.105129714015958
0.0961721749011125
0.0600023381997052
0.144415342030188
0.0555523196435061
0.19627943703094
0.152346720584589
0.0837661748252536
0.0705949050361571
0.0655264766931611
0.17586905264736
0.0508856336528503
0.114306463461971
0.0745751825387221
0.148157332137173
0.116086789308587
0.123323327432544
0.150303896174455
0.22544416650289
0.123693731256211
0.183108710697552
0.0430339139907953
0.0948116520572869
0.0917243835144779
0.222467308517753
0.17568095287973
0.161592203946869
0.0877043289505315
0.244696281142185
0.109122126863238
0.128270766164648
0.14726387769565
0.125181101096842
0.131784991022493
0.0991331359180043
0.233420929112097
0.0971070672667221
0.129299635242453
0.11924218644246
0.155322821168811
0.0523112591550093
0.0943459636591399
0.130677238024631
0.093080202275827
0.130891428834836
0.0996342459849091
0.125657110305627
0.101482542898469
0.0729764030557121
0.110070182916624
0.152186114026747
0.0919014650793722
0.148013371310106
0.0493397980349893
0.128808496641342
0.0974235035869947
0.15524888786603
0.120313970585372
0.169147200367355
0.128663207066416
0.144046631347278
0.102722726233079
0.143762442254175
0.0533096865340729
0.0777720321762993
0.131265825996552
0.0964731177701139
0.145930794297265
0.227366043294665
0.103900159618835
0.154462976975949
0.093462295583302
0.0543590981038576
0.097779632310551
0.180431022680502
0.146609264379703
0.205734978532024
0.200117384486974
0.097586680458902
0.179220688469575
0.100187000066891
0.0998386139910362
0.147794861465156
0.18112236138815
0.125934602045287
0.0947138822206612
0.153945997729483
0.207768815861494
0.171237519916367
0.139831243778386
0.0809152897497655
0.0509723558666878
0.123328535947851
0.167840056647571
0.161530218021654
0.105686762176359
0.0509819823801501
0.0748951747860065
0.159534125401742
0.152316718231213
0.151207059810769
0.166884769663265
0.204353693438506
0.174574121446351
0.099217635395712
0.148839736595968
0.109750418053334
0.149779785534776
0.118788461870532
0.147876321080853
0.152294758723378
0.100148211300269
0.0994708506282065
0.175829476705527
0.097311359788451
0.0770244242850938
0.20449124822948
0.121707234674347
0.0736746960854348
0.127685598633986
0.122455094154183
0.207494887048861
0.102104908008397
0.0987942987468187
0.0799848896033301
0.076073623755112
0.149430337913879
0.153277283859431
0.128650228862985
0.0942566701435818
0.100128195492866
0.054891878874154
0.181543236706852
0.104271980808243
0.096396426887348
0.124845235526302
0.157650358932341
0.124635994962358
0.0495171204851659
0.146290387936371
0.101705345832499
0.076630521622439
0.130882283602629
0.0996243371026452
0.128445037289656
0.157082409652947
0.072931201631515
0.0802689076753246
0.152377102734663
0.102960948166734
0.146524525341587
0.118109207252911
0.0367867614258913
0.0796237406509956
0.133348669715688
0.150939878715914
0.100427010674925
0.100011878899243
0.123766726309854
0.224340714969024
0.174663933068502
0.0692185115287409
0.144532900677121
0.169346075247344
0.0674459271841259
0.144917535402435
0.125420504851834
0.0758624394235605
0.12364605796831
0.100985851230402
0.168389165001802
0.166695820499877
0.12279270897304
0.109973654813617
0.173906896385187
0.127689150117386
0.197289650086364
0.174573815088111
0.145729936573415
0.157375117807208
0.200513219364081
0.153302362540077
0.146470854702131
0.192434513979695
0.126031840797132
0.15032489481122
0.12890528752755
0.0730146262888798
0.0783339461721592
0.103874837228883
0.134954121272722
0.121831894826171
0.0976086822296074
0.151038443831359
0.132016574632529
0.0190697792526639
0.174768558307331
0.153781261403387
0.0936677910476759
0.196345518833748
0.0970538750466816
0.0993933446535907
0.201174882379011
0.056701958039306
0.0487697539408475
0.0718020064907647
0.149610315916466
0.100493169651355
0.126818462176511
0.128707119498978
0.0956323993166453
0.176307352935236
0.16924695140052
0.0576166571702928
0.120348618602229
0.15078100329299
0.092103183563704
0.15775861124342
0.156013269455194
0.184751008504401
0.099461327215055
0.150988052450786
0.178209600921489
0.145029572328626
0.148741430798715
0.12273147104957
0.115911975219125
0.199561130449019
0.196538126434522
0.125120286837762
0.0721634663753457
0.149830483607791
0.197370687843227
0.0535456469962046
0.103984851319493
0.0819562419197901
0.151108389680272
0.179812531533322
0.0927888532437761
0.0727980445887037
0.0196675205987822
0.125001116368627
0.175554531145037
0.117036471715903
0.0955745206057002
0.107805219505048
0.16550085855955
0.135043870232837
0.195124350096668
0.0919831820986889
0.0451021248168386
0.102281959202672
0.1425958798513
0.155927596412091
0.118536956621508
0.0740735424131305
0.101054545444897
0.104149530841531
0.0768101081786678
0.122029186747532
0.121365303084143
0.153016088586205
0.11844263346986
0.121483442384105
0.0745102593771541
0.120964321730735
0.178397347016977
0.120214402217778
0.143821161928827
0.153890342486668
0.1453481387606
0.1794944787568
0.130475308984221
0.154641133652688
0.0992500701223976
0.1287869615033
0.104001881361965
0.143048788488451
0.0723595968305178
0.0978922654804936
0.0972291759940751
0.108853130609068
0.100320652303953
0.101179323841268
0.174490549281454
0.160762443776819
0.128812575234649
0.154347702066958
0.147704919248138
0.124939654556323
0.245572606582108
0.200025154802088
0.100517898478868
0.12478861026153
0.12287113547969
0.0714335856490608
0.104429327671996
0.171776661898262
0.107684701421841
0.0423805476746029
0.0756832678937758
0.197250071224255
0.122145759714095
0.104188314215404
0.0497775064649148
0.102292929888468
0.154953669765416
0.14936436910959
0.170781318331018
0.11970598443562
0.0479922689892829
0.152451669350831
0.0775467507179857
0.0521825139825811
0.153112005338269
0.0957166211416056
0.100891855803209
0.121388754538767
0.127183862870189
0.150962235565211
0.125553611939044
0.0774547807009745
0.168761053762535
0.120675987167454
0.172562237275924
0.152926289751559
0.1295677364986
0.0753161535792917
0.227530203859023
0.125753868133475
0.146506205067989
0.154130921983432
0.0807340433548121
0.127332326049609
0.151541841278267
0.123850083613954
0.128140070751101
0.129892978208101
0.20507766288881
0.0979314598670582
0.150433989725529
0.069009934177239
0.0978320758898968
0.176854980060767
0.159123351809654
0.124208884181732
0.142788263477441
0.118122500785011
0.126545543876627
0.0511258764995048
0.0769226701452169
0.18023616485567
0.167964138528269
0.119129837997723
0.204438770840925
0.0498294533592589
0.179598973728961
0.117727935791117
0.150934720601927
0.123631784294245
0.14803706584639
0.125161934371657
0.17447212702458
0.0524050869471573
0.145134933967127
0.123670478626933
0.112366061331389
0.0957875538754857
0.0647301466255144
0.124807336690778
0.097587270406713
0.0758263527523819
0.152197963526719
0.101446631795495
0.151912063490822
0.133124788811858
0.122523954090337
0.105756444647742
0.0876686986301358
0.0946057018735479
0.197778184582696
0.043865830144783
0.148833199056324
0.124687169205356
0.202686975365756
0.125790004985515
0.0787940094972777
0.123425739320715
0.121825509500101
0.0919828085327557
0.0770685310969105
0.0996396870312259
0.200161467420006
0.197130675968444
0.181747667468418
0.143247147705568
0.175574719954609
0.153031774162364
0.0979416268580864
0.152265576762336
0.151995235792735
0.100948588881865
0.143304289365445
0.0494967524310179
0.127986900611206
0.200777173719668
0.0428298659661982
0.124894373842324
0.103852226432556
0.103278714942037
0.150515059624338
0.156463902220299
0.126711003358374
0.146766986764244
0.119767536009074
0.130919334849187
0.131976627137885
0.205606352411584
0.152713582169137
0.127019225862665
0.0971548825240654
0.144611535242613
0.101214790274186
0.0767696836837581
0.128448307616945
0.175045143102463
0.142528757656797
0.0481102311192242
0.123048659933399
0.149828282667496
0.120988303012929
0.102757531198072
0.185805827907633
0.129473901203497
0.147852016972536
0.153668404619534
0.226570231688897
0.165328361739509
0.100770413637961
0.173602760348009
0.0799365052317055
0.15084930986848
0.199881445534775
0.044283106243176
0.0994079792385742
0.0915207171078412
0.125563731897592
0.0771780789367568
0.121690426724845
0.0743143255503306
0.158873095098304
0.143120870392242
0.150765641118355
0.0761108500248389
0.126391763544874
0.0541355259571222
0.172006898856779
0.156206083836851
0.0970725040223572
0.127960758138593
0.150843735133098
0.198303370787121
0.226015616695291
0.0949912332461627
